{
    "files": [
        "buffalo-dance.txt",
        "caicedo-with-pole.txt",
        "chinese-laundry-scene.txt",
        "hadj-cheriff.txt",
        "souvenir-strip-of-the-edison-kinetoscope.txt",
        "the-cock-fight.txt"
    ]
}