{
    "files": [
        "a-dog-s-love.txt",
        "an-elusive-diamond.txt",
        "broncho-billy-and-the-greaser.txt",
        "by-the-sun-s-rays.txt",
        "caught-in-the-rain.txt",
        "daisy-doodad-s-dial.txt",
        "gentlemen-of-nerve.txt",
        "his-favorite-pastime.txt",
        "his-new-profession.txt",
        "in-the-land-of-the-head-hunters.txt",
        "little-billy-s-triumph.txt",
        "one-touch-of-nature.txt",
        "recreation.txt",
        "rip-van-winkle.txt",
        "the-decoy.txt",
        "the-plumber.txt",
        "the-virginian.txt"
    ]
}