{
    "files": [
        "a-life-for-a-life.txt",
        "gretchen-the-greenhorn.txt",
        "ham-and-the-masked-marvel.txt",
        "joan-the-woman.txt",
        "luke-rides-roughshod.txt",
        "luke-s-movie-muddle.txt",
        "manhattan-madness.txt",
        "one-a-m.txt",
        "prehistoric-poultry.txt",
        "the-phable-of-a-busted-romance.txt",
        "the-return-of-draw-egan.txt",
        "when-i-was-dead.txt",
        "where-are-my-children.txt"
    ]
}