{
    "files": [
        "convict-13.txt",
        "de-light-making-an-electric-light-bulb.txt",
        "der-einbruch.txt",
        "excuse-my-dust.txt",
        "headin-home.txt",
        "his-royal-slyness.txt",
        "lights-and-shadows-in-a-city-of-a-million.txt",
        "neighbors.txt",
        "nomads-of-the-north.txt",
        "on-doit-le-dire.txt",
        "one-week.txt",
        "robbery-under-arms.txt",
        "sand.txt",
        "the-dippy-dentist.txt",
        "the-jack-knife-man.txt",
        "the-ouija-board.txt",
        "the-suitor.txt",
        "the-toll-gate.txt",
        "what-happened-to-rosa.txt"
    ]
}