{
    "files": [
        "arizona-days.txt",
        "astronomeous.txt",
        "brasa-dormida.txt",
        "champagne.txt",
        "dinner-time.txt",
        "flying-elephants.txt",
        "gallopin-gaucho.txt",
        "goofy-ghosts.txt",
        "hangman-s-house.txt",
        "idle-eyes.txt",
        "inflation.txt",
        "ko-ko-s-catch.txt",
        "kurama-tengu.txt",
        "leave-em-laughing.txt",
        "she-said-no.txt",
        "sky-scrappers.txt",
        "skyscraper.txt",
        "tall-timber.txt",
        "the-best-man.txt",
        "the-eyes-have-it.txt",
        "the-keystone-patrician.txt",
        "the-matinee-idol.txt",
        "the-seashell-and-the-clergyman.txt",
        "the-smile-wins.txt",
        "the-toy-shop.txt",
        "the-white-eagle.txt",
        "there-it-is.txt",
        "zvenigora.txt"
    ]
}