{
    "files": [
        "a-cottage-on-dartmoor.txt",
        "ask-dad.txt",
        "atlantic.txt",
        "boxing-gloves.txt",
        "charming-sinners.txt",
        "dans-la-nuit.txt",
        "drag.txt",
        "drifters.txt",
        "everyday.txt",
        "hawk-of-the-hills.txt",
        "high-voltage.txt",
        "house-cleaning-time.txt",
        "images-d-ostende.txt",
        "marianne.txt",
        "mary-wigman-danser.txt",
        "nothing-but-the-truth.txt",
        "piccadilly.txt",
        "speedway.txt",
        "street-girl.txt",
        "summertime.txt",
        "the-bees-buzz.txt",
        "the-dance-of-the-paroxysms.txt",
        "the-great-gabbo.txt",
        "the-jazz-fool.txt",
        "the-lady-lies.txt",
        "the-last-warning.txt",
        "the-man-i-love.txt",
        "the-merry-dwarfs.txt",
        "why-girls-walk-home.txt"
    ]
}