{
    "files": [
        "a-midsummer-night-s-dream.txt",
        "a-trip-thru-a-hollywood-studio.txt",
        "after-office-hours.txt",
        "annie-oakley.txt",
        "balloon-land.txt",
        "barbary-coast.txt",
        "becky-sharp.txt",
        "between-men.txt",
        "beware-of-barnacle-bill.txt",
        "break-of-hearts.txt",
        "bright-lights.txt",
        "broken-toys.txt",
        "cab-calloway-s-jitterbug-party.txt",
        "car-of-dreams.txt",
        "charlie-chan-in-shanghai.txt",
        "choose-your-weppins.txt",
        "cock-o-the-walk.txt",
        "composition-in-blue.txt",
        "flowers-for-madame.txt",
        "for-better-or-worser.txt",
        "front-page-woman.txt",
        "g-men.txt",
        "gold-diggers-of-1935.txt",
        "gold-diggers-of-1935.txt",
        "gold-diggers-of-49.txt",
        "hoi-polloi.txt",
        "hong-kong-nights.txt",
        "housing-problems.txt",
        "how-to-sleep.txt",
        "la-fiesta-de-santa-barbara.txt",
        "magnificent-obsession.txt",
        "make-a-million.txt",
        "midnight-phantom.txt",
        "on-ice.txt",
        "one-room-schoolhouses.txt",
        "parrotville-post-office.txt",
        "personal-maid-s-secret.txt",
        "peter-ibbetson.txt",
        "primitive-pitcairn.txt",
        "public-hero-number-1.txt",
        "rasmines-bryllup.txt",
        "roberta.txt",
        "ruggles-of-red-gap.txt",
        "scrappy-s-big-moment.txt",
        "shadows-of-the-orient.txt",
        "strangers-all.txt",
        "sunset-range.txt",
        "synchromy-no-2.txt",
        "texas-terror.txt",
        "the-eagle-s-brood.txt",
        "the-headline-woman.txt",
        "the-keeper-of-the-bees.txt",
        "the-lone-wolf-returns.txt",
        "the-mystery-man.txt",
        "the-old-plantation.txt",
        "the-rainmakers.txt",
        "the-raven.txt",
        "the-right-to-live.txt",
        "the-vanishing-riders.txt",
        "the-wedding-night.txt",
        "toll-of-the-desert.txt",
        "traveling-saleslady.txt",
        "trigger-tom.txt",
        "valley-of-wanted-men.txt",
        "vanessa-her-love-story.txt",
        "wagon-trail.txt",
        "way-up-thar.txt",
        "werewolf-of-london.txt",
        "when-the-cat-s-away.txt",
        "wings-in-the-dark.txt"
    ]
}