{
    "files": [
        "an-italian-in-greece.txt",
        "arms-and-the-man.txt",
        "attack-of-the-puppet-people.txt",
        "badman-s-country.txt",
        "beekeeper-s-scrapbook.txt",
        "black-tide.txt",
        "damned-holiday-prokleti-praznik.txt",
        "desire-under-the-elms.txt",
        "et-hundeliv-med-mig.txt",
        "further-up-the-creek.txt",
        "girls-on-the-loose.txt",
        "god-s-little-acre.txt",
        "hell-s-five-hours.txt",
        "how-to-make-a-monster.txt",
        "kill-her-gently.txt",
        "la-nipote-sabella.txt",
        "man-or-gun.txt",
        "murder-by-contract.txt",
        "new-adventures-of-puss-in-boots.txt",
        "o-noivo-da-girafa.txt",
        "operation-concrete.txt",
        "passport-to-shame.txt",
        "pastori-di-orgosolo.txt",
        "pescherecci.txt",
        "royal-cat-nap.txt",
        "smiley-gets-a-gun.txt",
        "sweet-and-hot.txt",
        "tarzan-s-fight-for-life.txt",
        "ten-days-to-tulara.txt",
        "terror-from-the-year-5000.txt",
        "the-battle-of-the-v-1.txt",
        "the-captain-s-daughter.txt",
        "the-defiant-ones.txt",
        "the-doctor-s-dilemma.txt",
        "the-gypsy-and-the-gentleman.txt",
        "the-lady-takes-a-flyer.txt",
        "the-law-and-jake-wade.txt",
        "the-lost-missile.txt",
        "the-proud-rebel.txt",
        "the-return-of-dracula.txt",
        "the-snow-heron.txt",
        "the-volunteers.txt",
        "the-whole-truth.txt",
        "the-world-was-his-jury.txt",
        "tom-thumb.txt",
        "veronique-and-her-dunce.txt",
        "voice-in-the-mirror.txt",
        "wolf-larsen.txt"
    ]
}