{
    "files": [
        "alyonka.txt",
        "arturo-s-island.txt",
        "bill-of-hare.txt",
        "blue-moses.txt",
        "collegues.txt",
        "die-unsichtbaren-krallen-des-dr-mabuse.txt",
        "dog-star-man-part-i.txt",
        "fallguy.txt",
        "four-for-the-morgue.txt",
        "geronimo.txt",
        "it-only-money.txt",
        "joseph-and-his-brethren.txt",
        "kid-galahad.txt",
        "lamp-in-assassin-mews.txt",
        "le-massaggiatrici.txt",
        "le-poulet.txt",
        "life-for-ruth.txt",
        "lonely-are-the-brave.txt",
        "mondo-cane.txt",
        "moon-pilot.txt",
        "no-exit.txt",
        "ohne-krimi-geht-die-mimi-nie-ins-bett.txt",
        "on-the-beat.txt",
        "return-of-the-general.txt",
        "ride-the-high-country.txt",
        "ring-of-terror.txt",
        "satan-in-high-heels.txt",
        "serena.txt",
        "sergeants-3.txt",
        "sky-above-and-mud-beneath.txt",
        "story-of-one-crime.txt",
        "thanatopsis.txt",
        "the-cabinet-of-caligari.txt",
        "the-flying-man.txt",
        "the-notorious-landlady.txt",
        "the-pigeon-that-took-rome.txt",
        "the-pirates-of-blood-river.txt",
        "waltz-of-the-toreadors.txt"
    ]
}