{
    "files": [
        "1990-fia-formula-one-world-championship-season-review.txt",
        "1990-fia-formula-one-world-championship-season-review.txt",
        "a-d-police-file-1-the-phantom-woman.txt",
        "a-gnome-named-gnorm.txt",
        "a-green-journey.txt",
        "adam-s-rib.txt",
        "agneepath.txt",
        "alienator.txt",
        "alone-together.txt",
        "ankusham.txt",
        "another-48-hrs.txt",
        "antonia-e-jane.txt",
        "arachnophobia.txt",
        "athisaya-piravi.txt",
        "betsy-s-wedding.txt",
        "blood-games.txt",
        "bobbili-raja.txt",
        "body-moves.txt",
        "brion-gysin-s-dreamachine.txt",
        "by-dawn-s-early-light.txt",
        "cadence.txt",
        "camp-cucamonga.txt",
        "cartel.txt",
        "casanova.txt",
        "class-of-1999.txt",
        "crazy-people.txt",
        "danny-and-the-dinosaur-and-more-friendly.txt",
        "dead-girls.txt",
        "deewana-mujh-sa-nahin.txt",
        "demon-cop.txt",
        "demoness-from-thousand-years.txt",
        "depeche-mode-strange-too.txt",
        "don-t-try-this-at-home.txt",
        "empire-of-the-dark.txt",
        "fatal-termination.txt",
        "force-of-circumstance.txt",
        "forever-activists-stories-from-the-veterans-of-the-abraham-lincoln-brigade.txt",
        "freeway-speedway-2.txt",
        "from-hollywood-to-tamanrasset.txt",
        "gary-moore-the-midnight-blues-band-live-at-montreux-1990.txt",
        "ghayal.txt",
        "ghost-dad.txt",
        "ghost.txt",
        "goodfellas.txt",
        "grave-robbers.txt",
        "h-2-worker.txt",
        "haatim-tai.txt",
        "hansel-e-gretel.txt",
        "his-nickname-is-beast.txt",
        "hollywood-hot-tubs-2-educating-crystal.txt",
        "in-nome-del-popolo-sovrano.txt",
        "island-of-fire.txt",
        "jekyll-hyde.txt",
        "joe-versus-the-volcano.txt",
        "journey-of-hope.txt",
        "judas-priest-live-in-new-york-90.txt",
        "juvenile-liaison-2.txt",
        "kindergarten-cop.txt",
        "king-of-new-york.txt",
        "kishen-kanhaiya.txt",
        "kiss-napoleon-goodbye.txt",
        "la-jaula-de-la-muerte.txt",
        "laafi-tout-va-bien.txt",
        "lady-battle-cop.txt",
        "licence-to-steal.txt",
        "lisa.txt",
        "madhouse.txt",
        "mama.txt",
        "martians-go-home.txt",
        "masters-of-menace.txt",
        "megaville.txt",
        "michael-madana-kamarajan.txt",
        "midnight-matinee.txt",
        "midnight-oil-black-rain-falls.txt",
        "mirage.txt",
        "misery.txt",
        "mother-goose-rock-n-rhyme.txt",
        "nasse-exzesse.txt",
        "night-eyes.txt",
        "night-of-the-dribbler.txt",
        "night-of-the-fox.txt",
        "night-sun.txt",
        "nuns-on-the-run.txt",
        "operation-las-vegas.txt",
        "opportunity-knocks.txt",
        "orpheus-descending.txt",
        "pacific-palisades.txt",
        "panakkaran.txt",
        "pituitary-hunter.txt",
        "playroom.txt",
        "posrednik.txt",
        "povest-nepogashennoy-luny.txt",
        "prisoners-of-the-sun.txt",
        "privilege.txt",
        "prom-night-iii-the-last-kiss.txt",
        "rootin-tootin-roundup.txt",
        "roy-chubby-brown-from-inside-the-helmet.txt",
        "shadowzone.txt",
        "shakma.txt",
        "simple-mortel.txt",
        "sinbad-brain-damaged.txt",
        "singapore-sling.txt",
        "siraiyil-pootha-sinna-malar.txt",
        "space-chase.txt",
        "spaced-invaders.txt",
        "stephen-king-s-it.txt",
        "texasville.txt",
        "the-big-man.txt",
        "the-bonfire-of-the-vanities.txt",
        "the-death-of-the-incredible-hulk.txt",
        "the-field.txt",
        "the-forbidden-dance.txt",
        "the-freshman.txt",
        "the-last-of-the-finest.txt",
        "the-little-kidnappers.txt",
        "the-plot-against-harry.txt",
        "the-stranger-within.txt",
        "the-sword-of-bushido.txt",
        "the-twelve-fairies.txt",
        "thunder-and-mud.txt",
        "trust.txt",
        "vampire-settle-on-police-camp.txt",
        "visions-in-meditation-3-plato-s-cave.txt",
        "voice-of-the-moon.txt",
        "waardenberg-de-jong-jool-hul.txt",
        "wayne-gretzky-above-and-beyond.txt",
        "without-you-i-m-nothing.txt",
        "zapped-again.txt"
    ]
}