{
    "files": [
        "1995-atlanta-braves-the-official-world-series-film.txt",
        "1995-atlanta-braves-the-official-world-series-film.txt",
        "1995-holiday-bowl.txt",
        "1995-holiday-bowl.txt",
        "a-mind-to-murder.txt",
        "action-man-the-outside-edge.txt",
        "addicted-to-murder.txt",
        "animated-hero-classics-louis-pasteur.txt",
        "anne-frank-remembered.txt",
        "asian-cop-high-voltage.txt",
        "attack-of-the-60-foot-centerfold.txt",
        "ballistic.txt",
        "batman-forever.txt",
        "bikini-drive-in.txt",
        "black-holes.txt",
        "blood-donuts.txt",
        "body-switch.txt",
        "bombay.txt",
        "built-tough.txt",
        "california-heat.txt",
        "canadian-bacon.txt",
        "captured-beauty.txt",
        "casper.txt",
        "chandralekha.txt",
        "clockers.txt",
        "cold-comfort-farm.txt",
        "coolee.txt",
        "crayon-shin-chan-unkokusai-s-ambition.txt",
        "criminal.txt",
        "crusty-demons-of-dirt-1.txt",
        "cyber-bandits.txt",
        "cyberjack.txt",
        "cyborg-cop-iii.txt",
        "dad-and-dave-on-our-selection.txt",
        "dangerous-prey.txt",
        "denise-calls-up.txt",
        "don-t-forget-you-re-going-to-die.txt",
        "dragon-killer.txt",
        "dust-of-life.txt",
        "ecw-hardcore-heaven.txt",
        "eleven-men-against-eleven.txt",
        "evidence.txt",
        "falling-for-you.txt",
        "female-mercenaries-on-zombie-island.txt",
        "forgotten-silver.txt",
        "fractals-the-colors-of-infinity.txt",
        "frank-jesse.txt",
        "freakshow.txt",
        "friday.txt",
        "fridge.txt",
        "friend-of-the-family.txt",
        "geert-hoste-alleen.txt",
        "grim.txt",
        "gunsmith-cats-bulletproof.txt",
        "haunted-school.txt",
        "heavy-weather.txt",
        "heavy.txt",
        "houseguest.txt",
        "hum-sab-chor-hain.txt",
        "i-don-t-speak-english.txt",
        "in-pursuit-of-honor.txt",
        "john-petrucci-rock-discipline.txt",
        "jonah-and-the-pink-whale.txt",
        "josh-kirby-time-warrior-planet-of-the-dino-knights.txt",
        "josh-kirby-time-warrior-the-human-pets.txt",
        "jury-duty.txt",
        "just-cause.txt",
        "kidnapped.txt",
        "last-man-standing.txt",
        "lily-savage-live-and-outrageous.txt",
        "live-nude-girls.txt",
        "love-in-the-time-of-twilight.txt",
        "loved-up.txt",
        "mad-season-live-at-the-moore.txt",
        "magic-island.txt",
        "margaret-s-museum.txt",
        "mixed-blessings.txt",
        "mondo.txt",
        "murder-in-the-first.txt",
        "muthu-kaalai.txt",
        "my-mother-s-courage.txt",
        "national-lampoon-s-favorite-deadly-sins.txt",
        "necrophobia.txt",
        "nick-of-time.txt",
        "night-watch.txt",
        "oh-darling-yeh-hai-india.txt",
        "one-man-s-dream-the-britten-bike-story.txt",
        "pearl-jam-red-rocks.txt",
        "pekko-ja-massahurmaaja.txt",
        "pulp-f-e-e-l-i-n-g-c-a-l-l-e-d-l-i-v-e.txt",
        "rage.txt",
        "rem-parallel.txt",
        "return-to-two-moon-junction.txt",
        "richard-jeni-platypus-man.txt",
        "romantic-dream.txt",
        "savate.txt",
        "sharpe-s-sword.txt",
        "sinderella.txt",
        "sleepstalker.txt",
        "snow-white-and-7-dwarfs.txt",
        "stevie-ray-vaughan-live-from-austin-texas.txt",
        "synthetic-pleasures.txt",
        "tales-from-the-crypt-demon-knight.txt",
        "ten-benny.txt",
        "the-babysitter.txt",
        "the-basketball-diaries.txt",
        "the-boy-who-walked-backwards.txt",
        "the-buccaneers.txt",
        "the-confessional.txt",
        "the-desperate-trail.txt",
        "the-end-of-the-world-in-four-seasons.txt",
        "the-fantasticks.txt",
        "the-fear.txt",
        "the-force.txt",
        "the-grass-harp.txt",
        "the-infiltrator.txt",
        "the-living-dead-three-films-about-the-power-of-the-past.txt",
        "the-living-sea.txt",
        "the-making-of-steven-spielberg-s-jaws.txt",
        "the-mike-tyson-story.txt",
        "the-muslim.txt",
        "the-rockford-files-a-blessing-in-disguise.txt",
        "the-set-up.txt",
        "the-snails-senator.txt",
        "the-walking-dead.txt",
        "the-way-to-dusty-death.txt",
        "the-way-to-eden.txt",
        "three-wishes.txt",
        "titanica.txt",
        "tokyo-revelation.txt",
        "tommy-boy.txt",
        "top-fighter.txt",
        "tough-and-deadly.txt",
        "triassick-parking.txt",
        "trilogy-of-lust.txt",
        "twilight-man.txt",
        "twilight-of-the-dogs.txt",
        "ufc-5-return-of-the-beast.txt",
        "ufc-7-5-ultimate-ultimate.txt",
        "vanessa-mae-the-red-hot-tour-live-at-the-royal-albert-hall.txt",
        "venus-rising.txt",
        "waterworld.txt",
        "where-evil-lies.txt",
        "who-killed-pasolini.txt",
        "wild-bill.txt",
        "young-policemen-in-love.txt",
        "zombie-bloodbath-2-rage-of-the-undead.txt",
        "zoya.txt"
    ]
}