{
    "files": [
        "12-men-of-christmas.txt",
        "12.txt",
        "2009-season-highlights-geelong-cats.txt",
        "2009-season-highlights-geelong-cats.txt",
        "2012-startling-new-secrets.txt",
        "3-idiots.txt",
        "30-rock-a-xxx-parody.txt",
        "4-minutes.txt",
        "9-11-phone-calls-from-the-towers.txt",
        "99.txt",
        "a-blind-river.txt",
        "a-brand-new-life.txt",
        "a-conversation-about-race.txt",
        "a-good-funeral.txt",
        "a-good-rain-knows.txt",
        "a-lion-called-christian.txt",
        "a-little-bit-of-faith.txt",
        "a-man-with-a-maid-a-tale-of-victorian-lust.txt",
        "a-place-for-paedophiles.txt",
        "a-siren-in-the-dark.txt",
        "a-trip-to-inside.txt",
        "aaron-albeit-a-sex-hero.txt",
        "aarumugam.txt",
        "abohomaan.txt",
        "about-elly.txt",
        "accused-at-17.txt",
        "actresses.txt",
        "air-doll.txt",
        "ajumma-are-you-krazy.txt",
        "aki-sora.txt",
        "albert-s-memorial.txt",
        "all-access.txt",
        "almafuerte-en-vivo-en-obras.txt",
        "american-harmony.txt",
        "amore-14.txt",
        "an-englishman-in-new-york.txt",
        "ana-carolina-9-um.txt",
        "anders-matthesen-vender-tilbage.txt",
        "ang-nerseri.txt",
        "anna-karenina.txt",
        "anyone-can-play-guitar.txt",
        "apocalypse-the-second-world-war.txt",
        "artois-the-goat.txt",
        "aseema-beyond-boundaries.txt",
        "assassin-olympia-2009.txt",
        "assault-girls.txt",
        "astro-boy.txt",
        "asylum.txt",
        "aussie-and-ted-s-great-adventure.txt",
        "b-o-b-s-big-break.txt",
        "baanam.txt",
        "barbie-and-the-three-musketeers.txt",
        "barbra-streisand-live-in-concert-2006.txt",
        "bare-essence-of-life.txt",
        "barred-for-life.txt",
        "bashment-granny.txt",
        "be-my-guest.txt",
        "because-we-were-born.txt",
        "becoming-jesse-tate.txt",
        "bella-dancerella-disney-princess-enchanted-tales.txt",
        "bellator-10.txt",
        "bellator-11.txt",
        "bellator-12.txt",
        "bergensbanen.txt",
        "best-worst-movie.txt",
        "beyond-sherwood-forest.txt",
        "beyond-the-pole.txt",
        "bicycle-dreams.txt",
        "big-bag-of.txt",
        "big-breast-nurses.txt",
        "big-wet-tits-8.txt",
        "bj-penn-90-days.txt",
        "black-august.txt",
        "black-girls-need-white-pussy-too.txt",
        "blonde-deluxe-anthology.txt",
        "blossoms-thorns.txt",
        "blue-seduction.txt",
        "blue.txt",
        "blues-britannia-can-blue-men-sing-the-whites.txt",
        "bluscenes-the-classic-fireplace.txt",
        "bollywood-hero.txt",
        "booty-talk-90.txt",
        "bornova-bornova.txt",
        "bouwvukkers-het-verkeerde-muurtje-in-almere.txt",
        "boy.txt",
        "bran-nue-dae.txt",
        "breaking-upwards.txt",
        "bruce-springsteen-superbowl-xciii-halftime-show.txt",
        "bruno-e-marrone-hoje-ao-vivo.txt",
        "burning-down-the-house-the-story-of-cbgb.txt",
        "bury-me-behind-the-baseboard.txt",
        "buttwoman-returns.txt",
        "by-the-people-the-election-of-barack-obama.txt",
        "call-of-the-wild.txt",
        "capitalism-a-love-story.txt",
        "catch-me.txt",
        "ceasefire.txt",
        "cencoroll.txt",
        "charlie-boots.txt",
        "cheap-trick-sgt-pepper-live.txt",
        "children-of-god.txt",
        "china-s-unnatural-disaster-the-tears-of-sichuan-province.txt",
        "chintu-ji.txt",
        "christmas-in-canaan.txt",
        "christopher-titus-love-is-evol.txt",
        "cinematic-titanic-east-meets-watts.txt",
        "cirque-du-freak-the-vampire-s-assistant.txt",
        "clarke-miller-wooten-s-m-v-live-in-spain.txt",
        "clash.txt",
        "clonehunter.txt",
        "clownstrophobia.txt",
        "coal-money.txt",
        "cobalt-blue.txt",
        "coca-cola-the-real-story-behind-the-real-thing.txt",
        "cockasian-4.txt",
        "cocktease.txt",
        "coco-chanel-igor-stravinsky.txt",
        "coffee-samurai.txt",
        "come-what-may.txt",
        "coming-attractions-the-history-of-the-movie-trailer.txt",
        "coming-out-to-class.txt",
        "conspiracy-theory-global-warming.txt",
        "cook-county.txt",
        "coopers-christmas.txt",
        "cougar-club-2.txt",
        "cryptic.txt",
        "dance-off-the-inches-country-line-dance.txt",
        "dancing-trees.txt",
        "dancing-with-the-devil.txt",
        "dane-cook-isolated-incident.txt",
        "darwin-s-lost-voyage.txt",
        "daybreakers.txt",
        "days-of-dirt.txt",
        "de-lama-s-afscheidstour.txt",
        "dead-noon.txt",
        "deadland.txt",
        "deadline.txt",
        "death-on-a-factory-farm.txt",
        "debacle.txt",
        "deep-in-the-valley.txt",
        "desdemona-a-love-story.txt",
        "destination-forks-the-real-world-of-twilight.txt",
        "dio-at-tokyo-super-rock-festival.txt",
        "direct-your-own-damn-movie.txt",
        "dirt-the-movie.txt",
        "disappearing-in-america.txt",
        "dismal.txt",
        "dismember-under-bloodred-skies.txt",
        "dneprovskiy-rubezh.txt",
        "doghouse.txt",
        "dolan-s-cadillac.txt",
        "dora-heldt-urlaub-mit-papa.txt",
        "dorian-gray.txt",
        "double-choc.txt",
        "double-take.txt",
        "dr-dolittle-million-dollar-mutts.txt",
        "dragonquest.txt",
        "dream-piece.txt",
        "drift-falcon-iv.txt",
        "e-athletes.txt",
        "eden-is-west.txt",
        "ein-sommer-in-long-island.txt",
        "elemi.txt",
        "empire-st-pauli-on-strings-of-pearls-and-sending-offs.txt",
        "endgame.txt",
        "eros-ramazotti-live-at-rome.txt",
        "everything-is-terrible-holiday-special.txt",
        "expecting-a-miracle.txt",
        "expert-guide-to-rough-sex.txt",
        "faith-no-more-reunited-live-at-the-area-4-festival.txt",
        "falling-up.txt",
        "female-combatants-battle-school.txt",
        "fiel-o-filme.txt",
        "fired-up.txt",
        "flicker.txt",
        "for-the-next-7-generations.txt",
        "forever-s-not-so-long.txt",
        "fort-apache.txt",
        "four-dimensions.txt",
        "fragment.txt",
        "frequently-asked-questions-about-time-travel.txt",
        "friday-at-dewayne-s.txt",
        "from-the-shadows.txt",
        "from-time-to-time.txt",
        "fruit-nut.txt",
        "fucking-different-tel-aviv.txt",
        "fuel.txt",
        "funny-people.txt",
        "fuse-fest-bonnaroo-2009.txt",
        "fuse-fest-bonnaroo-2009.txt",
        "gabriella-fox-foxxxy.txt",
        "geert-hoste-beslist.txt",
        "george-michael-live-in-london.txt",
        "getaway-in-stockholm-10.txt",
        "gewoon-hans.txt",
        "ghost-town.txt",
        "glorious-39.txt",
        "gracie.txt",
        "green-day-live-at-fox-theater.txt",
        "grey-gardens.txt",
        "grocery-list.txt",
        "gun-and-cock.txt",
        "h-spencer-lewis-restorer-of-rosicrucianism.txt",
        "halloween-ii.txt",
        "halo-wars.txt",
        "harry-brown.txt",
        "he-s-beautiful.txt",
        "heart-of-stone.txt",
        "help-gone-mad.txt",
        "herb-dorothy.txt",
        "here.txt",
        "hillsong-faith-hope-love.txt",
        "hobgoblins-2.txt",
        "home.txt",
        "honokaa-boy.txt",
        "hot-house-backroom-exclusive-volume-18.txt",
        "house-of-boys.txt",
        "how-bruce-lee-changed-the-world.txt",
        "hunting-hitler.txt",
        "hydra.txt",
        "hymn-to-love.txt",
        "i-am-love.txt",
        "i-c-u.txt",
        "i-know-what-i-saw.txt",
        "i-love-you-goodbye.txt",
        "ice-people.txt",
        "icons-among-us-jazz-in-the-present-tense.txt",
        "if-i-leap.txt",
        "il-prossimo-tuo.txt",
        "il-soffio-dell-anima.txt",
        "imaginary-larry.txt",
        "immortally-yours.txt",
        "in-berlin.txt",
        "in-my-life.txt",
        "in-search-of.txt",
        "in-the-loop.txt",
        "independencia.txt",
        "ingredients.txt",
        "insadong-scandal.txt",
        "inside-out.txt",
        "inside-planet-earth.txt",
        "into-temptation.txt",
        "into-the-storm.txt",
        "iron-maiden-flight-666-the-concert.txt",
        "it-came-from-kuchar.txt",
        "it-is-useless-to-resist-us-25-years-of-information-society.txt",
        "it-s-hard-being-loved-by-jerks.txt",
        "janis-joplin-piece-of-my-heart.txt",
        "jardines-de-dios.txt",
        "jay-cutler-all-access.txt",
        "jean-luc-cinema-godard.txt",
        "jeff-beck-performing-this-week-live-at-ronnie-scotts.txt",
        "jerusalem-center-of-the-world.txt",
        "jim-breuer-let-s-clear-the-air.txt",
        "jim-gaffigan-king-baby.txt",
        "joe-hisaishi-in-budokan-studio-ghibli-25-years-concert.txt",
        "john-fogerty-comin-down-the-road.txt",
        "johnny-vegas-live-at-the-benidorm-palace.txt",
        "jonas-brothers-the-concert-experience.txt",
        "josie-long-trying-is-good.txt",
        "journey-to-mecca.txt",
        "just-peck.txt",
        "kaltmiete.txt",
        "kamikaze-girls-vol-71.txt",
        "kandha-kottai.txt",
        "kansas-there-s-know-place-like-home.txt",
        "kerala-cafe.txt",
        "kevin-hart-i-m-a-grown-little-man.txt",
        "kicks.txt",
        "kikker-vriendjes-vriendschap.txt",
        "kinokompo-vol-2.txt",
        "knife-edge.txt",
        "knights-of-bloodsteel.txt",
        "kro-kindertijd-mijn-mooiste-prentenboek.txt",
        "l-ultimo-crodino.txt",
        "l-ultimo-ultras.txt",
        "la-folle-histoire-d-amour-de-simon-eskenazy.txt",
        "la-yuma.txt",
        "larger-than-life-in-3d.txt",
        "latex-service.txt",
        "leave-me.txt",
        "lenteveld.txt",
        "leonard-cohen-live-at-the-isle-of-wight-1970.txt",
        "les-otages-d-entebbe.txt",
        "life-in-one-day.txt",
        "like-a-dream.txt",
        "like-dandelion-dust.txt",
        "lilly-the-witch-the-dragon-and-the-magic-book.txt",
        "limo.txt",
        "limp-bizkit-live-at-rock-am-ring.txt",
        "lonely-street.txt",
        "loup.txt",
        "love-aaj-kal.txt",
        "love-in-the-nick-of-tyme.txt",
        "lsd-problem-child-and-wonder-drug.txt",
        "lynch-mob.txt",
        "m-a-n-met-andere-normen.txt",
        "maafa-21-black-genocide-in-the-21st-century.txt",
        "maasilamani.txt",
        "macho.txt",
        "madonna-sex-bomb.txt",
        "magnetic-movie.txt",
        "malice-in-wonderland.txt",
        "mao-s-last-dancer.txt",
        "mashed-in-plastic.txt",
        "match-dead.txt",
        "mau-dong-ah.txt",
        "metal-gear-solid-philanthropy.txt",
        "metallic-attraction-kungfu-cyborg.txt",
        "michael-jackson-unmasked.txt",
        "micro-men.txt",
        "minghags.txt",
        "mor-3-pee-4.txt",
        "morbid-a-love-story.txt",
        "mr-big-back-to-budokan.txt",
        "mr-men-show-mr-tickle-presents-tickle-time-around-town.txt",
        "mrs-demeanor.txt",
        "muckman.txt",
        "multicolored-twilight.txt",
        "muse-a-seaside-rendez-vous.txt",
        "my-dad-s-a-detective.txt",
        "my-dog-tulip.txt",
        "my-little-pony-twinkle-wish-adventure.txt",
        "my-super-psycho-sweet-16.txt",
        "naan-kadavul.txt",
        "nasha-masha-i-volshebnyy-orekh.txt",
        "needle-painpleasure.txt",
        "never-surrender.txt",
        "new-york.txt",
        "night-of-the-sinner.txt",
        "night-runner.txt",
        "nine-inch-nails-the-downward-spiral-live.txt",
        "no-4-street-of-our-lady.txt",
        "no-holds-bard.txt",
        "no-more-smoke-signals.txt",
        "nobody-nobody-but-juan.txt",
        "northern-lights.txt",
        "not-easily-broken.txt",
        "novastar-almost-bangor.txt",
        "october-country.txt",
        "oddly.txt",
        "of-golf-and-god.txt",
        "off-the-ledge.txt",
        "offspring.txt",
        "oh-my-god-2.txt",
        "ominous.txt",
        "on-my-dirty-knees.txt",
        "one-good-man.txt",
        "one-night-stand-flight-of-the-conchords.txt",
        "one-nine-nine-four.txt",
        "operativnaja-razrabotka-2-kombinat.txt",
        "orphan.txt",
        "out-in-the-silence.txt",
        "outrage-born-in-terror.txt",
        "oxygen.txt",
        "pacquiao-vs-hatton.txt",
        "paddle-to-seattle-journey-through-the-inside-passage.txt",
        "paper-heart.txt",
        "paraphernalia.txt",
        "pardon-us-for-living-but-the-graveyard-is-full.txt",
        "passport-to-love.txt",
        "paul-blart-mall-cop.txt",
        "pax-americana-and-the-weaponization-of-space.txt",
        "pearl-jam-mtv-unplugged.txt",
        "perestroika.txt",
        "perfidy.txt",
        "pervaya-lyubov.txt",
        "pete-on-the-way-to-heaven.txt",
        "phantoms-of-nabua.txt",
        "philippe-geubels-droog.txt",
        "phish-08-02-2009-red-rocks-amphitheater.txt",
        "phobia-2.txt",
        "piet-piraat-en-het-schotse-spook.txt",
        "placebo-main-square-festival-arras.txt",
        "plastic-bag.txt",
        "polar-storm.txt",
        "poliwood.txt",
        "pop.txt",
        "porn-business-of-pleasure.txt",
        "powder-blue.txt",
        "precious.txt",
        "prep-landing.txt",
        "president-barack-obama-the-man-and-his-journey.txt",
        "prey.txt",
        "pride-part-2.txt",
        "private-gold-103-orgy-at-the-villa.txt",
        "prom-night-in-mississippi.txt",
        "prometheus-triumphant-a-fugue-in-the-key-of-flesh.txt",
        "raging-phoenix.txt",
        "raging-planet-lightning.txt",
        "rainforest-the-secret-of-life.txt",
        "ralf-schmitz-verschmitzt.txt",
        "red-cliff-part-ii.txt",
        "redemption-a-mile-from-hell.txt",
        "redemption-frozen-in-the-moment-live-in-atlanta.txt",
        "redwoods.txt",
        "refresh.txt",
        "rick-wakeman-the-six-wives-of-henry-viii.txt",
        "riley-steele-chic.txt",
        "rip-a-remix-manifesto.txt",
        "road-trip-beer-pong.txt",
        "robbie-williams-live-in-berlin.txt",
        "rock-and-roll-hall-of-fame-live.txt",
        "romantic-prelude.txt",
        "run-bitch-run.txt",
        "russia-88.txt",
        "sabor-tropical.txt",
        "safe-harbor.txt",
        "sagar-alias-jacky-reloaded.txt",
        "salt.txt",
        "santa-baby-2.txt",
        "saw-vi.txt",
        "scar-crow.txt",
        "scrap-vessel.txt",
        "scratch.txt",
        "sea-wolf.txt",
        "seatrout-secrets-2-coastal-fly.txt",
        "seeds-of-the-fall.txt",
        "sell-out.txt",
        "sex-till-varje-pris.txt",
        "shadow-net.txt",
        "shank.txt",
        "short-kut-the-con-is-on.txt",
        "short-of-love.txt",
        "shut.txt",
        "silent-wedding.txt",
        "siva-manasula-sakthi.txt",
        "skull-heads.txt",
        "sky-angel-blue-vol-10-erika-chris.txt",
        "sky-angel-blue-vol-22-maria-ozawa.txt",
        "slam-bang.txt",
        "sleep-with-me.txt",
        "slipknot-download-festival-2009.txt",
        "slipknot-download-festival-2009.txt",
        "smile-pretty.txt",
        "solitary.txt",
        "sonicsgate-requiem-for-a-team.txt",
        "sound-relief-mcg.txt",
        "space-girls-in-beverly-hills.txt",
        "spangas-op-survival.txt",
        "spike.txt",
        "spinal-tap-back-from-the-dead.txt",
        "split-second-murders.txt",
        "sporty-girls-2.txt",
        "stag-fight.txt",
        "stance.txt",
        "stanley-jordan-trio-the-paris-concert.txt",
        "starlets.txt",
        "stayin-alive-in-jo-burg.txt",
        "steve-hackett-electric-band-estival-jazz-lugano.txt",
        "steve-o-demise-and-rise.txt",
        "stevie-wonder-live-at-last.txt",
        "stone-bros.txt",
        "stormy-tonight.txt",
        "stoya-heat.txt",
        "stoya-perfect-picture.txt",
        "straight.txt",
        "strawberry-wine.txt",
        "stuntmen.txt",
        "sunny-s-slumber-party.txt",
        "survivant-s.txt",
        "swansong-story-of-occi-byrne.txt",
        "sweatshop.txt",
        "take-me-far-away.txt",
        "taken-to-the-lowest-level-director-s-cut.txt",
        "taking-chance.txt",
        "takut-faces-of-fear.txt",
        "talentime.txt",
        "tales-of-the-black-freighter.txt",
        "tell-tale.txt",
        "ten-winters.txt",
        "terminator-salvation.txt",
        "thambivudaiyan.txt",
        "that-evening-sun.txt",
        "that-guy-with-the-glasses-anniversary-brawl.txt",
        "the-10-conditions-of-love.txt",
        "the-angels-melancholia.txt",
        "the-athlete.txt",
        "the-band-that-wouldn-t-die.txt",
        "the-beacon.txt",
        "the-best-movie-2.txt",
        "the-black-knight-returns.txt",
        "the-botany-of-desire.txt",
        "the-burnt-house.txt",
        "the-christmas-hope.txt",
        "the-combination.txt",
        "the-commune.txt",
        "the-crypt.txt",
        "the-darkness-of-day.txt",
        "the-delian-mode.txt",
        "the-double-hour.txt",
        "the-dunwich-horror.txt",
        "the-feast-of-stephen.txt",
        "the-first-7th-night.txt",
        "the-founding-of-a-republic.txt",
        "the-gig-3.txt",
        "the-girl-is-mime.txt",
        "the-good-sisters.txt",
        "the-heart-of-jenin.txt",
        "the-human-family-tree.txt",
        "the-imaginarium-of-doctor-parnassus.txt",
        "the-immortal-voyage-of-captain-drake.txt",
        "the-incredible-journey-of-the-butterflies.txt",
        "the-infidel.txt",
        "the-invention-of-lying.txt",
        "the-last-house-on-the-left.txt",
        "the-lionshare.txt",
        "the-london-perambulator.txt",
        "the-makeover.txt",
        "the-missing-person.txt",
        "the-most-dangerous-man-in-america-daniel-ellsberg-and-the-pentagon-papers.txt",
        "the-nail.txt",
        "the-narnia-code.txt",
        "the-other-side-of-immigration.txt",
        "the-other-side-of-paradise.txt",
        "the-other-woman.txt",
        "the-phantom.txt",
        "the-pot.txt",
        "the-private-life-of-tarra-white-3.txt",
        "the-rebirth-of-buddha.txt",
        "the-robbers.txt",
        "the-scratch.txt",
        "the-shift.txt",
        "the-skeptic.txt",
        "the-sky-has-fallen.txt",
        "the-spine.txt",
        "the-storm.txt",
        "the-sword-with-no-name.txt",
        "the-toe-tactic.txt",
        "the-ultimate-fighter-9-finale.txt",
        "the-unborn.txt",
        "the-unusual-suspects-once-upon-a-time-in-house-music.txt",
        "the-vanquisher.txt",
        "the-velveteen-rabbit.txt",
        "the-vicious-kind.txt",
        "the-way-of-war.txt",
        "the-well.txt",
        "the-white-space.txt",
        "the-wild-hearts.txt",
        "the-winning-season.txt",
        "the-yankles.txt",
        "together-the-hendrick-motorsports-story.txt",
        "tokyo-train-girls-4-young-wife-s-desires.txt",
        "toyo-s-camera.txt",
        "training-rules.txt",
        "translucence.txt",
        "tribuzy-execution-live-reunion.txt",
        "triggerman.txt",
        "tsar.txt",
        "tupac-assassination-ii-reckoning.txt",
        "twin-spirits-sting-performs-schumann.txt",
        "two-minute-heist.txt",
        "two-weeks-in-hell.txt",
        "ufc-93-franklin-vs-henderson.txt",
        "ufc-98-evans-vs-machida.txt",
        "ufc-ultimate-knockouts-7.txt",
        "un-burka-por-amor.txt",
        "uncertainty.txt",
        "underworld-rise-of-the-lycans.txt",
        "unmistaken-child.txt",
        "unnaipol-oruvan.txt",
        "vaada-raha-i-promise.txt",
        "vairam-fight-for-justice.txt",
        "vamanan.txt",
        "van-morrison-astral-weeks-live-at-the-hollywood-bowl-the-concert-film.txt",
        "vengeance.txt",
        "victory.txt",
        "visions-of-the-sea.txt",
        "visions.txt",
        "voodoo-t-shirt.txt",
        "wake-up-sid.txt",
        "wanted.txt",
        "war-dogs-of-the-pacific.txt",
        "warren-miller-s-dynasty.txt",
        "watch-me-cum-ii.txt",
        "watch-me.txt",
        "watch-mr-wizard.txt",
        "we-fun.txt",
        "wec-40-torres-vs-mizugaki.txt",
        "wec-43-cerrone-vs-henderson.txt",
        "wec-44-brown-vs-aldo.txt",
        "welcome-home.txt",
        "wer-hat-angst-vorm-schwarzen-mann.txt",
        "what-on-earth.txt",
        "wheat.txt",
        "where-got-ghost.txt",
        "where-is-ronny.txt",
        "wild-horse-from-shangri-la.txt",
        "wild-stallions.txt",
        "with-heart-soul.txt",
        "with-one-voice.txt",
        "woman-on-fire-looks-for-water.txt",
        "women-seeking-women-volume-51.txt",
        "wwe-history-of-the-world-heavyweight-championship.txt",
        "xxxholic-shunmuki-zenpen.txt",
        "year-one.txt",
        "yoga.txt",
        "yulenka.txt",
        "zeca-pagodinho-dvd-mtv-especial-uma-prova-de-amor-ao-vivo.txt",
        "zindeeq.txt",
        "zloty-srodek.txt",
        "zombieween.txt"
    ]
}