{
    "files": [
        "21-jump-street.txt",
        "before-i-m-21-vol-2.txt",
        "maafa-21-black-genocide-in-the-21st-century.txt",
        "mother-daughter-exchange-club-part-21.txt",
        "national-geographic-21-days-to-baghdad.txt",
        "pride-21-demolition.txt",
        "wec-21-tapout.txt",
        "women-seeking-women-volume-21.txt"
    ]
}