{
    "files": [
        "2-turntables-and-a-microphone.txt",
        "30-rock-a-xxx-parody.txt",
        "a-bear-for-punishment.txt",
        "a-bear-named-winnie.txt",
        "a-bird-in-the-head.txt",
        "a-bitter-taste-of-freedom.txt",
        "a-blind-river.txt",
        "a-bloody-aria.txt",
        "a-blueprint-for-murder.txt",
        "a-bold-family.txt",
        "a-borrowed-life.txt",
        "a-boy-s-sister.txt",
        "a-brand-new-life.txt",
        "a-breath.txt",
        "a-broken-leghorn.txt",
        "a-bronx-morning.txt",
        "a-bullet-is-waiting.txt",
        "a-bunch-of-amateurs.txt",
        "a-burning-passion-the-margaret-mitchell-story.txt",
        "a-campfire-homecoming.txt",
        "a-carol-christmas.txt",
        "a-certain-day.txt",
        "a-certain-sacrifice.txt",
        "a-che-servono-questi-quattrini.txt",
        "a-chess-dispute.txt",
        "a-children-s-story.txt",
        "a-chinese-tall-story.txt",
        "a-chorus-line.txt",
        "a-christmas-carol.txt",
        "a-christmas-snow.txt",
        "a-christmas-too-many.txt",
        "a-cinderella-story-once-upon-a-song.txt",
        "a-cinderella-story-once-upon-a-song.txt",
        "a-close-call-for-ellery-queen.txt",
        "a-cloudy-lesson.txt",
        "a-conversation-about-race.txt",
        "a-conversation-with-god.txt",
        "a-conversation-with-gregory-peck.txt",
        "a-cottage-on-dartmoor.txt",
        "a-country-hero.txt",
        "a-cowboy-needs-a-horse.txt",
        "a-cowboy-needs-a-horse.txt",
        "a-cry-in-the-night.txt",
        "a-culpa.txt",
        "a-cure-for-pokeritis.txt",
        "a-dangerous-profession.txt",
        "a-dangerous-summer.txt",
        "a-darker-reality.txt",
        "a-day-at-santa-anita.txt",
        "a-day-in-venice.txt",
        "a-day-in-venice.txt",
        "a-day-longer-than-night.txt",
        "a-decade-under-the-influence.txt",
        "a-deeper-shade-of-blue.txt",
        "a-dirty-carnival.txt",
        "a-dog-named-pain.txt",
        "a-dog-of-flanders.txt",
        "a-dog-s-love.txt",
        "a-doll-s-dream.txt",
        "a-dream-within-a-dream-the-making-of-picnic-at-hanging-rock.txt",
        "a-dream-within-a-dream-the-making-of-picnic-at-hanging-rock.txt",
        "a-drop-too-much.txt",
        "a-drowning-man.txt",
        "a-face-to-die-for.txt",
        "a-face-to-kill-for.txt",
        "a-family.txt",
        "a-fantastic-fear-of-everything.txt",
        "a-farewell-to-arms.txt",
        "a-few-good-men.txt",
        "a-field-in-england.txt",
        "a-fighter-s-blues.txt",
        "a-fly-in-the-ashes.txt",
        "a-flyer-in-flapjacks.txt",
        "a-foreign-affair.txt",
        "a-fox-tale.txt",
        "a-gem-of-a-jam.txt",
        "a-gem-of-a-jam.txt",
        "a-gesture-fight-in-hester-street.txt",
        "a-girl-s-own-story.txt",
        "a-gnome-named-gnorm.txt",
        "a-good-day-to-be-black-sexy.txt",
        "a-good-funeral.txt",
        "a-good-rain-knows.txt",
        "a-great-day-in-harlem.txt",
        "a-green-journey.txt",
        "a-gun-for-one-hundred-graves.txt",
        "a-happy-medium.txt",
        "a-hard-lesson.txt",
        "a-haunting-in-salem.txt",
        "a-hazard-of-hearts.txt",
        "a-heartland-christmas.txt",
        "a-hill-in-korea.txt",
        "a-history-of-the-blue-movie.txt",
        "a-hitch-in-time.txt",
        "a-hobo-s-christmas.txt",
        "a-holiday-for-love.txt",
        "a-house-divided.txt",
        "a-house-in-the-hills.txt",
        "a-humble-life.txt",
        "a-journey-that-wasn-t.txt",
        "a-journey-to-avebury.txt",
        "a-journey-with-paul-cox.txt",
        "a-judgment-in-stone.txt",
        "a-kid-for-two-farthings.txt",
        "a-kid-in-aladdin-s-palace.txt",
        "a-killing-affair.txt",
        "a-king-s-story.txt",
        "a-kiss-for-cinderella.txt",
        "a-kiss-in-the-dark.txt",
        "a-lawless-street.txt",
        "a-lesson-in-love.txt",
        "a-life-for-a-life.txt",
        "a-life-for-a-life.txt",
        "a-life-of-her-own.txt",
        "a-lion-called-christian.txt",
        "a-lion-in-the-house.txt",
        "a-little-bit-of-faith.txt",
        "a-little-bit-zombie.txt",
        "a-little-princess.txt",
        "a-little-thing-called-murder.txt",
        "a-lively-market-garden.txt",
        "a-lively-quarter-day.txt",
        "a-lonely-place-to-die.txt",
        "a-long-way-home.txt",
        "a-man-called-django.txt",
        "a-man-called-sledge.txt",
        "a-man-called-tiger.txt",
        "a-man-s-land.txt",
        "a-man-who-was-superman.txt",
        "a-man-with-a-maid-a-tale-of-victorian-lust.txt",
        "a-man-with-a-maid-a-tale-of-victorian-lust.txt",
        "a-man-with-a-maid-a-tale-of-victorian-lust.txt",
        "a-man-with-warranty.txt",
        "a-marriage-of-convenience.txt",
        "a-married-couple.txt",
        "a-matter-of-life-and-death.txt",
        "a-midsummer-night-s-dream.txt",
        "a-million-ways-to-die-in-the-west.txt",
        "a-millionaire-on-the-run.txt",
        "a-mind-to-murder.txt",
        "a-modern-musketeer.txt",
        "a-morning-bath.txt",
        "a-moth-in-spring.txt",
        "a-mother-s-nightmare.txt",
        "a-mother-s-story.txt",
        "a-murder-of-crows.txt",
        "a-murderer.txt",
        "a-nanny-for-christmas.txt",
        "a-necklace-for-my-beloved.txt",
        "a-nest-of-gentry.txt",
        "a-night-in-the-woods.txt",
        "a-nightmare-on-elm-street.txt",
        "a-place-called-chiapas.txt",
        "a-place-for-paedophiles.txt",
        "a-place-to-be-loved.txt",
        "a-place-to-call-home.txt",
        "a-place-to-grow.txt",
        "a-plasticine-crow.txt",
        "a-primer-in-sky-socialism.txt",
        "a-prize-of-gold.txt",
        "a-question-mark.txt",
        "a-regular-trouper.txt",
        "a-respectable-family.txt",
        "a-river-called-titas.txt",
        "a-room-with-a-view.txt",
        "a-room-with-a-view.txt",
        "a-scandal-in-paris.txt",
        "a-scream-in-the-streets.txt",
        "a-sentimental-capitalism.txt",
        "a-separate-peace.txt",
        "a-short-film-about-the-long-career-of-abel-ferrara.txt",
        "a-shot-in-the-dark.txt",
        "a-sicilian-heroine.txt",
        "a-simple-life.txt",
        "a-simple-promise.txt",
        "a-simple-wish.txt",
        "a-siren-in-the-dark.txt",
        "a-sister-s-call.txt",
        "a-sister-s-kiss.txt",
        "a-sixteenth-century-russian-wedding.txt",
        "a-smoky-mountain-christmas.txt",
        "a-soft-note-on-a-sharp-scale.txt",
        "a-soft-note-on-a-sharp-scale.txt",
        "a-song-from-the-heart.txt",
        "a-song-i-remember.txt",
        "a-song-to-remember.txt",
        "a-star-is-born.txt",
        "a-starry-night-with-simply-red.txt",
        "a-state-of-mind.txt",
        "a-sticky-woman.txt",
        "a-stitch-in-time.txt",
        "a-stranger-s-heart.txt",
        "a-stranger-to-love.txt",
        "a-streetcar-named-desire.txt",
        "a-suburbanite-s-ingenious-alarm.txt",
        "a-suffragette-in-spite-of-himself.txt",
        "a-suit-for-wedding.txt",
        "a-summer-night-rendez-vous.txt",
        "a-summer-story.txt",
        "a-sweet-woman.txt",
        "a-switchback-railway.txt",
        "a-tale-of-lost-times.txt",
        "a-tale-of-two-cities.txt",
        "a-tale-of-two-mice.txt",
        "a-taste-of-cold-steel.txt",
        "a-taste-of-evil.txt",
        "a-thief-of-time.txt",
        "a-thousand-pleasures.txt",
        "a-ticklish-affair.txt",
        "a-tiger-walks.txt",
        "a-time-for-burning.txt",
        "a-time-for-love.txt",
        "a-time-to-die.txt",
        "a-touch-of-zen.txt",
        "a-tough-winter.txt",
        "a-town-like-alice.txt",
        "a-tragedy-at-midnight.txt",
        "a-trip-around-the-pan-american-exposition.txt",
        "a-trip-down-market-street-before-the-fire.txt",
        "a-trip-thru-a-hollywood-studio.txt",
        "a-trip-thru-a-hollywood-studio.txt",
        "a-trip-to-inside.txt",
        "a-trip-to-mars.txt",
        "a-trip-to-the-orphanage.txt",
        "a-true-mob-story.txt",
        "a-tus-espaldas.txt",
        "a-very-british-gangster-2.txt",
        "a-very-british-gangster.txt",
        "a-very-natural-thing.txt",
        "a-visit-from-miss-prothero.txt",
        "a-visit-to-peek-frean-and-co-s-biscuit-works.txt",
        "a-voyage-round-my-father.txt",
        "a-wake-in-providence.txt",
        "a-walk-through-h-the-reincarnation-of-an-ornithologist.txt",
        "a-warm-december.txt",
        "a-way-of-life.txt",
        "a-weakend-driver.txt",
        "a-weekend-with-lulu.txt",
        "a-wicked-ghost-ii-the-fear.txt",
        "a-witch-s-tangled-hare.txt",
        "a-woman-is-a-woman.txt",
        "a-woman-is-a-woman.txt",
        "a-woman-obsessed.txt",
        "a-woman-of-substance.txt",
        "a-woman-under-the-influence.txt",
        "a-world-not-ours.txt",
        "a-wowiebozowee-christmas.txt",
        "a-year-with-armin-van-buuren.txt",
        "aadhi.txt",
        "aaron-albeit-a-sex-hero.txt",
        "advance-to-the-rear.txt",
        "adventures-of-a-teenage-dragonslayer.txt",
        "affair-with-a-stranger.txt",
        "all-in-a-nutshell.txt",
        "all-my-crazy-friends-2-a-few-more-nuts.txt",
        "all-night-long.txt",
        "all-souls-day-dia-de-los-muertos.txt",
        "all-the-world-s-a-stooge.txt",
        "allibhai.txt",
        "american-yakuza.txt",
        "amityville-a-new-generation.txt",
        "an-officer-and-a-gentleman.txt",
        "and-a-warm-heart.txt",
        "andhaa-kaanoon.txt",
        "andrea-bocelli-a-night-in-tuscany.txt",
        "andrei-tarkovsky-a-poet-in-the-cinema.txt",
        "anne-of-green-gables-a-new-beginning.txt",
        "antonia-a-portrait-of-the-woman.txt",
        "arena-philip-k-dick-a-day-in-the-afterlife.txt",
        "art-pepper-notes-from-a-jazz-survivor.txt",
        "as-small-as-a-world-as-large-as-alone.txt",
        "august-eighth.txt",
        "awara-paagal-deewana.txt",
        "baby-genius-a-trip-to-the-san-diego-zoo.txt",
        "baby-take-a-bow.txt",
        "babylon-5-a-call-to-arms.txt",
        "backstage-at-budz-house.txt",
        "bad-blood-a-cautionary-tale.txt",
        "bagavathi.txt",
        "ballad-of-a-soldier.txt",
        "barbie-a-perfect-christmas.txt",
        "batman-xxx-a-porn-parody.txt",
        "beat-this-a-hip-hop-history.txt",
        "beautiful-budapest.txt",
        "because-i-love-you.txt",
        "because-i-love-you.txt",
        "bela-lugosi-meets-a-brooklyn-gorilla.txt",
        "benedict-arnold-a-question-of-honor.txt",
        "bill-gates-how-a-geek-changed-the-world.txt",
        "billy-s-dad-is-a-fudge-packer.txt",
        "bireli-lagrene-friends-live-jazz-a-vienne.txt",
        "bitter-end-of-a-sweet-night.txt",
        "black-white-gray-a-portrait-of-sam-wagstaff-and-robert-mapplethorpe.txt",
        "blanket-tossing-a-new-recruit.txt",
        "blondie-on-a-budget.txt",
        "blue-valley-songbird.txt",
        "blue.txt",
        "bombay.txt",
        "bone-dry.txt",
        "booty-call.txt",
        "bound-and-gagged-a-love-story.txt",
        "boxer-shorts.txt",
        "boxing-gloves.txt",
        "boxing-gloves.txt",
        "boy-a.txt",
        "brain-smasher-a-love-story.txt",
        "bratz-pampered-petz-a-rescue-adventure.txt",
        "braveheart-a-writer-s-journey.txt",
        "bring-em-back-a-wife.txt",
        "bring-it-on-a-xxx-porn-parody.txt",
        "broadway-musicals-a-jewish-legacy.txt",
        "brokedown-palace.txt",
        "bruce-springsteen-vote-for-a-change-washington-dc.txt",
        "buffy-the-vampire-slayer-xxx-a-parody.txt",
        "caballero-a-la-medida.txt",
        "caicedo-with-pole.txt",
        "campane-a-martello.txt",
        "cancer-vixen-a-true-story.txt",
        "capitalism-a-love-story.txt",
        "cast-a-long-shadow.txt",
        "caught-on-tape.txt",
        "choker-bali-a-passion-play.txt",
        "christmas-comes-but-once-a-year.txt",
        "ci-vediamo-a-casa.txt",
        "citadels-of-the-mediterranean.txt",
        "citizen-usa-a-50-state-road-trip.txt",
        "cold-turkey.txt",
        "colour-me-kubrick-a-true-ish-story.txt",
        "confessions-of-a-call-girl.txt",
        "confessions-of-a-sorority-girl.txt",
        "confessions-of-a-teenage-drama-queen.txt",
        "confessions-of-a-young-american-housewife.txt",
        "conquest-of-the-earth.txt",
        "conrad-butler-take-a-vacation.txt",
        "crazy-like-a-fox.txt",
        "cruisin-high.txt",
        "crusty-x-a-decade-of-dirt.txt",
        "crying-freeman-1-portrait-of-a-killer.txt",
        "cyberjack.txt",
        "danes-without-a-clue.txt",
        "dangerous-prey.txt",
        "dany-boon-a-s-baraque-et-en-ch-ti.txt",
        "daud.txt",
        "dave-brubeck-take-five-in-a-quartet.txt",
        "de-mujer-a-mujer.txt",
        "dear-zachary-a-letter-to-a-son-about-his-father.txt",
        "dear-zachary-a-letter-to-a-son-about-his-father.txt",
        "death-on-a-factory-farm.txt",
        "death-wish-5-the-face-of-death.txt",
        "desdemona-a-love-story.txt",
        "desdemona-a-love-story.txt",
        "destination-saturn.txt",
        "dhool.txt",
        "diary-of-a-suicide.txt",
        "dinosaurs-a-fun-filled-trip-back-in-time.txt",
        "dirty-cop-2-i-am-a-pig.txt",
        "dirty-work-in-a-laundry.txt",
        "do-you-keep-a-lion-at-home.txt",
        "doctor-bello.txt",
        "document-of-the-dead.txt",
        "dog-heaven.txt",
        "dog-watch.txt",
        "doraemon-a-grandmother-s-recollections.txt",
        "dracula-pages-from-a-virgin-s-diary.txt",
        "dragon-ball-gt-a-hero-s-legacy.txt",
        "dream-of-a-warrior.txt",
        "dream-storm-a-north-of-60-mystery.txt",
        "dream-theater-5-years-in-a-livetime.txt",
        "drive-in-madness.txt",
        "du-barry-was-a-lady.txt",
        "dungeons-dragons-a-documentary.txt",
        "dutch-guiana-land-of-the-djuka.txt",
        "dying-young-in-the-arms-of-a-widow.txt",
        "eight-minutes-to-midnight-a-portrait-of-dr-helen-caldicott.txt",
        "empire-of-ash.txt",
        "empire-of-ash.txt",
        "evocateur-the-morton-downey-jr-movie.txt",
        "evocateur-the-morton-downey-jr-movie.txt",
        "exile-a-myth-unearthed.txt",
        "expecting-a-miracle.txt",
        "face-of-a-fugitive.txt",
        "filthiest-show-in-town.txt",
        "find-a-place-to-die.txt",
        "fm.txt",
        "for-single-swingers-only.txt",
        "four-s-a-crowd.txt",
        "free-radicals-a-history-of-experimental-film.txt",
        "galaxy-express-999-can-you-love-like-a-mother.txt",
        "george-stevens-a-filmmaker-s-journey.txt",
        "get-a-clue.txt",
        "get-a-job.txt",
        "get-a-life.txt",
        "ghost-in-a-teeny-bikini.txt",
        "ghostwatcher.txt",
        "ghostwatcher.txt",
        "ghostwatcher.txt",
        "glass-a-portrait-of-philip-in-twelve-parts.txt",
        "gotham-uncovered-creation-of-a-scene.txt",
        "gun-crazy-episode-1-a-woman-from-nowhere.txt",
        "guru.txt",
        "hallelujah-i-m-a-bum.txt",
        "happy.txt",
        "hard-to-be-a-god.txt",
        "hearts-of-darkness-a-filmmaker-s-apocalypse.txt",
        "heaven-with-a-barbed-wire-fence.txt",
        "heiress-in-a-straight-line.txt",
        "helen-s-babies.txt",
        "hell-is-a-city.txt",
        "horgasm-a-love-story.txt",
        "horror-hall-of-fame-a-monster-salute.txt",
        "how-to-be-a-sailor.txt",
        "how-to-frame-a-figg.txt",
        "how-to-make-a-monster.txt",
        "how-to-meet-girls-from-a-distance.txt",
        "how-to-stop-a-motorcar.txt",
        "i-am-a-camera.txt",
        "i-am-a-director.txt",
        "i-am-not-a-hipster.txt",
        "i-catch-a-terrible-cat.txt",
        "i-don-t-give-a-damn.txt",
        "i-give-it-a-year.txt",
        "i-love-a-mystery.txt",
        "i-m-a-big-shot-now.txt",
        "i-mitici-colpo-gobbo-a-milano.txt",
        "i-never-promised-you-a-rose-garden.txt",
        "i-see-a-dark-stranger.txt",
        "i-walked-with-a-zombie.txt",
        "i-was-a-swiss-banker.txt",
        "i-was-a-teenage-zabbadoing-and-the-incredible-lusty-dust-whip-from-outer-space-conquers-the-earth-versus-the-3-psychedelic-stooges-of-dr-fun-helsing-and-fighting-against-surf-vampires-and-sex-nazis-and-have-troubles-with-this-endless-titillation-title.txt",
        "i-was-a-teenage-zombie.txt",
        "i-was-a-zombie-for-the-f-b-i.txt",
        "if-a-body-meets-a-body.txt",
        "if-a-body-meets-a-body.txt",
        "il-y-a-maldonne.txt",
        "in-society.txt",
        "interview-with-a-hitman.txt",
        "interview-with-a-serial-killer.txt",
        "is-spiritualism-a-fraud.txt",
        "is-your-mama-a-llama.txt",
        "it-s-a-boy.txt",
        "it-s-a-complex-world.txt",
        "it-s-a-small-world.txt",
        "it-s-tough-to-be-a-bird.txt",
        "it-takes-a-man-to-be-henpecked.txt",
        "jackie-mason-a-night-at-the-opera.txt",
        "jane-doe-how-to-fire-your-boss.txt",
        "jane-got-a-gun.txt",
        "java-the-fragrant-isle.txt",
        "jazz-on-a-summer-s-day.txt",
        "john-lennon-yoko-ono-give-peace-a-song.txt",
        "journal-of-a-contract-killer.txt",
        "journey-of-a-young-composer.txt",
        "just-a-beginning.txt",
        "just-a-kiss.txt",
        "just-a-little-heart-attack.txt",
        "just-peck.txt",
        "justin-morgan-had-a-horse.txt",
        "keep-the-river-on-your-right-a-modern-cannibal-tale.txt",
        "kevin-hart-i-m-a-grown-little-man.txt",
        "kiss-1988-a-crazy-night-with-kiss.txt",
        "koko-a-talking-gorilla.txt",
        "kung-fu-nurses-a-go-go.txt",
        "lady-for-a-day.txt",
        "lala-oopsies-a-sew-magical-tale.txt",
        "lassie-a-new-beginning.txt",
        "last-chants-for-a-slow-dance.txt",
        "last-stand-of-the-300.txt",
        "le-solitaire-passe-a-l-attaque.txt",
        "let-s-blow-a-million.txt",
        "let-s-make-a-movie.txt",
        "let-s-make-a-movie.txt",
        "let-s-make-a-movie.txt",
        "let-s-make-a-movie.txt",
        "letter-from-a-filmmaker-to-his-daughter.txt",
        "letters-from-a-killer.txt",
        "letters-of-a-novice.txt",
        "life-as-a-house.txt",
        "life-in-a-day.txt",
        "life-on-a-string.txt",
        "life-s-a-jungle.txt",
        "lightning-in-a-bottle.txt",
        "lights-and-shadows-in-a-city-of-a-million.txt",
        "lights-and-shadows-in-a-city-of-a-million.txt",
        "like-a-dream.txt",
        "living-in-a-big-way.txt",
        "london-2012-olympic-closing-ceremony-a-symphony-of-british-music.txt",
        "looking-for-trouble.txt",
        "love-and-a-bullet.txt",
        "magic-bird-a-courtship-of-rivals.txt",
        "maicching-machiko-teacher-go-go-visit-a-pupil-s-home.txt",
        "make-a-million.txt",
        "man-of-a-thousand-faces.txt",
        "man-on-a-swing.txt",
        "marriage-is-a-private-affair.txt",
        "max-takes-a-bath.txt",
        "max-wants-a-divorce.txt",
        "merely-a-married-man.txt",
        "metallica-a-year-and-a-half-in-the-life-of-part-2.txt",
        "metallica-a-year-and-a-half-in-the-life-of-part-2.txt",
        "midnight-mary.txt",
        "mike-stern-didier-lockwood-4tet-jazz-a-vienne.txt",
        "mind-meld-secrets-behind-the-voyage-of-a-lifetime.txt",
        "mirror-for-a-hero.txt",
        "morbid-a-love-story.txt",
        "motel.txt",
        "mr-bricks-a-heavy-metal-murder-musical.txt",
        "murder-in-a-small-town.txt",
        "muse-a-seaside-rendez-vous.txt",
        "my-dad-s-a-detective.txt",
        "narasimha.txt",
        "narasimha.txt",
        "nasib-do-re-mi.txt",
        "natale-a-4-zampe.txt",
        "nathaniel-hawthorne.txt",
        "necromania-a-tale-of-weird-love.txt",
        "never-a-dull-moment.txt",
        "never-on-a-sunday.txt",
        "nilaave-vaa.txt",
        "nine-guests-for-a-crime.txt",
        "ninja-8-a-new-beginning.txt",
        "ninja-shadow-of-a-tear.txt",
        "north-korea-a-day-in-the-life.txt",
        "not-as-a-stranger.txt",
        "notes-on-a-scandal.txt",
        "o-pioneers.txt",
        "old-shatterhand.txt",
        "once-a-thief.txt",
        "once-upon-a-giant.txt",
        "once-upon-a-honeymoon.txt",
        "once-upon-a-time-in-america.txt",
        "once-upon-a-time-in-china-v.txt",
        "once-upon-a-time.txt",
        "out-on-a-limb.txt",
        "pact-with-the-devil.txt",
        "palmy-days.txt",
        "partysaurus-rex.txt",
        "partysaurus-rex.txt",
        "partysaurus-rex.txt",
        "paul-wilbur-a-night-of-extravagant-worship.txt",
        "pedal-driven-a-bikeumentary.txt",
        "people-of-a-feather.txt",
        "phantasm-iv-oblivion.txt",
        "pictures-from-a-revolution.txt",
        "piglet-s-big-movie.txt",
        "piglet-s-big-movie.txt",
        "pittsburgh-a-to-z.txt",
        "poonthotta-kavalkaran.txt",
        "poove-unakkaga.txt",
        "poppy.txt",
        "portrait-of-a-callgirl-dup.txt",
        "portrait-of-a-hitman.txt",
        "portrait-of-a-hitman.txt",
        "portrait-of-the-artist-as-a-young-bunny.txt",
        "pretty-as-a-picture-the-art-of-david-lynch.txt",
        "prisoners-of-the-sun.txt",
        "prometheus-triumphant-a-fugue-in-the-key-of-flesh.txt",
        "proteus-a-nineteenth-century-vision.txt",
        "psycho-ii.txt",
        "pursuit-of-a-killer.txt",
        "quackser-fortune-has-a-cousin-in-the-bronx.txt",
        "queen-rare-live-a-concert-through-time-and-space.txt",
        "ralphie-may-just-correct.txt",
        "rape-is-a-circle.txt",
        "rat-pfink-a-boo-boo.txt",
        "redemption-a-mile-from-hell.txt",
        "reminiscences-of-a-journey-to-lithuania.txt",
        "rent-a-cop.txt",
        "return-to-the-blue-lagoon.txt",
        "richard-jeni-a-big-steaming-pile-of-me.txt",
        "ride-like-a-pro-v.txt",
        "rip-a-remix-manifesto.txt",
        "roberta.txt",
        "robin-williams-a-night-at-the-met.txt",
        "romance-with-a-double-bass.txt",
        "saatchi.txt",
        "sail-a-crooked-ship.txt",
        "san-francisco-rock-a-night-at-the-family-dog.txt",
        "sand.txt",
        "santa-claws.txt",
        "santa-claws.txt",
        "santa-vs-the-snowman-3d.txt",
        "sattam-oru-iruttarai.txt",
        "scooby-doo-and-the-ghoul-school.txt",
        "sea-monsters-a-prehistoric-adventure.txt",
        "sea-of-love.txt",
        "secrets-of-a-married-man.txt",
        "secrets-of-a-married-man.txt",
        "secrets-of-a-secretary.txt",
        "shadow-of-a-candle.txt",
        "shakespeare-was-a-big-george-jones-fan-cowboy-jack-clement-s-home-movies.txt",
        "shark-swarm.txt",
        "sherlock-holmes-a-game-of-shadows.txt",
        "sherlock-holmes-and-a-study-in-scarlet.txt",
        "si-fa-presto-a-dire-amore.txt",
        "silicon-valley-a-100-year-renaissance.txt",
        "simmarasi.txt",
        "sin-of-a-family.txt",
        "sittin-on-a-backyard-fence.txt",
        "smiley-gets-a-gun.txt",
        "snakes-on-a-plane.txt",
        "snapshots-from-a-vacation-or-a-film-titled-a-fine-balance.txt",
        "snapshots-from-a-vacation-or-a-film-titled-a-fine-balance.txt",
        "snapshots-from-a-vacation-or-a-film-titled-a-fine-balance.txt",
        "snow-white-a-deadly-summer.txt",
        "snuff-a-documentary-about-killing-on-camera.txt",
        "something-is-out-there.txt",
        "sonicsgate-requiem-for-a-team.txt",
        "spin-a-dark-web.txt",
        "stardust-stricken-mohsen-makhmalbaf-a-portrait.txt",
        "storm-war.txt",
        "surprise-attack-on-a-house-at-daybreak.txt",
        "surviving-a-family-in-crisis.txt",
        "surviving-gilligan-s-island.txt",
        "system-of-a-down-rock-in-rio-2011.txt",
        "system-of-a-down-toxicity-dvd.txt",
        "taking-chance.txt",
        "tall-man-riding.txt",
        "tangiwai-a-love-story.txt",
        "teddy-it-s-gonna-be-a-bear.txt",
        "thammudu.txt",
        "that-night-with-you.txt",
        "the-black-city-part-6-a-single-rose.txt",
        "the-boob.txt",
        "the-career-of-a-chambermaid.txt",
        "the-dark-half.txt",
        "the-dark-half.txt",
        "the-darwin-conspiracy.txt",
        "the-death-of-a-working-man-s-newspaper.txt",
        "the-departure-of-a-great-old-man.txt",
        "the-duo.txt",
        "the-end-of-a-priest.txt",
        "the-fanatic-search-2-a-girl-thing.txt",
        "the-father-of-a-soldier.txt",
        "the-founding-of-a-republic.txt",
        "the-gathering-a-noise-severe.txt",
        "the-ghost-and-the-darkness.txt",
        "the-grass-harp.txt",
        "the-happy-years.txt",
        "the-hittites-a-civilization-that-changed-the-world.txt",
        "the-hunt-for-the-unicorn-killer.txt",
        "the-iceman-tapes-conversations-with-a-killer.txt",
        "the-inspectors-2-a-shred-of-evidence.txt",
        "the-invisible-woman.txt",
        "the-iron-curtain.txt",
        "the-lady-takes-a-flyer.txt",
        "the-lady-takes-a-sailor.txt",
        "the-last-warning.txt",
        "the-legend-of-coyote-rock.txt",
        "the-lone-avenger.txt",
        "the-lost-platoon.txt",
        "the-lost-platoon.txt",
        "the-love-statue.txt",
        "the-mad-love-life-of-a-hot-vampire.txt",
        "the-majorettes.txt",
        "the-man-i-love.txt",
        "the-man-with-a-cloak.txt",
        "the-man-without-a-face.txt",
        "the-money-jungle.txt",
        "the-moon-s-our-home.txt",
        "the-mystery-of-a-hansom-cab.txt",
        "the-night-we-called-it-a-day.txt",
        "the-one-warrior.txt",
        "the-one-warrior.txt",
        "the-other-chelsea-a-story-from-donetsk.txt",
        "the-people-vs-george-lucas.txt",
        "the-phable-of-a-busted-romance.txt",
        "the-phynx.txt",
        "the-quest.txt",
        "the-revenge-of-the-teenage-vixens-from-outer-space.txt",
        "the-revenge-of-the-teenage-vixens-from-outer-space.txt",
        "the-richest-girl-in-the-world.txt",
        "the-rise-fall-of-a-white-collar-hooligan.txt",
        "the-rockford-files-a-blessing-in-disguise.txt",
        "the-scourge-of-worlds-a-dungeons-dragons-adventure.txt",
        "the-second-renaissance-part-i.txt",
        "the-shift.txt",
        "the-temple-of-love.txt",
        "the-unusual-suspects-once-upon-a-time-in-house-music.txt",
        "the-velvet-underground-and-nico-a-symphony-of-sound.txt",
        "the-walking-dead.txt",
        "the-walking-dead.txt",
        "the-wife-swappers.txt",
        "the-wife-swappers.txt",
        "there-once-was-a-dog.txt",
        "there-was-a-little-girl.txt",
        "they-made-me-a-killer.txt",
        "this-is-not-a-film.txt",
        "this-is-not-a-robbery.txt",
        "tholi-prema.txt",
        "three-of-a-kind.txt",
        "three-on-a-limb.txt",
        "three-on-a-match.txt",
        "three-on-a-meathook.txt",
        "till-last-breath.txt",
        "time-goes-by-like-a-roaring-lion.txt",
        "to-catch-a-killer.txt",
        "to-make-a-farm.txt",
        "to-make-a-killing.txt",
        "to-save-a-life.txt",
        "to-the-devil-a-daughter.txt",
        "too-tough-to-die-a-tribute-to-johnny-ramone.txt",
        "toughlove.txt",
        "true-confessions-of-a-go-go-girl.txt",
        "true-grit-a-further-adventure.txt",
        "turma-da-monica-a-ilha-misteriosa.txt",
        "tyler-perry-s-i-can-do-bad-all-by-myself-the-play.txt",
        "ufo-target-earth.txt",
        "ufo-target-earth.txt",
        "ufo-target-earth.txt",
        "unnai-kodu-ennai-tharuven.txt",
        "vaanathaippola.txt",
        "vacanze-di-natale-a-cortina.txt",
        "vairam-fight-for-justice.txt",
        "veettukku-oru-kannagai.txt",
        "vetri.txt",
        "voice-in-the-mirror.txt",
        "waking-up-in-a-dream.txt",
        "walk-a-crooked-mile.txt",
        "walk-like-a-man.txt",
        "walter-finds-a-father.txt",
        "war-feathers.txt",
        "went-to-coney-island-on-a-mission-from-god-be-back-by-five.txt",
        "werewolf-in-a-girl-s-dormitory.txt",
        "werewolf-in-a-women-s-prison.txt",
        "what-a-carve-up.txt",
        "what-a-whopper.txt",
        "what-alice-found.txt",
        "what-happened-to-jones.txt",
        "what-makes-a-family.txt",
        "what-s-a-nice-girl-like-you-doing-in-a-place-like-this.txt",
        "what-s-a-nice-girl-like-you-doing-in-a-place-like-this.txt",
        "what-to-do-in-a-zombie-attack.txt",
        "when-a-man-rides-alone.txt",
        "when-a-woman-strikes.txt",
        "where-evil-lives.txt",
        "white-bird-in-a-blizzard.txt",
        "who-will-be-a-gurkha.txt",
        "why-mrs-jones-got-a-divorce.txt",
        "winnie-the-pooh-a-very-merry-pooh-year.txt",
        "with-a-kodak.txt",
        "with-a-song-in-my-heart.txt",
        "within-a-minute-the-making-of-episode-iii.txt",
        "without-a-net.txt",
        "without-a-paddle.txt",
        "wonder-dog.txt",
        "wordworld-a-kooky-spooky-halloween.txt",
        "work-is-a-4-letter-word.txt",
        "workers-pronti-a-tutto.txt",
        "wot-a-night.txt",
        "wwe-hell-in-a-cell-2010.txt",
        "xxxholic-the-movie-a-midsummer-night-s-dream.txt",
        "you-re-a-big-boy-now.txt",
        "you-will-meet-a-tall-dark-stranger.txt",
        "young-jeezy-a-hustlerz-ambition.txt",
        "yours-sincerely.txt",
        "zarkorr-the-invader.txt",
        "zoya.txt"
    ]
}