{
    "files": [
        "every-little-crook-and-nanny.txt",
        "flying-saucers-over-hollywood-the-plan-9-companion.txt",
        "frazetta-painting-with-fire.txt",
        "one-good-man.txt",
        "passion-s-way.txt"
    ]
}