{
    "files": [
        "allez-oop.txt",
        "dynamite-brothers.txt",
        "satan-s-sadists.txt",
        "satan-s-sadists.txt",
        "the-naughty-stewardesses.txt",
        "three-little-sew-and-sews.txt"
    ]
}