{
    "files": [
        "dementia.txt",
        "friday-the-13th.txt",
        "john-carpenter-the-man-and-his-movies.txt",
        "submit-to-me.txt",
        "the-next-one.txt",
        "trust.txt",
        "unholy.txt"
    ]
}