{
    "files": [
        "20-years-after.txt",
        "after-armageddon.txt",
        "after-image.txt",
        "after-midnight-with-boston-blackie.txt",
        "after-office-hours.txt",
        "after-the-harvest.txt",
        "after-the-wizard.txt",
        "august-and-after.txt",
        "before-and-after.txt",
        "is-there-sex-after-death.txt",
        "landscape-after-battle.txt",
        "main-street-after-dark.txt",
        "night-after-night.txt",
        "one-hundred-days-after-childhood.txt",
        "paddington-bear-please-look-after-this-bear.txt",
        "see-you-after-school.txt",
        "snowy-white-and-friends-after-paradise.txt",
        "tangled-ever-after.txt",
        "the-day-after.txt",
        "tom-waits-elephant-beer-blues-songs-after-closing-time.txt"
    ]
}