{
    "files": [
        "a-good-funeral.txt",
        "for-the-next-7-generations.txt",
        "licence-to-steal.txt",
        "life-begins-for-andy-hardy.txt",
        "lucky-devils.txt",
        "meet-me-in-las-vegas.txt",
        "out-west-with-the-hardys.txt",
        "the-hardys-ride-high.txt",
        "those-redheads-from-seattle.txt"
    ]
}