{
    "files": [
        "ab-tumhare-hawale-watan-saathiyo.txt",
        "aflatoon.txt",
        "awara-paagal-deewana.txt",
        "bhool-bhulaiyaa.txt",
        "blue.txt",
        "humko-deewana-kar-gaye.txt",
        "joker.txt",
        "kayda-kanoon.txt",
        "sangharsh.txt"
    ]
}