{
    "files": [
        "any-number-can-win.txt",
        "bricol-girls.txt",
        "bricol-girls.txt",
        "grands-soirs-et-petits-matins.txt",
        "le-retour-de-casanova.txt",
        "news-from-home.txt",
        "nice-time.txt",
        "nice-time.txt",
        "stag-fight.txt",
        "veronique-and-her-dunce.txt"
    ]
}