{
    "files": [
        "30-beats.txt",
        "30-beats.txt",
        "barely-legal-75-75th-anniversary.txt",
        "buttwoman-returns.txt",
        "casey-s-shadow.txt",
        "dysenchanted.txt",
        "girl-trouble.txt",
        "hangover-in-l-a.txt",
        "jacked-up.txt",
        "matroni-et-moi.txt",
        "montana.txt",
        "nightmare-city-2035.txt",
        "no-love-lost.txt",
        "no-love-lost.txt",
        "nurses-2.txt",
        "of-human-bondage.txt",
        "plaguers.txt",
        "the-bombshells-2.txt",
        "the-kate-logan-affair.txt",
        "tyler-perry-s-i-don-t-want-to-do-wrong-the-play.txt",
        "zoo.txt"
    ]
}