{
    "files": [
        "101-dalmatians-ii-patch-s-london-adventure.txt",
        "30-years-to-life.txt",
        "41-seconds.txt",
        "7-man-army.txt",
        "a-humble-life.txt",
        "a-sentimental-capitalism.txt",
        "alexandra.txt",
        "alexandra.txt",
        "alien-private-eye.txt",
        "all-stars.txt",
        "amazing-grace.txt",
        "billion-dollar-limited.txt",
        "bushisms.txt",
        "days-of-eclipse.txt",
        "der-mann-ohne-namen.txt",
        "ed-wood.txt",
        "future-shock.txt",
        "good-girls-go-to-paris.txt",
        "graverobbers.txt",
        "hot-thrills-and-warm-chills.txt",
        "i-am-the-law.txt",
        "iolanthe.txt",
        "jingle-bells.txt",
        "jodi-arias-dirty-little-secret.txt",
        "kernseif.txt",
        "king-of-california.txt",
        "knock-knock-2.txt",
        "life-according-to-agfa.txt",
        "love-julinsee.txt",
        "mafia-vs-ninja.txt",
        "mama-flora-s-family.txt",
        "man-in-the-mirror-the-michael-jackson-story.txt",
        "micro-men.txt",
        "miss-marple-sleeping-murder.txt",
        "mother-and-son.txt",
        "my-rebellious-son.txt",
        "ninja-death.txt",
        "novogodn-aya-pesenka-deda-moroza.txt",
        "oriental-elegy.txt",
        "oriental-elegy.txt",
        "passport-to-shame.txt",
        "perfect-strangers.txt",
        "pictures-at-an-exhibition.txt",
        "point-blank.txt",
        "prison-heat.txt",
        "rusalka.txt",
        "scream-bloody-murder.txt",
        "screwed.txt",
        "sexcula.txt",
        "sonata-for-hitler.txt",
        "sonata-for-hitler.txt",
        "surviving-a-family-in-crisis.txt",
        "sweet-smell-of-success.txt",
        "telets.txt",
        "ten-tigers-of-kwangtung.txt",
        "the-brave-archer-2.txt",
        "the-brave-archer-and-his-mate.txt",
        "the-captain-s-daughter.txt",
        "the-emperor-of-atlantis.txt",
        "the-fake-ghost-catchers.txt",
        "the-glory-brigade.txt",
        "the-last-lullaby.txt",
        "the-nose.txt",
        "the-one-warrior.txt",
        "the-proud-twins.txt",
        "the-public-pays.txt",
        "the-quest.txt",
        "the-seven-ups.txt",
        "the-stone.txt",
        "the-story-of-alexander-graham-bell.txt",
        "the-wave.txt",
        "there-is-no-authority-but-yourself.txt",
        "three-inches.txt",
        "viennese-nights.txt",
        "virgin-alexander.txt",
        "zoya.txt"
    ]
}