{
    "files": [
        "ab-tumhare-hawale-watan-saathiyo.txt",
        "agneepath.txt",
        "aks.txt",
        "andhaa-kaanoon.txt",
        "armaan.txt",
        "baabul.txt",
        "bade-miyan-chote-miyan.txt",
        "baghban.txt",
        "chupke-chupke.txt",
        "deewaar.txt",
        "ek-ajnabee.txt",
        "god-tussi-great-ho.txt",
        "hum-kisi-se-kum-nahin.txt",
        "kyun-ho-gaya-na.txt",
        "lakshya.txt",
        "majboor.txt",
        "mr-natwarlal.txt",
        "muqaddar-ka-sikandar.txt"
    ]
}