{
    "files": [
        "amazing-grace.txt",
        "amazing-grace.txt",
        "angela.txt",
        "angela.txt",
        "blank-city.txt",
        "drifting.txt",
        "eden.txt",
        "girls.txt",
        "kippur.txt",
        "kippur.txt",
        "lock-up.txt",
        "restless.txt",
        "restless.txt",
        "stephen-k-amos-the-feel-good-factor.txt",
        "stephen-k-amos-the-feel-good-factor.txt",
        "the-world-s-greatest-athlete.txt",
        "tori-amos-live-from-ny.txt",
        "tori-amos-live-from-ny.txt",
        "wadi-1981-1991.txt"
    ]
}