{
    "files": [
        "anal-asspirations.txt",
        "anal-prostitutes-on-video-8.txt",
        "anal-sex-play-for-lovers.txt",
        "anal-starlets.txt",
        "anal-vixens.txt",
        "deep-anal-drilling.txt"
    ]
}