{
    "files": [
        "adam-s-rib.txt",
        "adventures-of-mowgli.txt",
        "don-giovanni.txt",
        "four-hearts.txt",
        "makar-pathfinder.txt",
        "new-adventures-of-puss-in-boots.txt",
        "the-mechanic-gavrilov-s-beloved-woman.txt"
    ]
}