{
    "files": [
        "2-turntables-and-a-microphone.txt",
        "a-matter-of-life-and-death.txt",
        "a-visit-to-peek-frean-and-co-s-biscuit-works.txt",
        "abbott-and-costello-in-the-foreign-legion.txt",
        "abbott-and-costello-meet-the-invisible-man.txt",
        "above-and-beyond.txt",
        "akseli-and-elina.txt",
        "alaska-silence-and-solitude.txt",
        "alice-and-the-three-bears.txt",
        "all-creatures-great-and-small.txt",
        "all-ditz-and-jumbo-tits-8.txt",
        "allen-and-rossi-meet-dracula-and-frankenstein.txt",
        "allen-and-rossi-meet-dracula-and-frankenstein.txt",
        "aloha-bobby-and-rose.txt",
        "alpha-and-omega.txt",
        "america-s-heart-and-soul.txt",
        "american-folk-blues-festival-the-blues-and-gospel-train.txt",
        "an-officer-and-a-gentleman.txt",
        "and-a-warm-heart.txt",
        "and-baby-will-fall.txt",
        "and-never-let-her-go.txt",
        "and-now-miguel.txt",
        "and-now-tomorrow.txt",
        "and-the-pursuit-of-happiness.txt",
        "and-thou-shalt-love.txt",
        "androcles-and-the-lion.txt",
        "angel-wars-guardian-force-episode-3-grace-and-glory.txt",
        "aniskin-and-fantomas.txt",
        "apples-and-oranges.txt",
        "arms-and-the-man.txt",
        "august-and-after.txt",
        "aussie-and-ted-s-great-adventure.txt",
        "baby-genius-mozart-and-friends.txt",
        "barbie-and-the-three-musketeers.txt",
        "beauty-and-the-beast.txt",
        "before-and-after.txt",
        "bend-over-and-say-aahhh-again.txt",
        "betty-blowtorch-and-her-amazing-true-life-adventures.txt",
        "between-love-and-hate.txt",
        "beyond-and-back.txt",
        "bill-and-tony.txt",
        "birdemic-shock-and-terror.txt",
        "births-marriages-and-deaths.txt",
        "black-and-blue-legends-of-the-hip-hop-cop.txt",
        "black-and-blue.txt",
        "black-cats-and-broomsticks.txt",
        "black-white-gray-a-portrait-of-sam-wagstaff-and-robert-mapplethorpe.txt",
        "blessed-and-cursed.txt",
        "blood-and-diamonds.txt",
        "boog-and-elliot-s-midnight-bun-run.txt",
        "bosko-and-bruno.txt",
        "bound-and-gagged-a-love-story.txt",
        "boz-thank-you-god-for-colors-and-shapes.txt",
        "bread-and-chocolate.txt",
        "bread-and-tulips.txt",
        "broncho-billy-and-the-greaser.txt",
        "bruce-lee-and-i.txt",
        "bruce-springsteen-and-the-e-street-band-breathless-in-paris.txt",
        "brutes-and-savages.txt",
        "bugs-bunny-and-friends.txt",
        "bugsy-and-mugsy.txt",
        "bullet-and-brain.txt",
        "buster-brown-and-the-dude.txt",
        "busty-cops-and-the-jewel-of-denial.txt",
        "captain-john-smith-and-pocahontas.txt",
        "carl-panzram-the-spirit-of-hatred-and-revenge.txt",
        "catherine-and-i.txt",
        "charley-and-the-angel.txt",
        "chris-isaak-live-in-concert-and-greatest-hits-live-concert.txt",
        "chuk-and-gek.txt",
        "cindy-and-donna.txt",
        "cities-and-years.txt",
        "clear-and-present-danger.txt",
        "cleopatra-jones-and-the-casino-of-gold.txt",
        "colossus-and-the-amazon-queen.txt",
        "connie-and-carla.txt",
        "court-and-hallie-s-wedding.txt",
        "crime-and-punishment.txt",
        "cutie-and-the-boxer.txt",
        "dad-and-dave-on-our-selection.txt",
        "dances-and-dreams-gala-from-berlin.txt",
        "daniel-and-the-lions.txt",
        "danny-and-the-dinosaur-and-more-friendly.txt",
        "danny-and-the-dinosaur-and-more-friendly.txt",
        "daphnis-and-chloe.txt",
        "daryl-hall-and-john-oates-live-at-the-troubadour.txt",
        "day-and-night.txt",
        "days-and-nights-in-the-forest.txt",
        "dead-and-alive-the-race-for-gus-farace.txt",
        "dead-and-buried.txt",
        "desire-and-hell-at-sunset-motel.txt",
        "devil-and-the-angel.txt",
        "diaries-notes-and-sketches.txt",
        "disney-learning-adventures-mickey-and-the-beanstalk.txt",
        "dog-barbos-and-unusual-cross.txt",
        "donnie-mcclurkin-live-in-london-and-more.txt",
        "doraemon-nobita-and-the-robot-kingdom.txt",
        "doraemon-nobita-and-the-spiral-city.txt",
        "doraemon-nobita-and-the-tin-labyrinth.txt",
        "dorothy-marie-and-the-unanswered-questions-of-the-zombie-apocalypse.txt",
        "down-and-out-in-america.txt",
        "dr-jekyll-and-mr-hyde.txt",
        "dracula-the-vampire-and-the-voivode.txt",
        "drawing-dead-the-highs-and-lows-of-online-poker.txt",
        "dream-and-reality.txt",
        "eat-and-run.txt",
        "electric-edwardians-the-films-of-mitchell-and-kenyon.txt",
        "ellery-queen-and-the-perfect-crime.txt",
        "empire-st-pauli-on-strings-of-pearls-and-sending-offs.txt",
        "eurocrime-the-italian-cop-and-gangster-films-that-ruled-the-70s.txt",
        "every-little-crook-and-nanny.txt",
        "fast-and-loose.txt",
        "fat-girls-and-feeders.txt",
        "fathers-and-sons.txt",
        "fear-and-loathing-in-las-vegas.txt",
        "fiberglass-and-megapixels.txt",
        "fifi-and-the-flowertots-talent-show.txt",
        "football-now-and-then.txt",
        "ford-the-man-and-the-machine.txt",
        "freedom-fries-and-other-stupidity-we-ll-have-to-explain-to-our-grandchildren.txt",
        "friends-and-lovers.txt",
        "frog-and-toad-are-friends.txt",
        "frog-and-wombat.txt",
        "georgi-and-the-butterflies.txt",
        "ginger-and-fred.txt",
        "gitmek-my-marlon-and-brando.txt",
        "god-s-country-and-the-woman.txt",
        "goofy-and-wilbur.txt",
        "greatest-heroes-and-legends-of-the-bible-david-and-goliath.txt",
        "greatest-heroes-and-legends-of-the-bible-david-and-goliath.txt",
        "greatest-heroes-and-legends-of-the-bible-noah-s-ark.txt",
        "gun-and-cock.txt",
        "guns-and-roses.txt",
        "hackers-outlaws-and-angels.txt",
        "ham-and-the-masked-marvel.txt",
        "hans-and-the-silver-skates.txt",
        "happy-and-glorious.txt",
        "happy-here-and-now.txt",
        "harley-davidson-and-the-marlboro-man.txt",
        "harry-and-tonto.txt",
        "harry-and-walter-go-to-new-york.txt",
        "hearts-and-minds-2-modern-warfare.txt",
        "heaven-hell-neon-nights-30-years-of-heaven-and-hell.txt",
        "hercules-and-xena-the-animated-movie-the-battle-for-mount-olympus.txt",
        "hide-and-seek.txt",
        "high-and-low.txt",
        "honey-and-the-pig.txt",
        "hope-and-glory.txt",
        "hot-thrills-and-warm-chills.txt",
        "hughes-and-harlow-angels-in-hell.txt",
        "huns-and-hyphens.txt",
        "hyde-and-go-tweet.txt",
        "hyde-and-hare.txt",
        "i-was-a-teenage-zabbadoing-and-the-incredible-lusty-dust-whip-from-outer-space-conquers-the-earth-versus-the-3-psychedelic-stooges-of-dr-fun-helsing-and-fighting-against-surf-vampires-and-sex-nazis-and-have-troubles-with-this-endless-titillation-title.txt",
        "i-was-a-teenage-zabbadoing-and-the-incredible-lusty-dust-whip-from-outer-space-conquers-the-earth-versus-the-3-psychedelic-stooges-of-dr-fun-helsing-and-fighting-against-surf-vampires-and-sex-nazis-and-have-troubles-with-this-endless-titillation-title.txt",
        "i-was-a-teenage-zabbadoing-and-the-incredible-lusty-dust-whip-from-outer-space-conquers-the-earth-versus-the-3-psychedelic-stooges-of-dr-fun-helsing-and-fighting-against-surf-vampires-and-sex-nazis-and-have-troubles-with-this-endless-titillation-title.txt",
        "i-was-a-teenage-zabbadoing-and-the-incredible-lusty-dust-whip-from-outer-space-conquers-the-earth-versus-the-3-psychedelic-stooges-of-dr-fun-helsing-and-fighting-against-surf-vampires-and-sex-nazis-and-have-troubles-with-this-endless-titillation-title.txt",
        "in-the-beginning-adam-and-eve.txt",
        "in-the-land-of-milk-and-money.txt",
        "iron-and-wine-live-from-the-artists-den.txt",
        "jack-dee-live-and-uncut.txt",
        "jan-dvorak-and-his-friends.txt",
        "jane-and-the-dragon-dragon-rules.txt",
        "jay-and-silent-bob-do-degrassi.txt",
        "jim-davidson-uncovered-and-uncensored.txt",
        "john-carpenter-the-man-and-his-movies.txt",
        "jonah-and-the-pink-whale.txt",
        "joseph-and-his-brethren.txt",
        "josh-and-s-a-m.txt",
        "julia-and-julia.txt",
        "king-and-country.txt",
        "king-richard-and-the-crusaders.txt",
        "l-a-p-d-to-protect-and-to-serve.txt",
        "lady-and-gent.txt",
        "laugh-and-learn-about-newborn-baby-care.txt",
        "law-and-order.txt",
        "lights-and-shadows-in-a-city-of-a-million.txt",
        "lilly-the-witch-the-dragon-and-the-magic-book.txt",
        "lily-savage-live-and-outrageous.txt",
        "little-fauss-and-big-halsy.txt",
        "little-masha-and-the-bear.txt",
        "live-and-let-die.txt",
        "losers-and-winners.txt",
        "lost-and-found.txt",
        "love-and-a-bullet.txt",
        "love-and-debate.txt",
        "love-and-diane.txt",
        "love-and-larceny.txt",
        "love-and-other-disasters.txt",
        "love-and-theft.txt",
        "lovers-and-lollipops.txt",
        "lsd-problem-child-and-wonder-drug.txt",
        "mabel-and-fatty-s-wash-day.txt",
        "man-and-boy.txt",
        "mantis-fists-and-tiger-claws-of-shaolin.txt",
        "marilyn-alive-and-behind-bars.txt",
        "max-and-mona.txt",
        "max-minsky-and-me.txt",
        "maybe-logic-the-lives-and-ideas-of-robert-anton-wilson.txt",
        "me-and-my-pal.txt",
        "me-and-my-sister.txt",
        "me-and-the-kid.txt",
        "metallica-a-year-and-a-half-in-the-life-of-part-2.txt",
        "mike-and-the-mechanics-and-paul-carrack-live-at-shepherds-bush.txt",
        "mike-and-the-mechanics-and-paul-carrack-live-at-shepherds-bush.txt",
        "miss-patty-cake-and-the-hullabaloo-zoo.txt",
        "mom-and-dad.txt",
        "money-and-medicine.txt",
        "moonlight-and-romance.txt",
        "moron-5-and-the-crying-lady.txt",
        "mother-and-daughters.txt",
        "mother-and-son.txt",
        "mr-and-mrs-north.txt",
        "mr-immortality-the-life-and-times-of-twista.txt",
        "mud-and-soldiers.txt",
        "mussolini-and-i.txt",
        "my-husband-and-me-likes-trannies-4.txt",
        "myths-and-logic-of-shaolin-kung-fu.txt",
        "nanny-mcphee-and-the-big-bang.txt",
        "navy-blue-and-gold.txt",
        "nicholas-and-alexandra.txt",
        "nick-and-norah-s-infinite-playlist.txt",
        "nietzsche-beyond-good-and-evil.txt",
        "night-and-the-city.txt",
        "nights-and-weekends.txt",
        "of-golf-and-god.txt",
        "of-mice-and-men.txt",
        "old-doc-yak-and-the-artist-s-dream.txt",
        "on-the-marriage-broker-joke-as-cited-by-sigmund-freud-in-wit-and-its-relation-to-the-unconscious-or-can-the-avant-garde-artist-be-wholed.txt",
        "orchestral-manoeuvres-in-the-dark-live-architecture-morality-and-more.txt",
        "paavo-nurmi-the-man-and-his-times.txt",
        "party-scars-and-prison-bars.txt",
        "paul-mccartney-up-and-coming-brasil.txt",
        "pax-americana-and-the-weaponization-of-space.txt",
        "picasso-and-braque-go-to-the-movies.txt",
        "piper-penguin-and-his-fantastic-flying-machines.txt",
        "porgy-and-bess.txt",
        "president-barack-obama-the-man-and-his-journey.txt",
        "queen-rare-live-a-concert-through-time-and-space.txt",
        "queens-of-the-stone-age-over-the-years-and-through-the-woods.txt",
        "rachel-and-the-stranger.txt",
        "ramona-and-beezus.txt",
        "renaldo-and-clara.txt",
        "ringo-starr-and-the-roundheads-live.txt",
        "robert-and-bertram.txt",
        "robin-and-the-7-hoods.txt",
        "rock-and-roll-fantasy.txt",
        "rock-and-roll-hall-of-fame-live.txt",
        "rocks-and-chocolate.txt",
        "roy-chubby-brown-obscene-and-not-heard.txt",
        "rud-and-sam.txt",
        "sabu-and-the-magic-ring.txt",
        "safe-and-sane.txt",
        "saints-and-sinners.txt",
        "salesman-pete-and-the-amazing-stone-from-outer-space.txt",
        "sammy-hagar-and-the-wabos-livin-it-up-live-in-st-louis.txt",
        "scents-and-sensibility.txt",
        "scooby-doo-and-the-ghoul-school.txt",
        "scooby-doo-and-the-goblin-king.txt",
        "scream-and-scream-again.txt",
        "sex-and-consequences.txt",
        "sexy-and-dangerous.txt",
        "sherlock-holmes-and-a-study-in-scarlet.txt",
        "sherlock-holmes-and-the-leading-lady.txt",
        "sherlock-holmes-and-the-sign-of-four.txt",
        "shooting-stars-unviewed-and-nude.txt",
        "sinbad-afros-and-bellbottoms.txt",
        "skazi-hit-and-run-world-tour.txt",
        "sky-above-and-mud-beneath.txt",
        "slice-and-dice-the-slasher-film-forever.txt",
        "small-time-and-where-s-the-money-ronnie.txt",
        "smokey-and-the-bandit-part-3.txt",
        "smokey-joe-s-cafe-the-songs-of-leiber-and-stoller.txt",
        "snow-flower-and-the-secret-fan.txt",
        "snow-white-and-7-dwarfs.txt",
        "snowy-white-and-friends-after-paradise.txt",
        "song-and-solitude.txt",
        "sons-and-daughters.txt",
        "spies-and-lies.txt",
        "stars-and-suns.txt",
        "steve-o-demise-and-rise.txt",
        "svein-and-the-rat-and-the-ufo-mystery.txt",
        "svein-and-the-rat-and-the-ufo-mystery.txt",
        "sweet-and-hot.txt",
        "tea-and-sympathy.txt",
        "the-adventures-of-goopy-and-bagha.txt",
        "the-artist-and-the-city.txt",
        "the-ball-player-and-the-bandit.txt",
        "the-ballad-of-genesis-and-lady-jaye.txt",
        "the-baroness-and-the-butler.txt",
        "the-be-all-and-end-all.txt",
        "the-beast-and-the-beauty.txt",
        "the-brave-archer-and-his-mate.txt",
        "the-captain-and-his-pirate.txt",
        "the-cat-and-the-mermouse.txt",
        "the-clown-and-the-alchemist.txt",
        "the-continuing-story-of-carel-and-ferd.txt",
        "the-crimson-petal-and-the-white.txt",
        "the-egg-and-i.txt",
        "the-father-and-the-foreigner.txt",
        "the-ghost-and-the-darkness.txt",
        "the-girl-and-death.txt",
        "the-good-guys-and-the-bad-guys.txt",
        "the-grasshopper-and-the-ant.txt",
        "the-grizzly-and-the-treasure.txt",
        "the-gypsy-and-the-gentleman.txt",
        "the-heron-and-the-crane.txt",
        "the-land-before-time-good-times-and-good-friends.txt",
        "the-law-and-jake-wade.txt",
        "the-life-and-adventures-of-nicholas-nickleby.txt",
        "the-life-and-death-of-king-john.txt",
        "the-life-and-death-of-peter-sellers.txt",
        "the-life-and-times-of-judge-roy-bean.txt",
        "the-long-and-the-short-and-the-tall.txt",
        "the-long-and-the-short-and-the-tall.txt",
        "the-madness-and-misadventures-of-munchausen.txt",
        "the-martins-and-the-coys.txt",
        "the-monk-and-the-monkey.txt",
        "the-mosquito-problem-and-other-stories.txt",
        "the-most-dangerous-man-in-america-daniel-ellsberg-and-the-pentagon-papers.txt",
        "the-oath-and-the-man.txt",
        "the-poem-of-the-wind-and-the-trees.txt",
        "the-power-and-the-glory.txt",
        "the-prince-and-the-pauper.txt",
        "the-princess-and-the-pea.txt",
        "the-return-of-the-six-million-dollar-man-and-the-bionic-woman.txt",
        "the-rise-and-fall-of-five-iron-frenzy.txt",
        "the-rise-and-fall-of-the-great-lakes.txt",
        "the-seashell-and-the-clergyman.txt",
        "the-slipper-and-the-rose.txt",
        "the-snake-girl-and-the-silver-haired-witch.txt",
        "the-spaceman-and-king-arthur.txt",
        "the-story-of-robin-hood-and-his-merrie-men.txt",
        "the-strange-and-deadly-occurrence.txt",
        "the-stud-and-the-nymph.txt",
        "the-sword-and-the-sorcerer.txt",
        "the-tale-of-the-priest-and-of-his-workman-balda.txt",
        "the-tiger-and-the-pussycat.txt",
        "the-toilers-and-the-wayfarers.txt",
        "the-velvet-underground-and-nico-a-symphony-of-sound.txt",
        "the-virgin-and-the-gypsy.txt",
        "the-wheels-on-the-bus-video-mango-and-papaya-s-animal-adventures.txt",
        "the-whip-and-the-body.txt",
        "the-world-of-peter-rabbit-and-friends.txt",
        "thor-and-the-amazon-women.txt",
        "three-little-sew-and-sews.txt",
        "thunder-and-mud.txt",
        "thunderbolt-and-lightfoot.txt",
        "tim-and-teddy.txt",
        "to-love-and-die.txt",
        "tom-and-jerry-the-magic-ring.txt",
        "tom-and-jerry-the-movie.txt",
        "tom-and-jerry-the-wizard-of-oz.txt",
        "tonya-and-jeff-s-wedding-night.txt",
        "toopy-and-binoo-pumpkin-party.txt",
        "toots-and-the-maytals-reggae-got-soul.txt",
        "topo-gigio-and-the-missile-war.txt",
        "tough-and-deadly.txt",
        "traps-and-tangles.txt",
        "turbos-and-temples.txt",
        "two-queens-and-one-consort.txt",
        "u-s-troops-and-red-cross-in-the-trenches-before-calcoocan-p-i.txt",
        "uncle-tom-and-little-eva.txt",
        "uprising-hip-hop-and-the-l-a-riots.txt",
        "venom-and-eternity.txt",
        "veronique-and-her-dunce.txt",
        "wanda-sykes-sick-and-tired.txt",
        "war-and-peace.txt",
        "wayne-gretzky-above-and-beyond.txt",
        "whaling-afloat-and-ashore.txt",
        "whispers-and-lies.txt",
        "white-fang-and-the-hunter.txt",
        "white-fang-and-the-kid.txt",
        "wings-and-the-woman.txt",
        "yong-gu-and-the-golden-bat.txt",
        "young-and-dangerous-2.txt",
        "young-and-dangerous-4.txt",
        "young-and-dangerous-reloaded.txt",
        "young-and-dangerous.txt",
        "zelly-and-me.txt"
    ]
}