{
    "files": [
        "a-soft-note-on-a-sharp-scale.txt",
        "ab-tumhare-hawale-watan-saathiyo.txt",
        "armaan.txt",
        "baanam.txt",
        "bikkar-bai-sentimental.txt",
        "biwi-no-1.txt",
        "black-truth.txt",
        "bulandi.txt",
        "humko-deewana-kar-gaye.txt",
        "jhooth-bole-kauwa-kaate.txt",
        "laadla.txt",
        "ram-avtar.txt",
        "short-kut-the-con-is-on.txt",
        "tezz.txt"
    ]
}