{
    "files": [
        "a-day-at-santa-anita.txt",
        "accession.txt",
        "awakening.txt",
        "captive-girl.txt",
        "dirty-debutantes-68.txt",
        "double-choc.txt",
        "girlfriends.txt",
        "green-light.txt",
        "ip-man-the-final-fight.txt",
        "july-rhapsody.txt",
        "killer-nun.txt",
        "maro-charitra.txt",
        "martians-go-home.txt",
        "mehndi-shagna-di.txt",
        "midnight-mary.txt",
        "moon-warriors.txt",
        "one-out-of-two.txt",
        "personal-maid-s-secret.txt",
        "san-francisco.txt",
        "shahji-ki-advice.txt",
        "speedway.txt",
        "that-certain-woman.txt",
        "the-barbarian.txt",
        "the-french-sex-murders.txt",
        "the-heroic-trio.txt",
        "we-want-roses-too.txt",
        "women-in-cell-block-7.txt"
    ]
}