{
    "files": [
        "alien-apocalypse.txt",
        "apocalypse-clarkson.txt",
        "apocalypse-the-second-world-war.txt",
        "bodyguard-kiba-apocalypse-of-carnage.txt",
        "dorothy-marie-and-the-unanswered-questions-of-the-zombie-apocalypse.txt",
        "hearts-of-darkness-a-filmmaker-s-apocalypse.txt",
        "meteor-apocalypse.txt",
        "smiling-through-the-apocalypse-esquire-in-the-60s.txt",
        "the-apocalypse.txt",
        "zombie-apocalypse-redemption.txt"
    ]
}