{
    "files": [
        "b-monkey.txt",
        "cindy-the-doll-is-mine.txt",
        "demons-2.txt",
        "live-freaky-die-freaky.txt",
        "the-bird-with-the-crystal-plumage.txt",
        "the-bird-with-the-crystal-plumage.txt",
        "the-card-player.txt",
        "the-stendhal-syndrome.txt",
        "the-stendhal-syndrome.txt",
        "the-stendhal-syndrome.txt"
    ]
}