{
    "files": [
        "badlanders.txt",
        "badlanders.txt",
        "badlanders.txt",
        "consequence.txt",
        "dot-kill.txt",
        "jungle-cavalcade.txt",
        "kidnapped.txt",
        "killer-by-nature.txt",
        "looking-for-an-echo.txt",
        "on-the-beach.txt",
        "ride-ranger-ride.txt",
        "riders-of-the-whistling-pines.txt",
        "shadows-in-paradise.txt",
        "shark-swarm.txt",
        "the-lightning-warrior.txt",
        "the-stabilizer.txt"
    ]
}