{
    "files": [
        "a-year-with-armin-van-buuren.txt",
        "a-year-with-armin-van-buuren.txt",
        "meet-the-santas.txt",
        "sensation-white-2003.txt",
        "the-last-good-time.txt",
        "the-long-run.txt",
        "the-power-of-one.txt",
        "the-third-miracle.txt"
    ]
}