{
    "files": [
        "class-dismissed-how-tv-frames-the-working-class.txt",
        "haunts-of-the-very-rich.txt",
        "o-christmas-tree.txt",
        "out-of-the-woods.txt",
        "the-oil-factor-behind-the-war-on-terror.txt"
    ]
}