{
    "files": [
        "bachelor-bait.txt",
        "bachelor-party-2-the-last-temptation.txt",
        "secrets-of-scotland-yard.txt",
        "the-bachelor-party.txt",
        "the-bashful-bachelor.txt"
    ]
}