{
    "files": [
        "destination-moonbase-alpha.txt",
        "dio-evil-or-divine.txt",
        "dio-finding-the-sacred-heart-live-in-philly-1986.txt",
        "la-salle-de-bain.txt",
        "skinheads.txt",
        "the-hard-ride.txt"
    ]
}