{
    "files": [
        "a-life-for-a-life.txt",
        "bikini-drive-in.txt",
        "chickboxer.txt",
        "dancing-at-the-blue-iguana.txt",
        "dinosaur-island.txt",
        "dyadushkina-kvartira.txt",
        "electric-blue-006.txt",
        "for-happiness.txt",
        "happy-now.txt",
        "necronomicon.txt",
        "sexual-witchcraft.txt",
        "terminal-voyage.txt",
        "the-flesh-merchant.txt",
        "the-notorious-bettie-page.txt",
        "the-trap.txt"
    ]
}