{
    "files": [
        "maybe-logic-the-lives-and-ideas-of-robert-anton-wilson.txt",
        "maybe-logic-the-lives-and-ideas-of-robert-anton-wilson.txt",
        "maybe-logic-the-lives-and-ideas-of-robert-anton-wilson.txt"
    ]
}