{
    "files": [
        "anne-of-green-gables-a-new-beginning.txt",
        "hunters-since-the-beginning-of-time.txt",
        "in-the-beginning-adam-and-eve.txt",
        "in-the-beginning-one-king-for-israel.txt",
        "in-the-beginning-the-exodus.txt",
        "just-a-beginning.txt",
        "lassie-a-new-beginning.txt",
        "ninja-8-a-new-beginning.txt",
        "the-beginning-making-episode-i.txt",
        "the-texas-chainsaw-massacre-the-beginning.txt"
    ]
}