{
    "files": [
        "happy-now.txt",
        "joseph-and-his-brethren.txt",
        "man-of-the-moment.txt",
        "necronomicon.txt",
        "silent-madness.txt",
        "stone-fox.txt"
    ]
}