{
    "files": [
        "bejewelled.txt",
        "benedict-arnold-a-question-of-honor.txt",
        "days-of-dirt.txt",
        "deadhead-miles.txt",
        "everything-s-ducky.txt",
        "megaville.txt",
        "sabu-and-the-magic-ring.txt",
        "sunny-s-slumber-party.txt",
        "winter-a-go-go.txt"
    ]
}