{
    "files": [
        "a-bird-in-the-head.txt",
        "bopha.txt",
        "celebrating-bird-the-triumph-of-charlie-parker.txt",
        "from-above.txt",
        "hate-crime.txt",
        "it-s-tough-to-be-a-bird.txt",
        "magic-bird-a-courtship-of-rivals.txt",
        "magic-bird-a-courtship-of-rivals.txt",
        "once-brothers.txt",
        "the-bird-with-the-crystal-plumage.txt",
        "the-black-crowes-who-killed-that-bird-out-on-your-window-sill-the-movie.txt",
        "the-early-bird-dood-it.txt",
        "white-bird-in-a-blizzard.txt",
        "yesterday-s-children.txt"
    ]
}