{
    "files": [
        "attack-the-block.txt",
        "emperor.txt",
        "entrance.txt",
        "frozen.txt",
        "gambling-lady.txt",
        "no-lies.txt",
        "no-lies.txt",
        "the-dirty-dozen-the-fatal-mission.txt",
        "the-right-to-live.txt",
        "women-in-cell-block-7.txt"
    ]
}