{
    "files": [
        "a-day-at-santa-anita.txt",
        "ab-tumhare-hawale-watan-saathiyo.txt",
        "aloha-bobby-and-rose.txt",
        "best-worst-movie.txt",
        "big-breast-nurses.txt",
        "big-breast-nurses.txt",
        "bobby-jones-stroke-of-genius.txt",
        "bobby-mcferrin-spontaneous-inventions.txt",
        "bobby-mcferrin-spontaneous-inventions.txt",
        "bobby.txt",
        "bop-girl-goes-calypso.txt",
        "bowery-buckaroos.txt",
        "brit-floyd-the-pink-floyd-tribute-show-live-from-liverpool.txt",
        "chennaiyil-oru-naal.txt",
        "chintu-ji.txt",
        "confessions-of-seka.txt",
        "crossed-over.txt",
        "dave-brubeck-take-five-in-a-quartet.txt",
        "fathers-are-people.txt",
        "flying-wild.txt",
        "fools-for-scandal.txt",
        "invocation-of-my-demon-brother.txt",
        "judgment-day-the-john-list-story.txt",
        "kareeb.txt",
        "laird.txt",
        "loonies.txt",
        "manhood.txt",
        "manhood.txt",
        "maximum-breakout.txt",
        "nazty-nuisance.txt",
        "overkill-live-at-wacken-open-air-2007.txt",
        "pink-narcissus.txt",
        "plaguers.txt",
        "polk-county-pot-plane.txt",
        "roadie.txt",
        "searching-for-bobby-d.txt",
        "strikeforce-challengers-11-bowling-vs-voelker.txt",
        "the-affairs-of-dobie-gillis.txt",
        "the-choir-boys.txt",
        "the-devil-with-hitler.txt",
        "the-jack-knife-man.txt",
        "the-way-bobby-sees-it.txt",
        "the-way-bobby-sees-it.txt",
        "tna-destination-x-2012.txt",
        "tna-final-resolution-2012.txt",
        "vaada-raha-i-promise.txt",
        "wanted-perfect-mother.txt",
        "yamla-pagla-deewana-2.txt"
    ]
}