{
    "files": [
        "body-double.txt",
        "body-jumper.txt",
        "body-moves.txt",
        "body-of-the-prey.txt",
        "body-sob-19.txt",
        "body-switch.txt",
        "body-temperature.txt",
        "body-without-soul.txt",
        "harold-robbins-body-parts.txt",
        "if-a-body-meets-a-body.txt",
        "if-a-body-meets-a-body.txt",
        "invasion-of-the-body-snatchers.txt",
        "my-body-hungers.txt",
        "no-body-found.txt",
        "over-my-dead-body.txt",
        "tetsuo-ii-body-hammer.txt",
        "the-body-beautiful.txt",
        "the-body-shop.txt",
        "the-magic-school-bus-human-body.txt",
        "the-sweet-body-of-deborah.txt",
        "the-whip-and-the-body.txt",
        "theresa-the-body-of-christ.txt"
    ]
}