{
    "files": [
        "excalibur.txt",
        "excalibur.txt",
        "hope-and-glory.txt",
        "hope-and-glory.txt",
        "in-my-country.txt",
        "on-edge.txt",
        "point-blank.txt"
    ]
}