{
    "files": [
        "barefoot-boy.txt",
        "christmas-on-mars.txt",
        "class-of-1999.txt",
        "deputy-droopy.txt",
        "drag.txt",
        "droopy-s-double-trouble.txt",
        "fast-girls.txt",
        "fathers-and-sons.txt",
        "fragment.txt",
        "hoop-la.txt",
        "kali-ma.txt",
        "little-manhattan.txt",
        "magical-maestro.txt",
        "no-room-for-rockstars-the-vans-warped-tour.txt",
        "on-edge.txt",
        "out-foxed.txt",
        "recycled-parts.txt",
        "red-letters.txt",
        "red-letters.txt",
        "redwoods.txt",
        "symbiosis.txt",
        "the-invisible-killer.txt",
        "the-mists-of-avalon.txt",
        "the-public-pays.txt",
        "the-words.txt"
    ]
}