{
    "files": [
        "atomic-brain-invasion.txt",
        "brain-smasher-a-love-story.txt",
        "brand-upon-the-brain.txt",
        "bullet-and-brain.txt",
        "man-with-the-transplanted-brain.txt",
        "ouch-television-my-brain-hurts.txt",
        "sinbad-brain-damaged.txt",
        "snow-2-brain-freeze.txt",
        "the-brain-from-planet-arous.txt"
    ]
}