{
    "files": [
        "in-name-only.txt",
        "jim-breuer-hardcore.txt",
        "jim-breuer-hardcore.txt",
        "jim-breuer-hardcore.txt",
        "jim-breuer-let-s-clear-the-air.txt",
        "jim-breuer-let-s-clear-the-air.txt",
        "jim-breuer-let-s-clear-the-air.txt"
    ]
}