{
    "files": [
        "another-48-hrs.txt",
        "brion-gysin-s-dreamachine.txt",
        "cyberjack.txt",
        "flicker.txt",
        "the-dark.txt",
        "the-soft-kill.txt",
        "time-runner.txt"
    ]
}