{
    "files": [
        "a-dog-of-flanders.txt",
        "reconvergence.txt",
        "super-fuzz.txt",
        "the-crooked-circle.txt",
        "the-map-reader.txt",
        "the-map-reader.txt",
        "the-steel-helmet.txt",
        "tough-assignment.txt",
        "treasure-of-monte-cristo.txt"
    ]
}