{
    "files": [
        "10-to-midnight.txt",
        "a-kiss-for-cinderella.txt",
        "are-parents-people.txt",
        "daydream-believers-the-monkees-story.txt",
        "death-wish-3.txt",
        "death-wish-4-the-crackdown.txt",
        "death-wish-5-the-face-of-death.txt",
        "lola.txt",
        "the-thief.txt",
        "x-15.txt"
    ]
}