{
    "files": [
        "a-ticklish-affair.txt",
        "amazing-milf-rack.txt",
        "big-breast-nurses.txt",
        "champion-road-arena.txt",
        "cheap-booze-cigarettes.txt",
        "cool-guys.txt",
        "crossfire.txt",
        "garth-brooks-reunion-arena-dallas-texas.txt",
        "garth-brooks-reunion-arena-dallas-texas.txt",
        "i-ll-do-anything.txt",
        "i-ll-do-anything.txt",
        "i-ll-do-anything.txt",
        "it-s-alive-the-true-story-of-frankenstein.txt",
        "make-a-million.txt",
        "mother.txt",
        "never-weaken.txt",
        "our-miss-brooks.txt",
        "pink-narcissus.txt",
        "quid-pro-quo.txt",
        "quid-pro-quo.txt",
        "rapid-fire.txt",
        "rolled-stockings.txt",
        "sail-a-crooked-ship.txt",
        "silent-cries.txt",
        "skeleton-key.txt",
        "spaceballs.txt",
        "spaceballs.txt",
        "spaceballs.txt",
        "take-the-high-ground.txt",
        "the-american-matrix-age-of-deception.txt",
        "the-darwin-conspiracy.txt",
        "the-dead-don-t-dream.txt",
        "the-invisible-circus.txt",
        "the-invisible-circus.txt",
        "the-kindred.txt",
        "the-last-hunt.txt",
        "the-last-hunt.txt",
        "the-light-touch.txt",
        "the-seven-year-hitch.txt",
        "the-yankles.txt",
        "the-yankles.txt",
        "the-yankles.txt",
        "volcano.txt",
        "white-noise.txt",
        "work-is-a-4-letter-word.txt"
    ]
}