{
    "files": [
        "a-town-like-alice.txt",
        "apartment-zero.txt",
        "asad.txt",
        "asad.txt",
        "batman-year-one.txt",
        "bon-jovi-live-on-vh1-unplugged.txt",
        "bryan-callen-man-class.txt",
        "bryan-callen-man-class.txt",
        "bryan-ferry-live-in-paris.txt",
        "bryan-ferry-live-in-paris.txt",
        "bugs-bonnets.txt",
        "cyborg-cop-iii.txt",
        "hare-remover.txt",
        "kingdom-of-gladiators.txt",
        "lady-street-fighter.txt",
        "laird.txt",
        "larry-crowne.txt",
        "magic-island.txt",
        "murder-on-diamond-row.txt",
        "on-the-beach.txt",
        "one-a-m.txt",
        "pay-your-dues.txt",
        "prisoners-of-the-sun.txt",
        "rabbit-fire.txt",
        "rabbit-rampage.txt",
        "scouts-honor-badge-to-the-bone.txt",
        "scouts-honor-badge-to-the-bone.txt",
        "sinderella.txt",
        "street-wars.txt",
        "super-8.txt",
        "symbiosis.txt",
        "the-basketball-diaries.txt",
        "the-big-snooze.txt",
        "the-brides-of-dracula.txt",
        "the-candy-snatchers.txt",
        "the-hand.txt",
        "the-hike.txt",
        "the-hike.txt",
        "the-immigrant.txt",
        "the-mad-magician.txt",
        "the-spanish-gardener.txt",
        "the-triangle.txt",
        "united-we-fall.txt",
        "youngblood.txt"
    ]
}