{
    "files": [
        "a-burning-passion-the-margaret-mitchell-story.txt",
        "a-time-for-burning.txt",
        "burning-annie.txt",
        "burning-down-the-house-the-story-of-cbgb.txt",
        "burning-ice.txt",
        "burning-the-future-coal-in-america.txt",
        "burning-water.txt"
    ]
}