{
    "files": [
        "aaron-albeit-a-sex-hero.txt",
        "arrowhead.txt",
        "batman-chase-me.txt",
        "bloodfist-iii-forced-to-fight.txt",
        "carol-burnett-show-stoppers.txt",
        "carol-burnett-show-stoppers.txt",
        "carol-burnett-show-stoppers.txt",
        "colorado-territory.txt",
        "killer-of-sheep.txt",
        "law-and-order.txt",
        "noises-off.txt",
        "scooby-doo-abracadabra-doo.txt",
        "several-friends.txt",
        "several-friends.txt",
        "several-friends.txt",
        "several-friends.txt",
        "the-horse.txt",
        "the-horse.txt",
        "the-horse.txt"
    ]
}