{
    "files": [
        "captain-abu-raed.txt",
        "captain-america-sentinel-of-liberty.txt",
        "captain-beefheart-under-review.txt",
        "captain-eo.txt",
        "captain-john-smith-and-pocahontas.txt",
        "captain-tsubasa-movie-03-run-to-catch-the-tomorrow.txt",
        "fortunes-of-captain-blood.txt",
        "new-adventures-of-captain-vrungel.txt",
        "the-captain-and-his-pirate.txt",
        "the-immortal-voyage-of-captain-drake.txt"
    ]
}