{
    "files": [
        "at-the-earth-s-core.txt",
        "babymother.txt",
        "blonde-deluxe-anthology.txt",
        "first.txt",
        "ghosts-that-still-walk.txt",
        "grand-guignol.txt",
        "interview-with-a-hitman.txt",
        "life-love-death.txt",
        "passchendaele.txt",
        "river-s-end.txt",
        "snow-white-the-fairest-of-them-all.txt",
        "the-bells.txt",
        "the-bridge.txt",
        "the-christmas-consultant.txt",
        "the-home-made-car.txt",
        "the-horseman.txt",
        "the-nightmare-before-christmas.txt",
        "the-seven-of-daran-battle-of-pareo-rock.txt",
        "the-street.txt",
        "the-street.txt",
        "within-the-rock.txt"
    ]
}