{
    "files": [
        "carrie-underwood-vh1-unplugged.txt",
        "carrie-underwood-vh1-unplugged.txt",
        "classic-creatures-return-of-the-jedi.txt",
        "frankenstein.txt",
        "garbo-talks.txt",
        "maximum-breakout.txt",
        "naked-killer.txt",
        "red-road.txt",
        "sentenced-to-hang.txt",
        "that-s-what-she-said.txt",
        "the-dummy.txt",
        "the-foursome.txt"
    ]
}