{
    "files": [
        "a-star-is-born.txt",
        "as-long-as-they-re-happy.txt",
        "bandits-of-the-badlands.txt",
        "call-of-the-rockies.txt",
        "dead-men-walking.txt",
        "ella-enchanted.txt",
        "johnny-carson-his-favorite-moments-from-the-tonight-show-70s-80s-the-master-of-laughs.txt",
        "johnny-carson-his-favorite-moments-from-the-tonight-show-70s-80s-the-master-of-laughs.txt",
        "johnny-carson-his-favorite-moments-from-the-tonight-show-johnny-goes-home.txt",
        "johnny-carson-his-favorite-moments-from-the-tonight-show-johnny-goes-home.txt",
        "johnny-carson-his-favorite-moments-from-the-tonight-show-johnny-goes-home.txt",
        "johnny-carson-his-favorite-moments-from-the-tonight-show-johnny-goes-home.txt",
        "killers.txt",
        "letters-from-a-killer.txt",
        "lucky-partners.txt",
        "lunarcy.txt",
        "red-garters.txt",
        "relax-it-s-just-sex.txt",
        "roughly-speaking.txt",
        "sheriff-of-cimarron.txt",
        "the-ballad-of-the-sad-cafe.txt"
    ]
}