{
    "files": [
        "a-room-with-a-view.txt",
        "battlefield-america.txt",
        "billy-frankenstein.txt",
        "bizarre-styles.txt",
        "blue-valley-songbird.txt",
        "bratz-the-video-starrin-stylin.txt",
        "carpool.txt",
        "dave-matthews-band-the-gorge.txt",
        "double-happiness-uranium.txt",
        "emperor-of-shaolin-kung-fu.txt",
        "fall-from-grace.txt",
        "he-s-my-girl.txt",
        "herbie-hancock-trio-hurricane.txt",
        "howards-end.txt",
        "infinite-lives-the-road-to-e3.txt",
        "intrigue.txt",
        "johnny-cash-in-san-quentin.txt",
        "kavik-the-wolf-dog.txt",
        "kiss-tomorrow-goodbye.txt",
        "kung-fu-arts.txt",
        "margaret-s-museum.txt",
        "miami-vice-brother-s-keeper.txt",
        "mike-hammer-murder-takes-all.txt",
        "one-night-with-blue-note.txt",
        "please-kill-mr-know-it-all.txt",
        "please-make-me-lesbian-part-3.txt",
        "please-make-me-lesbian-part-6.txt",
        "refuge.txt",
        "sammy-s-adventures-2.txt",
        "starlets.txt",
        "the-devil-at-your-heels.txt",
        "the-hollow.txt",
        "the-magnificent.txt",
        "the-revengers-comedies.txt",
        "the-sex-boutique-glory-holes.txt",
        "the-way-of-war.txt",
        "till-human-voices-wake-us.txt",
        "true-confessions-of-a-go-go-girl.txt",
        "waters-rising.txt",
        "youngblood.txt"
    ]
}