{
    "files": [
        "casino-lights-99-live-at-the-montreux-jazz-festival.txt",
        "casino-raiders-ii.txt",
        "casino-raiders.txt",
        "casino.txt",
        "cleopatra-jones-and-the-casino-of-gold.txt"
    ]
}