{
    "files": [
        "13-frightened-girls.txt",
        "bug.txt",
        "castle-in-the-desert.txt",
        "castle-of-de-sade.txt",
        "castle-of-the-banned-lovers.txt",
        "cinematic-titanic-frankenstein-s-castle-of-freaks.txt",
        "conquest-of-cochise.txt",
        "crime-doctor-s-warning.txt",
        "desire-and-hell-at-sunset-motel.txt",
        "desire-and-hell-at-sunset-motel.txt",
        "hot-house-backroom-exclusive-volume-3.txt",
        "house-on-haunted-hill.txt",
        "it-s-a-small-world.txt",
        "it-s-a-small-world.txt",
        "john-carpenter-the-man-and-his-movies.txt",
        "johnny-castle-rising-star.txt",
        "johnny-castle-rising-star.txt",
        "mr-sardonicus.txt",
        "riot.txt",
        "tall-man-riding.txt",
        "the-black-castle.txt",
        "the-black-city-part-3-the-two-neighbouring-castle.txt",
        "the-castle-of-others.txt",
        "the-castle-tour.txt",
        "the-whistler.txt",
        "two-gun-lady.txt",
        "ys-ii-castle-in-the-heavens.txt"
    ]
}