{
    "files": [
        "blond-cheat.txt",
        "how-to-stop-a-motorcar.txt",
        "joan-the-woman.txt",
        "shaolin-wheel-of-life.txt",
        "the-cockeyed-miracle.txt",
        "the-greatest-show-on-earth.txt",
        "the-squaw-man.txt",
        "the-virginian.txt"
    ]
}