{
    "files": [
        "from-the-other-side.txt",
        "my-little-pony-twinkle-wish-adventure.txt",
        "news-from-home.txt",
        "news-from-home.txt",
        "news-from-home.txt",
        "snapshot.txt",
        "thirst.txt"
    ]
}