{
    "files": [
        "and-now-tomorrow.txt",
        "dismal.txt",
        "female-on-the-beach.txt",
        "mad-dog-coll.txt",
        "man-in-the-shadow.txt",
        "once-upon-a-honeymoon.txt",
        "spy-train.txt",
        "the-blue-dahlia.txt",
        "the-lady-takes-a-flyer.txt",
        "the-most-dangerous-man-in-america-daniel-ellsberg-and-the-pentagon-papers.txt",
        "upheaval.txt"
    ]
}