{
    "files": [
        "auditions-48-popping-d-o-s-cherry.txt",
        "cherry-hustlers.txt",
        "das-mirakel.txt",
        "don-cherry-19.txt",
        "don-cherry-19.txt",
        "don-cherry-19.txt",
        "don-cherry-s-rock-em-sock-em-hockey-22.txt",
        "elaine-stritch-shoot-me.txt",
        "murder-in-a-small-town.txt",
        "noy.txt",
        "several-friends.txt",
        "taste-of-cherry.txt",
        "the-people-against-o-hara.txt",
        "twilight-dancers.txt",
        "what-makes-a-family.txt"
    ]
}