{
    "files": [
        "bakgat.txt",
        "cherie.txt",
        "cherie.txt",
        "darna-the-return.txt",
        "fashionistas-safado-berlin.txt",
        "girls-in-white-2012-part-3.txt",
        "once-a-thief.txt",
        "parasite.txt",
        "peking-opera-blues.txt",
        "sweet-kill.txt",
        "women-seeking-women-volume-83.txt"
    ]
}