{
    "files": [
        "after-midnight-with-boston-blackie.txt",
        "alias-boston-blackie.txt",
        "cotton-comes-to-harlem.txt",
        "double-exposure.txt",
        "five-came-back.txt",
        "gentlemen-of-nerve.txt",
        "gretchen-the-greenhorn.txt",
        "linkin-park-live-in-rock-in-rio-2008.txt",
        "no-hands-on-the-clock.txt",
        "public-hero-number-1.txt",
        "she-couldn-t-say-no.txt",
        "the-bad-boy.txt",
        "the-bad-boy.txt",
        "the-bashful-bachelor.txt",
        "the-bashful-bachelor.txt",
        "the-belle-of-new-york.txt",
        "the-big-house.txt",
        "the-case-of-sergeant-grischa.txt",
        "the-egg-and-i.txt",
        "the-toll-of-the-sea.txt",
        "tomorrow-at-seven.txt",
        "when-ambrose-dared-walrus.txt"
    ]
}