{
    "files": [
        "4-horror-tales-february-29.txt",
        "a-chinese-tall-story.txt",
        "actresses.txt",
        "assassins-code.txt",
        "beautiful.txt",
        "black-rose-academy.txt",
        "bloody-fight-in-iron-rock-valley.txt",
        "boys-of-tomorrow.txt",
        "chunganggonggyoksu.txt",
        "coffee-samurai.txt",
        "flyin-dance.txt",
        "hidden-heroes.txt",
        "insadong-scandal.txt",
        "invisible-light.txt",
        "lies.txt",
        "love-in-magic.txt",
        "love-on-the-rocks.txt",
        "ma-ma.txt",
        "nightmare.txt",
        "paradise-murdered.txt",
        "petty-romance.txt",
        "petty-romance.txt",
        "project-makeover.txt",
        "rape-trap.txt",
        "the-daughters-of-kim-s-pharmacy.txt",
        "the-restless.txt",
        "the-sword.txt",
        "three-kims.txt",
        "where-is-ronny.txt",
        "young-gun-in-the-time.txt"
    ]
}