{
    "files": [
        "a-trip-to-inside.txt",
        "all-star-milfs.txt",
        "all-star-superman.txt",
        "casper.txt",
        "coming-up-roses.txt",
        "ein-sack-voll-geld.txt",
        "ginger-rosa.txt",
        "killer-me.txt",
        "knight-knight.txt",
        "la-cucina.txt",
        "little-red-riding-hood.txt",
        "max-havoc-ring-of-fire.txt",
        "megaquake-the-hour-that-shook-japan.txt",
        "new-hope.txt",
        "pecker.txt",
        "queen-christina.txt",
        "run-bitch-run.txt",
        "sex-play.txt",
        "sharkman.txt",
        "submerge.txt",
        "that-darn-cat.txt",
        "the-commissioner.txt",
        "the-malibu-beach-vampires.txt",
        "the-stewardesses.txt",
        "unhappy-birthday.txt",
        "war-flowers.txt"
    ]
}