{
    "files": [
        "christoph-schlingensief-und-seine-filme.txt",
        "christoph-schlingensief-und-seine-filme.txt",
        "metallic-blues.txt",
        "private-gold-20-dead-man-s-wish.txt",
        "private-gold-20-dead-man-s-wish.txt",
        "stille-liebe.txt",
        "stille-liebe.txt"
    ]
}