{
    "files": [
        "12-men-of-christmas.txt",
        "12-wishes-of-christmas.txt",
        "a-carol-christmas.txt",
        "a-christmas-carol.txt",
        "a-christmas-snow.txt",
        "a-christmas-too-many.txt",
        "a-heartland-christmas.txt",
        "a-hobo-s-christmas.txt",
        "a-nanny-for-christmas.txt",
        "a-smoky-mountain-christmas.txt",
        "a-wowiebozowee-christmas.txt",
        "barbie-a-perfect-christmas.txt",
        "black-christmas.txt",
        "christmas-comes-but-once-a-year.txt",
        "christmas-comes-to-willow-creek.txt",
        "christmas-evil.txt",
        "christmas-flintstone.txt",
        "christmas-in-canaan.txt",
        "christmas-in-miami.txt",
        "christmas-in-the-clouds.txt",
        "christmas-in-wonderland.txt",
        "christmas-magic.txt",
        "christmas-miracle.txt",
        "christmas-on-mars.txt",
        "christmas-tango.txt",
        "coopers-christmas.txt",
        "father-christmas.txt",
        "goof-troop-christmas.txt",
        "hercules-saves-christmas.txt",
        "home-by-christmas.txt",
        "how-the-grinch-stole-christmas.txt",
        "it-happened-one-christmas.txt",
        "it-nearly-wasn-t-christmas.txt",
        "jiminy-cricket-s-christmas.txt",
        "larry-the-cable-guy-s-star-studded-christmas-extravaganza.txt",
        "lost-christmas.txt",
        "love-hina-christmas-special-silent-eve.txt",
        "lucky-christmas.txt",
        "marillion-christmas-in-the-chapel.txt",
        "mickey-s-magical-christmas-snowed-in-at-the-house-of-mouse.txt",
        "o-christmas-tree.txt",
        "on-strike-for-christmas.txt",
        "recess-christmas-miracle-on-third-street.txt",
        "santa-s-christmas-circus.txt",
        "the-christmas-clause.txt",
        "the-christmas-consultant.txt",
        "the-christmas-hope.txt",
        "the-christmas-party.txt",
        "the-christmas-raccoons.txt",
        "the-christmas-toy.txt",
        "the-christmas-wife.txt",
        "the-cow-that-almost-missed-christmas.txt",
        "the-demon-lover.txt",
        "the-dog-who-saved-christmas-vacation.txt",
        "the-first-christmas-the-story-of-the-first-christmas-snow.txt",
        "the-first-christmas-the-story-of-the-first-christmas-snow.txt",
        "the-junky-s-christmas.txt",
        "the-night-before-christmas.txt",
        "the-nightmare-before-christmas.txt",
        "the-smurfs-baby-s-first-christmas.txt",
        "the-worst-christmas-of-my-life.txt"
    ]
}