{
    "files": [
        "10-magnificent-killers.txt",
        "confetti.txt",
        "david-loman.txt",
        "duel-of-masters.txt",
        "duel-of-masters.txt",
        "family-of-lust.txt",
        "flying-claw-fights-14-demons.txt",
        "golden-queen-s-commando.txt",
        "island-of-fire.txt",
        "just-call-me-nobody.txt",
        "just-call-me-nobody.txt",
        "lewd-lizard.txt",
        "lewd-lizard.txt",
        "say-yes.txt",
        "step-up-2-the-streets.txt",
        "tetsuo-ii-body-hammer.txt",
        "the-spiritual-love.txt",
        "the-sword.txt",
        "young-policemen-in-love.txt"
    ]
}