{
    "files": [
        "death-force.txt",
        "eye-of-the-eagle.txt",
        "firecracker.txt",
        "firecracker.txt",
        "future-hunters.txt",
        "stryker.txt",
        "stryker.txt",
        "when-eagles-strike.txt"
    ]
}