{
    "files": [
        "bloody-murder-2-closing-camp.txt",
        "grateful-dead-the-closing-of-winterland.txt",
        "london-2012-olympic-closing-ceremony-a-symphony-of-british-music.txt",
        "tom-waits-elephant-beer-blues-songs-after-closing-time.txt"
    ]
}