{
    "files": [
        "bicentennial-man.txt",
        "christopher-columbus-the-discovery.txt",
        "heartbreak-hotel.txt",
        "magnificent-voyage-of-christopher-columbus.txt",
        "reckless.txt"
    ]
}