{
    "files": [
        "confessions-of-a-call-girl.txt",
        "confessions-of-a-sorority-girl.txt",
        "confessions-of-a-teenage-drama-queen.txt",
        "confessions-of-a-young-american-housewife.txt",
        "confessions-of-an-ex-doofus-itchy-footed-mutha.txt",
        "confessions-of-an-innocent-man.txt",
        "confessions-of-seka.txt",
        "confessions.txt",
        "true-confessions-of-a-go-go-girl.txt"
    ]
}