{
    "files": [
        "1313-frankenqueen.txt",
        "all-my-presidents.txt",
        "at-the-earth-s-core.txt",
        "carry-on-constable.txt",
        "carry-on-emmannuelle.txt",
        "ivans-xtc.txt",
        "mother-terese-in-the-name-of-god-s-poor.txt",
        "the-living-sea.txt",
        "the-people-that-time-forgot.txt",
        "trial-by-combat.txt"
    ]
}