{
    "files": [
        "all-at-sea.txt",
        "bachelor-party-2-the-last-temptation.txt",
        "finding-joy.txt",
        "freakshow.txt",
        "freakshow.txt",
        "one-for-the-road.txt",
        "the-bells.txt"
    ]
}