{
    "files": [
        "breaking-the-code-behind-the-walls-of-chris-jericho.txt",
        "fat-girls-and-feeders.txt",
        "hell-s-five-hours.txt",
        "police-around-the-world.txt",
        "police-around-the-world.txt",
        "the-police-live-in-concert-tokyo.txt",
        "wwf-tlc-tables-ladders-chairs.txt"
    ]
}