{
    "files": [
        "crooked-business.txt",
        "sail-a-crooked-ship.txt",
        "the-crooked-circle.txt",
        "the-crooked-man.txt",
        "the-crooked-trail.txt",
        "walk-a-crooked-mile.txt"
    ]
}