{
    "files": [
        "elizabethtown.txt",
        "elizabethtown.txt",
        "ghost-blues-rory-gallagher.txt",
        "the-interrogation-of-michael-crowe.txt",
        "the-real-robin-hood.txt",
        "the-wild-life.txt"
    ]
}