{
    "files": [
        "blood-games.txt",
        "green-grass-of-wyoming.txt",
        "meet-mr-lucifer.txt",
        "mr-hockey-the-gordie-howe-story.txt",
        "murder-at-the-presidio.txt",
        "seattle-superstorm.txt",
        "storm-boy.txt",
        "the-pastor-s-wife.txt",
        "thunderhead-son-of-flicka.txt"
    ]
}