{
    "files": [
        "barbie-and-the-three-musketeers.txt",
        "muppet-treasure-island.txt",
        "pacific-palisades.txt",
        "stephen-king-s-it.txt",
        "the-scoundrel-s-wife.txt",
        "the-worst-witch.txt"
    ]
}