{
    "files": [
        "blood-reign-curse-of-the-yoma.txt",
        "curse-eternal.txt",
        "curse-of-the-deserted.txt",
        "curse-of-the-voodoo.txt",
        "curse-of-the-zodiac.txt",
        "pharaoh-s-curse.txt",
        "reverse-of-the-curse-of-the-bambino.txt",
        "saga-curse-of-the-shadow.txt",
        "the-curse.txt",
        "yeti-curse-of-the-snow-demon.txt"
    ]
}