{
    "files": [
        "meet-wally-sparks.txt",
        "rodney-dangerfield-exposed.txt",
        "rodney-dangerfield-exposed.txt",
        "rodney-dangerfield-exposed.txt",
        "the-rodney-dangerfield-special-i-can-t-take-it-no-more.txt",
        "the-rodney-dangerfield-special-i-can-t-take-it-no-more.txt",
        "the-rodney-dangerfield-special-i-can-t-take-it-no-more.txt"
    ]
}