{
    "files": [
        "48-shades.txt",
        "48-shades.txt",
        "a-fighter-s-blues.txt",
        "a-state-of-mind.txt",
        "a-state-of-mind.txt",
        "a-state-of-mind.txt",
        "american-shaolin.txt",
        "apocalypse-the-second-world-war.txt",
        "baby-face-nelson.txt",
        "battle-queen-2020.txt",
        "behind-locked-doors.txt",
        "beyond-the-trophy.txt",
        "bishonen.txt",
        "black-beauty.txt",
        "bound-and-gagged-a-love-story.txt",
        "cocoon-the-return.txt",
        "cowboys-aliens.txt",
        "crusoe.txt",
        "dancing-in-jaffa.txt",
        "daniel-and-the-lions.txt",
        "daniel-tosh-happy-thoughts.txt",
        "daniel-tosh-happy-thoughts.txt",
        "daniel-tosh-happy-thoughts.txt",
        "daniel.txt",
        "dark-reel.txt",
        "darkon.txt",
        "dinosaur.txt",
        "dirty-war.txt",
        "don-t-go-breaking-my-heart.txt",
        "doogal.txt",
        "dr-dolittle-million-dollar-mutts.txt",
        "dream-house.txt",
        "dream-house.txt",
        "dudes.txt",
        "elf.txt",
        "escape-from-crime.txt",
        "evocateur-the-morton-downey-jr-movie.txt",
        "evocateur-the-morton-downey-jr-movie.txt",
        "face-of-a-fugitive.txt",
        "fast-girl.txt",
        "fast-girl.txt",
        "fat-girls-and-feeders.txt",
        "fox-style.txt",
        "fox-style.txt",
        "framed.txt",
        "framed.txt",
        "grands-soirs-et-petits-matins.txt",
        "happy-and-glorious.txt",
        "happy-end.txt",
        "harry-brown.txt",
        "harry-brown.txt",
        "heavy-metal.txt",
        "here-is-what-is.txt",
        "here-is-what-is.txt",
        "hollow-triumph.txt",
        "hydra.txt",
        "i-don-t-want-to-go-back-alone.txt",
        "i-don-t-want-to-go-back-alone.txt",
        "immortally-yours.txt",
        "invasion-of-the-body-snatchers.txt",
        "it-s-a-complex-world.txt",
        "it-s-hard-being-loved-by-jerks.txt",
        "junkie.txt",
        "l-orchestre-rouge.txt",
        "le-paltoquet.txt",
        "lego-star-wars-bombad-bounty.txt",
        "like-a-dream.txt",
        "locked-down.txt",
        "locked-down.txt",
        "love-and-debate.txt",
        "low-tide.txt",
        "make-it-funky.txt",
        "marion-bridge.txt",
        "marion-bridge.txt",
        "masters-of-menace.txt",
        "masters-of-menace.txt",
        "matilda.txt",
        "meatballs.txt",
        "mike-stern-live-the-paris-concert.txt",
        "millennium.txt",
        "ming-ming.txt",
        "mister-drake-s-duck.txt",
        "model-behavior.txt",
        "molly-the-ghost.txt",
        "moon-rider.txt",
        "moonlight-express.txt",
        "my-amityville-horror.txt",
        "never-on-a-sunday.txt",
        "no-hands-on-the-clock.txt",
        "nothing-about-nothing.txt",
        "ogu-y-mampato-en-rapa-nui.txt",
        "one-small-hitch.txt",
        "out-on-a-limb.txt",
        "paper-soldiers.txt",
        "picture-snatcher.txt",
        "playing-for-keeps.txt",
        "pride-part-2.txt",
        "privilege.txt",
        "project-x.txt",
        "purple-storm.txt",
        "rawhide.txt",
        "rawhide.txt",
        "redd-inc.txt",
        "release.txt",
        "riddler-s-moon.txt",
        "robinson-crusoe-on-mars.txt",
        "sudden-danger.txt",
        "sunday.txt",
        "superfire.txt",
        "supreme-champion.txt",
        "sylvia.txt",
        "tales-of-the-black-freighter.txt",
        "terry.txt",
        "the-aggressives.txt",
        "the-black-keys-live-at-the-crystal-ballroom.txt",
        "the-golden-compass.txt",
        "the-hollow.txt",
        "the-imposter.txt",
        "the-incredible-sarah.txt",
        "the-killing-strain.txt",
        "the-killing-strain.txt",
        "the-last-supper.txt",
        "the-legend-of-hercules.txt",
        "the-love-war.txt",
        "the-man-who-collected-food.txt",
        "the-maze.txt",
        "the-most-dangerous-man-in-america-daniel-ellsberg-and-the-pentagon-papers.txt",
        "the-most-dangerous-man-in-america-daniel-ellsberg-and-the-pentagon-papers.txt",
        "the-noah.txt",
        "the-otherside.txt",
        "the-phantom.txt",
        "they-made-me-a-killer.txt",
        "things-to-do.txt",
        "those-redheads-from-seattle.txt",
        "three-kingdoms-resurrection-of-the-dragon.txt",
        "timber-falls.txt",
        "tosh-0-hoodies.txt",
        "toyo-s-camera.txt",
        "tre.txt",
        "true-vengeance.txt",
        "tunnel.txt",
        "tunnel.txt",
        "twisted-desire.txt",
        "under-the-gun.txt",
        "wake-up.txt",
        "wake-up.txt",
        "wake-up.txt",
        "warbus.txt",
        "welcome-to-the-hood.txt",
        "white-sands.txt",
        "white-vengeance.txt",
        "white-vengeance.txt",
        "whole-new-thing.txt",
        "whole-new-thing.txt",
        "wikirebels-the-documentary.txt",
        "wilby-wonderful.txt",
        "wilby-wonderful.txt",
        "wild-geese-ii.txt",
        "young-and-dangerous-reloaded.txt"
    ]
}