{
    "files": [
        "annie-brocoli-dans-l-espace.txt",
        "dans-la-nuit.txt",
        "des-majorettes-dans-l-espace.txt",
        "jeux-d-enfants-dans-une-rue.txt",
        "lafesse-dans-l-camion.txt"
    ]
}