{
    "files": [
        "battle-of-the-chairmanship.txt",
        "girls.txt",
        "halfon-hill-doesn-t-answer.txt",
        "halfon-hill-doesn-t-answer.txt",
        "life-according-to-agfa.txt",
        "life-according-to-agfa.txt"
    ]
}