{
    "files": [
        "all-wrapped-up.txt",
        "call-me-mrs-miracle.txt",
        "cindy-and-donna.txt",
        "confetti.txt",
        "darkon.txt",
        "dead-rotting.txt",
        "debbie-rochon-confidential-my-years-in-tromaville-exposed.txt",
        "debbie-rochon-confidential-my-years-in-tromaville-exposed.txt",
        "eminem-aka.txt",
        "game-over.txt",
        "hayride-slaughter.txt",
        "kill-the-scream-queen.txt",
        "mother.txt",
        "one-for-the-money.txt",
        "play-mate-of-the-apes.txt",
        "santa-claws.txt",
        "sexcula.txt",
        "singin-in-the-rain.txt",
        "skeleton-key.txt",
        "something-to-scream-about.txt",
        "splatter-movie.txt",
        "susan-slept-here.txt",
        "the-affairs-of-dobie-gillis.txt",
        "the-good-sisters.txt",
        "the-pleasure-of-his-company.txt",
        "the-tender-trap.txt",
        "two-weeks-with-love.txt"
    ]
}