{
    "files": [
        "10-terrorists.txt",
        "10-terrorists.txt",
        "bar-pussy.txt",
        "becky-sharp.txt",
        "classic-creatures-return-of-the-jedi.txt",
        "doin-time.txt",
        "falling-for-you.txt",
        "for-single-swingers-only.txt",
        "fuck-my-tits-6.txt",
        "fuck-my-tits-6.txt",
        "gregory-s-girl.txt",
        "hornet-s-nest.txt",
        "i-do.txt",
        "i-walked-with-a-zombie.txt",
        "if-i-were-king.txt",
        "invisible-mom.txt",
        "jack-dee-live-and-uncut.txt",
        "jack-dee-live-and-uncut.txt",
        "jack-dee-live-at-the-apollo.txt",
        "jack-dee-live-at-the-apollo.txt",
        "no-2.txt",
        "steel-sharks.txt",
        "submerge.txt",
        "tammy-tell-me-true.txt",
        "the-jackie-robinson-story.txt",
        "the-sands-of-dee.txt",
        "the-stimulators.txt",
        "the-take.txt",
        "the-trouble-with-dee-dee.txt",
        "the-trouble-with-dee-dee.txt",
        "the-world-s-greatest-athlete.txt",
        "training-rules.txt"
    ]
}