{
    "files": [
        "16-wishes.txt",
        "an-american-tail-the-treasure-of-manhattan-island.txt",
        "before-i-say-goodbye.txt",
        "beyond-sherwood-forest.txt",
        "haunted-honeymoon.txt",
        "the-magic-voyage.txt"
    ]
}