{
    "files": [
        "a-nightmare-on-elm-street.txt",
        "ed-wood.txt",
        "fear-and-loathing-in-las-vegas.txt",
        "for-no-good-reason.txt",
        "nick-of-time.txt",
        "the-imaginarium-of-doctor-parnassus.txt"
    ]
}