{
    "files": [
        "a-hazard-of-hearts.txt",
        "a-kid-for-two-farthings.txt",
        "barbie-a-perfect-christmas.txt",
        "bless-this-house.txt",
        "camel-spiders.txt",
        "chinese-chocolate.txt",
        "diana-krall-live-at-the-montreal-jazz-festival.txt",
        "diana-krall-live-at-the-montreal-jazz-festival.txt",
        "double-platinum.txt",
        "goodbye-solo.txt",
        "grand-slam-opera.txt",
        "mcq.txt",
        "morlang.txt",
        "one-more-river.txt",
        "passport-to-shame.txt",
        "private-tropical-28-african-temptation.txt",
        "sinking-of-the-lusitania.txt",
        "the-changeling.txt",
        "the-jackals.txt",
        "the-kentuckian.txt",
        "the-people-against-o-hara.txt",
        "the-worst-witch.txt",
        "un-chien-qui-rapporte.txt",
        "x-the-man-with-the-x-ray-eyes.txt",
        "yield-to-the-night.txt"
    ]
}