{
    "files": [
        "a-foreign-affair.txt",
        "danish-love-acts.txt",
        "danish-love-acts.txt",
        "miss-representation.txt",
        "no-highway-in-the-sky.txt",
        "sunset-range.txt",
        "the-garden-of-allah.txt",
        "the-song-of-songs.txt"
    ]
}