{
    "files": [
        "down-with-your-hands-you-scum.txt",
        "fear-factory-digital-connectivity.txt",
        "fraulein-doktor.txt",
        "good-king-dagobert.txt",
        "little-witches.txt",
        "love-and-larceny.txt",
        "peggio-per-me-meglio-per-te.txt",
        "savage-guns.txt",
        "shirley-et-dino-le-spectacle-inedit.txt",
        "the-bishop-s-bedroom.txt",
        "the-career-of-a-chambermaid.txt",
        "the-career-of-a-chambermaid.txt",
        "the-secret-of-the-old-woods.txt",
        "the-tiger-and-the-pussycat.txt",
        "un-paradiso-per-due.txt",
        "vedo-nudo.txt",
        "vedo-nudo.txt"
    ]
}