{
    "files": [
        "a-sister-s-kiss.txt",
        "a-sister-s-kiss.txt",
        "exchange-wedding.txt",
        "lyubov-bez-pravil.txt",
        "okhlamon.txt",
        "pervaya-lyubov.txt"
    ]
}