{
    "files": [
        "a-doll-s-dream.txt",
        "blood-dolls.txt",
        "infernal-dolls.txt",
        "new-york-dolls-live-from-the-bowery.txt",
        "parasite-dolls.txt",
        "slave-dolls-3.txt",
        "the-dresden-dolls-paradise.txt"
    ]
}