{
    "files": [
        "black-box.txt",
        "count-the-hours.txt",
        "god-is-the-bigger-elvis.txt",
        "perfumed-nightmare.txt",
        "sail-a-crooked-ship.txt",
        "where-the-boys-are.txt"
    ]
}