{
    "files": [
        "big-girls-don-t-cry-they-get-even.txt",
        "dead-cocks-don-t-fuck.txt",
        "dead-men-don-t-count.txt",
        "doctors-don-t-tell.txt",
        "don-t-believe-in-her.txt",
        "don-t-bet-on-love.txt",
        "don-t-click.txt",
        "don-t-f-my-sister.txt",
        "don-t-forget-you-re-going-to-die.txt",
        "don-t-go-breaking-my-heart.txt",
        "don-t-go-to-sleep.txt",
        "don-t-let-the-angels-fall.txt",
        "don-t-look-up.txt",
        "don-t-lose-heart.txt",
        "don-t-play-us-cheap.txt",
        "don-t-play-with-me-2.txt",
        "don-t-tempt-the-devil.txt",
        "don-t-try-this-at-home-the-steve-o-video-vol-2.txt",
        "don-t-try-this-at-home.txt",
        "don-t-you-forget-about-me.txt",
        "dont-cry-for-me-sudan.txt",
        "frank-zappa-we-don-t-mess-around.txt",
        "i-don-t-give-a-damn.txt",
        "i-don-t-hate-las-vegas-anymore.txt",
        "i-don-t-scare.txt",
        "i-don-t-speak-english.txt",
        "i-don-t-want-to-go-back-alone.txt",
        "manuscripts-don-t-burn.txt",
        "mockingbird-don-t-sing.txt",
        "ozzy-osbourne-don-t-blame-me.txt",
        "the-dead-don-t-dream.txt",
        "the-umbilical-brothers-don-t-explain.txt",
        "these-hammers-don-t-hurt-us.txt",
        "tyler-perry-s-i-don-t-want-to-do-wrong-the-play.txt",
        "what-they-don-t-talk-about-when-they-talk-about-love.txt"
    ]
}