{
    "files": [
        "body-double.txt",
        "double-bliss.txt",
        "double-choc.txt",
        "double-cross.txt",
        "double-dragon.txt",
        "double-exposure.txt",
        "double-game.txt",
        "double-happiness-uranium.txt",
        "double-murder.txt",
        "double-penetration-tryouts-11.txt",
        "double-platinum.txt",
        "double-take.txt",
        "dp-double-pleasure.txt",
        "droopy-s-double-trouble.txt",
        "romance-with-a-double-bass.txt",
        "the-double-hour.txt",
        "the-double-man.txt",
        "the-double.txt",
        "tony-another-double-game.txt"
    ]
}