{
    "files": [
        "aavesham.txt",
        "ankusham.txt",
        "at-folsom-prison-with-dr-timothy-leary.txt",
        "die-unsichtbaren-krallen-des-dr-mabuse.txt",
        "dr-alien.txt",
        "dr-dolittle-million-dollar-mutts.txt",
        "dr-horrible-s-sing-along-blog.txt",
        "dr-jeckyll-s-dungeon-of-death.txt",
        "dr-jekyll-and-mr-hyde.txt",
        "dr-jekyll-sister-hyde.txt",
        "dr-john-the-lower-911-montreux-jazz-festival.txt",
        "dr-kildare-s-crisis.txt",
        "dr-mabuse-vs-scotland-yard.txt",
        "dr-phibes-rises-again.txt",
        "eight-minutes-to-midnight-a-portrait-of-dr-helen-caldicott.txt",
        "hot-spot.txt",
        "how-the-grinch-stole-christmas.txt",
        "i-was-a-teenage-zabbadoing-and-the-incredible-lusty-dust-whip-from-outer-space-conquers-the-earth-versus-the-3-psychedelic-stooges-of-dr-fun-helsing-and-fighting-against-surf-vampires-and-sex-nazis-and-have-troubles-with-this-endless-titillation-title.txt",
        "la-terrible-aventure-du-dr-faust.txt",
        "money-and-medicine.txt",
        "money-and-medicine.txt",
        "money-and-medicine.txt",
        "the-broadcast-tapes-of-dr-peter.txt",
        "the-butter-battle-book.txt",
        "the-horrible-dr-bones.txt",
        "the-island-of-dr-moreau.txt",
        "the-secret-of-dr-kildare.txt",
        "three-brothers.txt",
        "titanoboa-monster-snake.txt",
        "titanoboa-monster-snake.txt",
        "xzibit-restless-xposed.txt",
        "young-dr-kildare.txt"
    ]
}