{
    "files": [
        "blood-of-the-dragon-peril.txt",
        "bruce-lee-in-pursuit-of-the-dragon.txt",
        "call-me-dragon.txt",
        "chinese-dragon.txt",
        "dances-with-the-dragon.txt",
        "dexter-the-dragon-bumble-the-bear.txt",
        "double-dragon.txt",
        "dragon-ball-gt-a-hero-s-legacy.txt",
        "dragon-ball-z-broly-second-coming.txt",
        "dragon-half.txt",
        "dragon-killer.txt",
        "dragon-swamp.txt",
        "dragon-tales-it-s-cool-to-be-me.txt",
        "final-fantasy-legend-of-the-crystals-iii-dragon-chapter.txt",
        "firefist-of-incredible-dragon.txt",
        "how-to-train-your-dragon-2.txt",
        "iron-dragon-strikes-back.txt",
        "jane-and-the-dragon-dragon-rules.txt",
        "jane-and-the-dragon-dragon-rules.txt",
        "kill-the-dragon.txt",
        "kung-fu-fever.txt",
        "lilly-the-witch-the-dragon-and-the-magic-book.txt",
        "night-dragon.txt",
        "silver-dragon-ninja.txt",
        "the-dragon-family.txt",
        "the-dragon-lives-again.txt",
        "the-dragon-painter.txt",
        "the-dragon-vs-needles-of-death.txt",
        "the-ice-dragon.txt",
        "three-kingdoms-resurrection-of-the-dragon.txt",
        "tripod-vs-the-dragon.txt",
        "twin-dragon-encounter.txt"
    ]
}