{
    "files": [
        "and-baby-will-fall.txt",
        "casting-by.txt",
        "honeymoon-hotel.txt",
        "rambling-rose.txt",
        "sittin-on-a-backyard-fence.txt",
        "the-outfit.txt",
        "the-pursuit-of-d-b-cooper.txt",
        "the-terry-fox-story.txt",
        "wildflowers.txt"
    ]
}