{
    "files": [
        "2012-ateneo-blue-eagles-drive-for-five.txt",
        "on-wings-of-eagles.txt",
        "rescued-from-an-eagle-s-nest.txt",
        "sunset-range.txt",
        "the-eagle-s-brood.txt",
        "when-eagles-strike.txt"
    ]
}