{
    "files": [
        "hangman-s-house.txt",
        "nazty-nuisance.txt",
        "playroom.txt",
        "rescued-from-an-eagle-s-nest.txt",
        "sherlock-holmes-and-a-study-in-scarlet.txt",
        "sherlock-holmes-and-the-sign-of-four.txt",
        "the-astrologer.txt",
        "the-life-adventures-of-santa-claus.txt",
        "the-two-gun-man.txt",
        "valley-of-fire.txt"
    ]
}