{
    "files": [
        "1066-the-battle-for-middle-earth.txt",
        "battle-beneath-the-earth.txt",
        "cold-earth.txt",
        "conquest-of-the-earth.txt",
        "earth-the-power-of-the-planet.txt",
        "i-was-a-teenage-zabbadoing-and-the-incredible-lusty-dust-whip-from-outer-space-conquers-the-earth-versus-the-3-psychedelic-stooges-of-dr-fun-helsing-and-fighting-against-surf-vampires-and-sex-nazis-and-have-troubles-with-this-endless-titillation-title.txt",
        "iced-earth-festivals-of-the-wicked.txt",
        "iced-earth-graspop-metal-meeting.txt",
        "inside-planet-earth.txt",
        "journey-3-from-the-earth-to-the-moon.txt",
        "madonna-live-earth-concert-at-london.txt",
        "manfred-mann-s-earth-band-ohne-filter-extra.txt",
        "milton-jones-live-universe-tour-part-one-earth.txt",
        "morning-of-the-earth.txt",
        "not-of-this-earth.txt",
        "one-day-on-earth.txt",
        "planet-earth-the-filmmakers-story.txt",
        "planet-earth.txt",
        "sweet-sweetback-s-baadasssss-song.txt",
        "the-earth-rejects-him.txt",
        "the-greatest-show-on-earth.txt",
        "ufo-target-earth.txt",
        "what-on-earth.txt",
        "when-we-left-earth.txt",
        "yellow-earth.txt"
    ]
}