{
    "files": [
        "a-lonely-place-to-die.txt",
        "angela.txt",
        "battle-beyond-the-stars.txt",
        "billposters.txt",
        "class-dismissed-how-tv-frames-the-working-class.txt",
        "colossus-and-the-amazon-queen.txt",
        "death-wish-3.txt",
        "diaries-1971-1976.txt",
        "diaries-1971-1976.txt",
        "dutch.txt",
        "ed-byrne-crowd-pleaser.txt",
        "ed-byrne-crowd-pleaser.txt",
        "ed-sheeran-itunes-festival-london-2012.txt",
        "ed-sheeran-itunes-festival-london-2012.txt",
        "ed-wood.txt",
        "eye-of-the-eagle.txt",
        "fallguy.txt",
        "future-hunters.txt",
        "hate-crime.txt",
        "haunts-of-the-very-rich.txt",
        "johnny-carson-his-favorite-moments-from-the-tonight-show-70s-80s-the-master-of-laughs.txt",
        "little-giants.txt",
        "live-live-at-the-paradiso-amsterdam.txt",
        "nobody.txt",
        "o-christmas-tree.txt",
        "orfeo-ed-euridice.txt",
        "out-of-the-woods.txt",
        "party-favors.txt",
        "party-favors.txt",
        "press-start.txt",
        "put-put-troubles.txt",
        "running-mates.txt",
        "running-mates.txt",
        "santa-preys-for-x-mas.txt",
        "searchers-2-0.txt",
        "thanatopsis.txt",
        "that-s-what-i-am.txt",
        "the-boy-who-drank-too-much.txt",
        "the-human-stain.txt",
        "the-kill.txt",
        "the-last-exorcism-part-ii.txt",
        "the-last-exorcism-part-ii.txt",
        "the-man-who-crossed-hitler.txt",
        "the-new-guy.txt",
        "the-oil-factor-behind-the-war-on-terror.txt",
        "the-shiftling.txt",
        "the-third-miracle.txt",
        "wec-27-marshall-vs-mcelfresh.txt",
        "what-is-the-electric-car.txt",
        "when-we-left-earth.txt",
        "winnie-the-pooh-a-very-merry-pooh-year.txt",
        "zemanovaload.txt"
    ]
}