{
    "files": [
        "baby-einstein-baby-bach.txt",
        "baby-einstein-baby-da-vinci.txt",
        "baby-einstein-baby-s-first-sounds.txt",
        "baby-einstein-meet-the-orchestra-first-instruments.txt",
        "baby-einstein-santa-s-music-box.txt",
        "baby-einstein-world-of-colors.txt",
        "cables.txt",
        "cables.txt"
    ]
}