{
    "files": [
        "camp.txt",
        "dragon-swamp.txt",
        "header.txt",
        "money-and-medicine.txt",
        "police-story-4-first-strike.txt",
        "record-player-christian-marclay.txt",
        "the-little-engine-that-could.txt",
        "the-squaw-man.txt",
        "the-villains.txt",
        "trilogy-of-swordsmanship.txt",
        "windhorse.txt"
    ]
}