{
    "files": [
        "a-green-journey.txt",
        "a-room-with-a-view.txt",
        "alien-terminator.txt",
        "beauty-knows-no-pain.txt",
        "busting.txt",
        "cabin-boy.txt",
        "cage.txt",
        "canyon-crossroads.txt",
        "daniel-and-the-lions.txt",
        "death-valley-manhunt.txt",
        "def-leppard-pyromania-world-tour.txt",
        "defence-of-the-realm.txt",
        "dreamland.txt",
        "frogs.txt",
        "gone-to-texas.txt",
        "harry-and-walter-go-to-new-york.txt",
        "jungle-cavalcade.txt",
        "knights-of-bloodsteel.txt",
        "little-hercules.txt",
        "magicians.txt",
        "matilda.txt",
        "my-outlaw-brother.txt",
        "noises-off.txt",
        "prancer.txt",
        "professor-beware.txt",
        "quest-for-the-lost-tribes.txt",
        "shrooms.txt",
        "skyscraper.txt",
        "small-soldiers.txt",
        "snow-day.txt",
        "solitary.txt",
        "stealing-heaven.txt",
        "strawberry-fields.txt",
        "sudden-danger.txt",
        "tacoma-narrows-bridge-collapse.txt",
        "the-desperate-trail.txt",
        "the-great-gatsby.txt",
        "the-male-animal.txt",
        "the-other-side-of-paradise.txt",
        "the-private-eyes.txt",
        "the-shadow-riders.txt",
        "the-showdown.txt",
        "the-shrink-is-in.txt",
        "the-spitfire-grill.txt",
        "the-wicked-lady.txt",
        "unborn-sins.txt",
        "underworld.txt",
        "wicked-pirate-city.txt"
    ]
}