{
    "files": [
        "angela-s-ashes.txt",
        "arthur-newman.txt",
        "basement.txt",
        "beyond-the-blackboard.txt",
        "breast-men.txt",
        "bright-young-things.txt",
        "chronic-town.txt",
        "confine.txt",
        "duel-of-masters.txt",
        "harry-brown.txt",
        "legend-of-the-guardians-the-owls-of-ga-hoole.txt",
        "nailbiter.txt",
        "new-york-minute.txt",
        "scrapbook.txt",
        "the-big-picture.txt",
        "the-kid.txt",
        "the-life-and-death-of-peter-sellers.txt",
        "the-memory-keeper-s-daughter.txt",
        "the-spiritual-love.txt",
        "the-toe-tactic.txt",
        "the-toe-tactic.txt",
        "the-winning-season.txt",
        "what-alice-found.txt"
    ]
}