{
    "files": [
        "arizona-whirlwind.txt",
        "arizona-whirlwind.txt",
        "arizona-whirlwind.txt",
        "dream-street.txt",
        "home-of-the-brave.txt",
        "take-me-back-to-oklahoma.txt",
        "the-unguarded-hour.txt"
    ]
}