{
    "files": [
        "300-rise-of-an-empire.txt",
        "amy-winehouse-live-shepherd-s-bush-empire.txt",
        "atlantis-the-lost-empire.txt",
        "empire-of-ash.txt",
        "empire-of-the-dark.txt",
        "empire-of-the-desert-ants.txt",
        "empire-st-pauli-on-strings-of-pearls-and-sending-offs.txt",
        "hoodlum-empire.txt",
        "shot-at-the-empire.txt"
    ]
}