{
    "files": [
        "batman-dead-end.txt",
        "bitter-end-of-a-sweet-night.txt",
        "christopher-titus-the-5th-annual-end-of-the-world-tour.txt",
        "dead-end.txt",
        "decoding-the-past-doomsday-2012-the-end-of-days.txt",
        "end-of-the-line.txt",
        "end-of-the-road-how-money-became-worthless.txt",
        "end-of-the-road.txt",
        "happy-end.txt",
        "house-at-the-end-of-the-street.txt",
        "howards-end.txt",
        "love-without-end.txt",
        "night-s-end.txt",
        "nightmare-at-the-end-of-the-hall.txt",
        "nightwish-end-of-an-era.txt",
        "river-s-end.txt",
        "the-be-all-and-end-all.txt",
        "the-black-eyed-peas-the-e-n-d-world-tour-live.txt",
        "the-end-of-a-priest.txt",
        "the-end-of-the-world-in-four-seasons.txt",
        "the-end.txt",
        "this-is-the-end.txt",
        "wit-s-end.txt",
        "world-without-end.txt"
    ]
}