{
    "files": [
        "caught-on-tape.txt",
        "cedric-the-entertainer-taking-you-higher.txt",
        "cedric-the-entertainer-taking-you-higher.txt",
        "cedric-the-entertainer-taking-you-higher.txt"
    ]
}