{
    "files": [
        "erotic-diary-of-an-office-lady.txt",
        "my-erotic-fantasies.txt",
        "planet-of-the-erotic-ape.txt",
        "the-erotic-witch-project.txt",
        "the-erotic-world-of-seka.txt"
    ]
}