{
    "files": [
        "ecw-extreme-rules-volume-2.txt",
        "louis-theroux-extreme-love-autism.txt",
        "ocean-men-extreme-dive.txt",
        "teasers-extreme-public-adventures-3.txt",
        "xcu-extreme-close-up.txt"
    ]
}