{
    "files": [
        "alien-private-eye.txt",
        "blind-eye.txt",
        "car-wash.txt",
        "devil-eye.txt",
        "eagle-eye.txt",
        "eye-for-an-eye.txt",
        "eye-for-an-eye.txt",
        "eye-of-the-astronomer.txt",
        "eye-of-the-eagle-2-inside-the-enemy.txt",
        "eye-of-the-eagle.txt",
        "jane-doe-eye-of-the-beholder.txt",
        "judas-priest-electric-eye.txt",
        "kestrel-s-eye.txt",
        "mater-private-eye.txt",
        "rapid-eye-movement.txt",
        "the-eye-infinity.txt",
        "the-eye.txt",
        "the-responsive-eye.txt"
    ]
}