{
    "files": [
        "avenge-but-one-of-my-two-eyes.txt",
        "big-brown-eyes.txt",
        "dagger-eyes.txt",
        "death-has-blue-eyes.txt",
        "empty-eyes.txt",
        "eyes-of-the-mothman.txt",
        "eyes-of-the-spider.txt",
        "eyes-of-the-underworld.txt",
        "eyes-wide-shut.txt",
        "idle-eyes.txt",
        "night-eyes-ii.txt",
        "night-eyes.txt",
        "private-eyes.txt",
        "the-eyes-have-it.txt",
        "the-life-before-her-eyes.txt",
        "the-million-eyes-of-sumuru.txt",
        "the-private-eyes.txt",
        "through-deaf-eyes.txt",
        "ufo-in-her-eyes.txt",
        "x-the-man-with-the-x-ray-eyes.txt"
    ]
}