{
    "files": [
        "i-don-t-want-to-go-back-alone.txt",
        "if-you-meet-sartana-pray-for-your-death.txt",
        "johnny-castle-rising-star.txt",
        "la-peggior-settimana-della-mia-vita.txt",
        "la-peggior-settimana-della-mia-vita.txt",
        "nine-guests-for-a-crime.txt",
        "one-out-of-two.txt",
        "passannante.txt",
        "se-fossi-in-te.txt",
        "the-garden-of-the-finzi-continis.txt",
        "the-worst-christmas-of-my-life.txt",
        "un-cane-per-due.txt",
        "vedo-nudo.txt"
    ]
}