{
    "files": [
        "a-woman-under-the-influence.txt",
        "all-the-marbles.txt",
        "high-desert-kill-tv.txt",
        "husbands.txt",
        "the-brink-s-job.txt",
        "the-magic-life.txt",
        "the-sunshine-boys.txt",
        "the-thing-about-my-folks.txt",
        "three-days-to-vegas.txt",
        "undisputed.txt"
    ]
}