{
    "files": [
        "falling-awake.txt",
        "falling-for-you.txt",
        "falling-hare.txt",
        "falling-leaves.txt",
        "falling-sky.txt",
        "falling-up.txt",
        "falling-uphill.txt"
    ]
}