{
    "files": [
        "down-mexico-way.txt",
        "kid-galahad.txt",
        "life-begins-for-andy-hardy.txt",
        "mystery-of-the-wax-museum.txt",
        "out-west-with-the-hardys.txt",
        "the-crooked-circle.txt",
        "the-lost-skeleton-of-cadavra.txt",
        "the-richest-girl-in-the-world.txt",
        "the-war-against-mrs-hadley.txt"
    ]
}