{
    "files": [
        "christmas-in-canaan.txt",
        "daydream-believers-the-monkees-story.txt",
        "i-dream-of-murder.txt",
        "johnny-2-0.txt",
        "my-baby-is-missing.txt"
    ]
}