{
    "files": [
        "arms-and-the-man.txt",
        "black-beauty.txt",
        "drei-herren.txt",
        "entangled.txt",
        "helene-fischer-die-helene-fischer-show-2012.txt",
        "helene-fischer-die-helene-fischer-show-2012.txt",
        "helene-fischer-die-helene-fischer-show-2012.txt",
        "helene-fischer-fuer-einen-tag-live-2012.txt",
        "helene-fischer-fuer-einen-tag-live-2012.txt",
        "hell-night.txt",
        "jahr-des-drachen.txt",
        "the-family-holiday.txt",
        "the-friend.txt",
        "zombie-bloodbath-2-rage-of-the-undead.txt"
    ]
}