{
    "files": [
        "babes-illustrated-5.txt",
        "booty-call.txt",
        "cotton-comes-to-harlem.txt",
        "jamie-foxx-i-might-need-security.txt",
        "jamie-foxx-i-might-need-security.txt",
        "jamie-foxx-i-might-need-security.txt",
        "on-location-redd-foxx.txt",
        "on-location-redd-foxx.txt",
        "on-location-redd-foxx.txt",
        "ray.txt",
        "transsexual-babysitters.txt"
    ]
}