{
    "files": [
        "allen-and-rossi-meet-dracula-and-frankenstein.txt",
        "billy-frankenstein.txt",
        "frankenstein-meets-the-wolf-man.txt",
        "frankenstein.txt",
        "it-s-alive-the-true-story-of-frankenstein.txt",
        "mistress-frankenstein.txt",
        "return-from-death-frankenstein-2000.txt",
        "she-s-alive-creating-the-bride-of-frankenstein.txt",
        "the-ghost-of-frankenstein.txt"
    ]
}