{
    "files": [
        "bread-and-chocolate.txt",
        "bread-and-chocolate.txt",
        "django-strikes-again.txt",
        "django-strikes-again.txt",
        "eames-the-architect-the-painter.txt",
        "eurocrime-the-italian-cop-and-gangster-films-that-ruled-the-70s.txt",
        "flashback.txt",
        "ginger-and-fred.txt",
        "goodbye-in-the-mirror.txt",
        "goodbye-solo.txt",
        "hanna-k.txt",
        "heroes-in-hell.txt",
        "high-infidelity.txt",
        "i-due-toreri.txt",
        "il-sergente-rompiglioni-diventa-caporale.txt",
        "il-tifoso-l-arbitro-e-il-calciatore.txt",
        "keoma.txt",
        "l-imbranato.txt",
        "ladri-si-nasce.txt",
        "le-amiche.txt",
        "lobster-for-breakfast.txt",
        "ma-chi-t-ha-dato-la-patente.txt",
        "mafalda-of-saboy.txt",
        "mimi.txt",
        "miranda.txt",
        "queste-pazze-pazze-donne.txt",
        "senso-45.txt",
        "stasera-mi-butto.txt",
        "the-cricket.txt",
        "the-feast-of-stephen.txt",
        "the-feast-of-stephen.txt",
        "the-last-house-on-the-beach.txt",
        "the-stendhal-syndrome.txt",
        "the-virgin-and-the-gypsy.txt",
        "this-is-the-end.txt",
        "tiger-from-river-kwai.txt",
        "two-public-enemies.txt",
        "veneri-in-collegio.txt",
        "violent-naples.txt",
        "white-slave.txt",
        "wifemistress.txt"
    ]
}