{
    "files": [
        "black-friday.txt",
        "friday-at-dewayne-s.txt",
        "friday-the-13th.txt",
        "friday.txt",
        "monster-high-friday-night-frights.txt",
        "the-stranglers-friday-the-thirteenth-live-at-the-albert-hall.txt"
    ]
}