{
    "files": [
        "auditions-from-beyond.txt",
        "der-teufel-mit-den-drei-goldenen-haaren.txt",
        "swingtime-in-the-movies.txt",
        "the-heathens-of-kummerow.txt",
        "tom-und-hacke.txt",
        "zum-beispiel-fritz-lang.txt",
        "zum-beispiel-fritz-lang.txt"
    ]
}