{
    "files": [
        "idhu-enga-boomi.txt",
        "madurai-sooran.txt",
        "saatchi.txt",
        "swami.txt",
        "theerppu-en-kaiyil.txt",
        "unnaipol-oruvan.txt",
        "veettukku-oru-kannagai.txt",
        "vetri.txt"
    ]
}