{
    "files": [
        "heroes-in-hell.txt",
        "janeane-garofalo-if-you-will.txt",
        "janeane-garofalo-if-you-will.txt",
        "janeane-garofalo-if-you-will.txt",
        "manhood.txt",
        "sweethearts.txt"
    ]
}