{
    "files": [
        "geert-hoste-alleen.txt",
        "geert-hoste-alleen.txt",
        "geert-hoste-beslist.txt",
        "geert-hoste-beslist.txt",
        "geert-hoste-hard.txt",
        "geert-hoste-ja.txt",
        "geert-hoste-ja.txt"
    ]
}