{
    "files": [
        "a-woman-under-the-influence.txt",
        "lonely-are-the-brave.txt",
        "opening-night.txt",
        "silent-cries.txt",
        "the-incredible-mrs-ritchie.txt",
        "the-notebook.txt",
        "zombie-bloodbath-2-rage-of-the-undead.txt"
    ]
}