{
    "files": [
        "01-42-1.txt",
        "41.txt",
        "a-christmas-carol.txt",
        "a-dangerous-profession.txt",
        "a-hill-in-korea.txt",
        "a-life-of-her-own.txt",
        "a-lonely-place-to-die.txt",
        "a-scandal-in-paris.txt",
        "a-star-is-born.txt",
        "a-ticklish-affair.txt",
        "accent-on-love.txt",
        "advance-to-the-rear.txt",
        "adventures-of-kitty-o-day.txt",
        "air-tight.txt",
        "alias-boston-blackie.txt",
        "all-in-a-nutshell.txt",
        "all-my-babies.txt",
        "allez-oop.txt",
        "amy-george.txt",
        "androcles-and-the-lion.txt",
        "annie-oakley.txt",
        "appointment-in-berlin.txt",
        "appointment-with-venus.txt",
        "arms-and-the-man.txt",
        "attack-of-the-puppet-people.txt",
        "attack-of-the-sabretooth.txt",
        "babes-illustrated-5.txt",
        "bachelor-bait.txt",
        "balls-of-fury.txt",
        "barquero.txt",
        "behave-yourself.txt",
        "being-w.txt",
        "bells-of-rosarita.txt",
        "best-worst-movie.txt",
        "between-us.txt",
        "beverly-hills-chihuahua-2.txt",
        "beyond-evil.txt",
        "beyond-the-frontiers-of-hate.txt",
        "blowin-in-the-wind.txt",
        "borderland.txt",
        "borderline-murder.txt",
        "brand-upon-the-brain.txt",
        "burn-em-up-barnes.txt",
        "cannibal-corpse-live-cannibalism.txt",
        "cannibal-corpse-the-making-of-the-wretched-spawn.txt",
        "capital-punishment.txt",
        "captain-eo.txt",
        "casino-lights-99-live-at-the-montreux-jazz-festival.txt",
        "celtic-thunder-voyage.txt",
        "chanel-solitaire.txt",
        "charlie-chan-in-the-secret-service.txt",
        "christian-death-live.txt",
        "christmas-miracle.txt",
        "christmas-on-mars.txt",
        "college.txt",
        "colt-in-the-hand-of-the-devil.txt",
        "come-play-with-me.txt",
        "come-play-with-me.txt",
        "command-decision.txt",
        "condo-painting.txt",
        "creature-of-the-walking-dead.txt",
        "culloden.txt",
        "curious-george.txt",
        "dad-and-dave-on-our-selection.txt",
        "dad-and-dave-on-our-selection.txt",
        "daniel-and-the-lions.txt",
        "dark-victory.txt",
        "dark-victory.txt",
        "daydream-believers-the-monkees-story.txt",
        "death-valley-manhunt.txt",
        "desirable.txt",
        "diamond-horseshoe.txt",
        "document-of-the-dead.txt",
        "dog-watch.txt",
        "dogs.txt",
        "don-t-let-the-angels-fall.txt",
        "donald-applecore.txt",
        "donald-s-happy-birthday.txt",
        "double-cross.txt",
        "double-game.txt",
        "dracula-s-daughter.txt",
        "drive-in-madness.txt",
        "dying-to-go-home.txt",
        "el-gaucho-goofy.txt",
        "electronic-labyrinth-thx-1138-4eb.txt",
        "electronic-labyrinth-thx-1138-4eb.txt",
        "end-of-the-road.txt",
        "fair-game.txt",
        "fallguy.txt",
        "family-rescue.txt",
        "flirting.txt",
        "for-those-in-peril.txt",
        "forbidden-trail.txt",
        "fortunes-of-captain-blood.txt",
        "four-jacks.txt",
        "frankenstein-meets-the-wolf-man.txt",
        "frogs.txt",
        "from-the-shadows.txt",
        "front-page-woman.txt",
        "george-benson-live-at-montreux.txt",
        "george-carlin-carlin-at-carnegie.txt",
        "george-carlin-carlin-at-carnegie.txt",
        "george-carlin-carlin-at-carnegie.txt",
        "george-carlin-inside-the-actors-studio.txt",
        "george-lynch-wicked-riffs.txt",
        "george-lynch-wicked-riffs.txt",
        "george-michael-live-in-london.txt",
        "george-michael-live-in-london.txt",
        "george-stevens-a-filmmaker-s-journey.txt",
        "george-stevens-a-filmmaker-s-journey.txt",
        "george-washington.txt",
        "get-that-girl.txt",
        "girls-about-town.txt",
        "god-s-country-and-the-woman.txt",
        "goofy-and-wilbur.txt",
        "grand-canyon-massacre.txt",
        "grosse-pointe-blank.txt",
        "hard-sensation.txt",
        "heart-of-arizona.txt",
        "hearts-of-darkness-a-filmmaker-s-apocalypse.txt",
        "hell-bent-for-leather.txt",
        "hell-divers.txt",
        "hell-ephone.txt",
        "hell-house.txt",
        "hercules-saves-christmas.txt",
        "high-lonesome.txt",
        "hills-of-old-wyoming.txt",
        "history-of-the-joke.txt",
        "hold-me-while-i-m-naked.txt",
        "holiday.txt",
        "home-of-the-brave.txt",
        "honeymoon-for-three.txt",
        "horror-island.txt",
        "housewife.txt",
        "i-can-get-it-for-you-wholesale.txt",
        "i-didn-t-do-it.txt",
        "i-don-t-hate-las-vegas-anymore.txt",
        "i-love-a-mystery.txt",
        "i-was-a-teenage-zombie.txt",
        "i-was-a-teenage-zombie.txt",
        "in-montauk.txt",
        "in-the-land-of-the-head-hunters.txt",
        "inside-hana-s-suitcase.txt",
        "intrigue.txt",
        "intrigue.txt",
        "ironmaster.txt",
        "jane-doe-the-wrong-face.txt",
        "journeys-with-george.txt",
        "journeys-with-george.txt",
        "kavik-the-wolf-dog.txt",
        "keyhole.txt",
        "killer-me.txt",
        "king-richard-and-the-crusaders.txt",
        "kiss-me-deadly.txt",
        "lady-and-gent.txt",
        "le-scribe-qui-dessine.txt",
        "let-george-do-it.txt",
        "let-george-do-it.txt",
        "let-s-get-skase.txt",
        "let-s-get-skase.txt",
        "lewis-clark-george.txt",
        "life-begins-for-andy-hardy.txt",
        "lola.txt",
        "london-2012-olympic-closing-ceremony-a-symphony-of-british-music.txt",
        "lost-and-found.txt",
        "love-at-first-bite.txt",
        "love-under-fire.txt",
        "make-a-million.txt",
        "man-beast.txt",
        "marianne.txt",
        "max-payne.txt",
        "memorial-valley-massacre.txt",
        "men-of-honor.txt",
        "merry-in-laws.txt",
        "mickey-down-under.txt",
        "milius.txt",
        "mom-and-dad.txt",
        "monster-a-go-go.txt",
        "moon-over-miami.txt",
        "more-american-graffiti.txt",
        "more-dead-than-alive.txt",
        "mourning-becomes-electra.txt",
        "mr-deeds-goes-to-town.txt",
        "muhammad-ali-the-greatest.txt",
        "murder-she-said.txt",
        "my-mother-s-courage.txt",
        "my-mother-s-courage.txt",
        "nature-of-the-beast.txt",
        "navy-blue-and-gold.txt",
        "never-a-dull-moment.txt",
        "newman-s-law.txt",
        "night-after-night.txt",
        "night-of-the-fox.txt",
        "nightmare-at-the-end-of-the-hall.txt",
        "no-exit.txt",
        "occupation-fighter.txt",
        "oklahoma-crude.txt",
        "our-vines-have-tender-grapes.txt",
        "out-west-with-the-hardys.txt",
        "outbound.txt",
        "p-j.txt",
        "paid-to-love.txt",
        "pale-blood.txt",
        "papa-s-delicate-condition.txt",
        "party-favors.txt",
        "pawnee.txt",
        "pawnee.txt",
        "pax-americana-and-the-weaponization-of-space.txt",
        "pinball-summer.txt",
        "plane-dumb.txt",
        "play-mate-of-the-apes.txt",
        "poker-alice.txt",
        "postal-inspector.txt",
        "prisoners-of-the-sun.txt",
        "private-duty-nurses.txt",
        "private-duty-nurses.txt",
        "private-duty-nurses.txt",
        "psychic.txt",
        "psychopath.txt",
        "racket-busters.txt",
        "rage-in-heaven.txt",
        "ratchet.txt",
        "red-garters.txt",
        "redemption-road.txt",
        "reverse-of-the-curse-of-the-bambino.txt",
        "riding-giants.txt",
        "ring-of-terror.txt",
        "ruby.txt",
        "sabu-and-the-magic-ring.txt",
        "santa-baby.txt",
        "saved-by-the-juvenile-court.txt",
        "secrets-of-a-secretary.txt",
        "secrets-of-scotland-yard.txt",
        "septem8er-tapes.txt",
        "seven-green-bottles.txt",
        "shadow-conspiracy.txt",
        "shakespeare-was-a-big-george-jones-fan-cowboy-jack-clement-s-home-movies.txt",
        "sheriff-of-tombstone.txt",
        "show-business.txt",
        "showdown.txt",
        "silent-partner.txt",
        "slap-shot.txt",
        "so-you-want-to-wear-the-pants.txt",
        "so-you-want-to-wear-the-pants.txt",
        "something-is-out-there.txt",
        "south-of-santa-fe.txt",
        "south-of-the-border.txt",
        "spare-the-rod.txt",
        "stage-struck.txt",
        "stage-struck.txt",
        "star-wars-the-clone-wars-darth-maul-returns.txt",
        "star-wars-the-legacy-revealed.txt",
        "starry-is-the-night.txt",
        "state-s-attorney.txt",
        "station-jim.txt",
        "storm-seekers.txt",
        "submarine-base.txt",
        "subway-in-the-sky.txt",
        "sugar-spice.txt",
        "sunset-on-the-desert.txt",
        "sunset-serenade.txt",
        "superman-vs-the-elite.txt",
        "superman.txt",
        "swimming-with-sharks.txt",
        "swimming-with-sharks.txt",
        "taboo.txt",
        "tap-roots.txt",
        "ten-days-to-tulara.txt",
        "tenth-avenue-angel.txt",
        "the-american-matrix-age-of-deception.txt",
        "the-ballad-of-josie.txt",
        "the-batmobile.txt",
        "the-beatles-watching-rainbows.txt",
        "the-beginning-making-episode-i.txt",
        "the-belles-of-st-trinian-s.txt",
        "the-big-house.txt",
        "the-big-idea.txt",
        "the-blue-dahlia.txt",
        "the-boob.txt",
        "the-boston-strangler.txt",
        "the-changeling.txt",
        "the-christmas-clause.txt",
        "the-combination.txt",
        "the-commissioner.txt",
        "the-commissioner.txt",
        "the-cry-of-jazz.txt",
        "the-dark-half.txt",
        "the-dark-half.txt",
        "the-dead-don-t-dream.txt",
        "the-devil-s-disciple.txt",
        "the-devil-with-hitler.txt",
        "the-doctor-s-dilemma.txt",
        "the-doolins-of-oklahoma.txt",
        "the-emperor-s-candlesticks.txt",
        "the-fighting-69th.txt",
        "the-first-round-up.txt",
        "the-flim-flam-man.txt",
        "the-flying-man.txt",
        "the-ghost-breakers.txt",
        "the-ghost-of-frankenstein.txt",
        "the-good-guys-and-the-bad-guys.txt",
        "the-groundstar-conspiracy.txt",
        "the-happy-cricket.txt",
        "the-hardys-ride-high.txt",
        "the-hot-rock.txt",
        "the-jigsaw-man.txt",
        "the-juror.txt",
        "the-kansan.txt",
        "the-lady-refuses.txt",
        "the-light-touch.txt",
        "the-love-war.txt",
        "the-man-of-destiny.txt",
        "the-million-eyes-of-sumuru.txt",
        "the-murder-of-mary-phagan.txt",
        "the-night-stalker.txt",
        "the-painted-veil.txt",
        "the-penal-code.txt",
        "the-people-vs-george-lucas.txt",
        "the-pleasure-of-his-company.txt",
        "the-power-and-the-glory.txt",
        "the-quiller-memorandum.txt",
        "the-raid.txt",
        "the-relay.txt",
        "the-right-to-live.txt",
        "the-scarlet-clue.txt",
        "the-sentinel.txt",
        "the-sign-writer.txt",
        "the-skydivers.txt",
        "the-sting.txt",
        "the-strange-possession-of-mrs-oliver.txt",
        "the-terminal-man.txt",
        "the-usurer.txt",
        "the-waning-sex.txt",
        "the-war-against-mrs-hadley.txt",
        "the-whole-truth.txt",
        "the-woodmans.txt",
        "the-x-ray-fiend.txt",
        "the-x-ray-fiend.txt",
        "the-x-ray-fiend.txt",
        "the-zombie-king.txt",
        "this-is-the-army.txt",
        "this-is-the-army.txt",
        "thomasine-bushrod.txt",
        "three-days-to-vegas.txt",
        "three-kings.txt",
        "thunder-over-arizona.txt",
        "tiger-from-river-kwai.txt",
        "tight-jeans.txt",
        "tightrope-tricks.txt",
        "tom-thumb.txt",
        "tom-thumb.txt",
        "toots-and-the-maytals-reggae-got-soul.txt",
        "top-fighter.txt",
        "top-secret.txt",
        "toyo-s-camera.txt",
        "trunk-to-cairo.txt",
        "tulips-shall-grow.txt",
        "under-the-gun.txt",
        "underworld.txt",
        "voice-in-the-mirror.txt",
        "waiting-for-superman.txt",
        "walk-a-crooked-mile.txt",
        "wall-street-cowboy.txt",
        "we-re-not-dressing.txt",
        "weed.txt",
        "what-price-hollywood.txt",
        "where-have-all-the-people-gone.txt",
        "where-the-boys-are.txt",
        "where-the-boys-are.txt",
        "white-wings.txt",
        "with-a-kodak.txt",
        "within-a-minute-the-making-of-episode-iii.txt",
        "wolf-blood.txt",
        "wolf-blood.txt",
        "x-marks-the-spot.txt",
        "xtinction-predator-x.txt",
        "yellow-submarine.txt",
        "young-buffalo-bill.txt",
        "young-heart.txt",
        "your-money-or-your-life.txt",
        "zachariah.txt",
        "zorro-s-black-whip.txt"
    ]
}