{
    "files": [
        "ricky-gervais-live-4-science.txt",
        "ricky-gervais-live-4-science.txt",
        "ricky-gervais-live-4-science.txt",
        "ricky-gervais-live-4-science.txt",
        "the-invention-of-lying.txt",
        "the-invention-of-lying.txt",
        "the-invention-of-lying.txt",
        "the-invention-of-lying.txt"
    ]
}