{
    "files": [
        "frances-ha.txt",
        "frances-ha.txt",
        "hannah-takes-the-stairs.txt",
        "hannah-takes-the-stairs.txt",
        "nights-and-weekends.txt",
        "nights-and-weekends.txt"
    ]
}