{
    "files": [
        "getting-away-with-murder.txt",
        "getting-even.txt",
        "getting-into-heaven.txt",
        "moody-mccarthy-i-think-i-m-getting-dumber.txt",
        "the-sleepeasy-solution-the-complete-guide-to-getting-your-baby-or-toddler-to-sleep.txt"
    ]
}