{
    "files": [
        "evil-senses.txt",
        "five-for-hell.txt",
        "five-for-hell.txt",
        "if-you-meet-sartana-pray-for-your-death.txt",
        "the-last-hunter.txt",
        "white-slave.txt",
        "zombie-holocaust.txt"
    ]
}