{
    "files": [
        "a-gun-for-one-hundred-graves.txt",
        "air-mail.txt",
        "always-in-my-heart.txt",
        "best-defense.txt",
        "black-belt-jones.txt",
        "crush.txt",
        "cured-duck.txt",
        "donald-s-dilemma.txt",
        "dracula-s-daughter.txt",
        "evocateur-the-morton-downey-jr-movie.txt",
        "gift-of-gab.txt",
        "gloria-estefan-live-in-atlantis.txt",
        "gloria-estefan-live-in-atlantis.txt",
        "gold-diggers-of-1935.txt",
        "heart-of-the-north.txt",
        "le-coq-du-village.txt",
        "man-and-boy.txt",
        "more-american-graffiti.txt",
        "polly-tix-in-washington.txt",
        "racket-busters.txt",
        "shifting-sands.txt",
        "sudden-fear.txt",
        "taboo-american-style-2-the-story-continues.txt",
        "the-blue-jean-monster.txt",
        "the-kettles-on-old-macdonald-s-farm.txt",
        "the-old-dark-house.txt",
        "the-perfect-crime.txt",
        "the-poor-little-rich-girl.txt",
        "the-siege-of-firebase-gloria.txt",
        "the-story-of-menstruation.txt",
        "the-whistler.txt",
        "train.txt"
    ]
}