{
    "files": [
        "bicycle-dreams.txt",
        "bopha.txt",
        "deadly-drifter.txt",
        "deep-purple-in-concert-with-the-london-symphony-orchestra.txt",
        "down-for-life.txt",
        "from-above.txt",
        "mysteria.txt",
        "steve-o-demise-and-rise.txt",
        "the-beaver-trilogy.txt",
        "the-color-purple.txt"
    ]
}