{
    "files": [
        "all-mine-to-give.txt",
        "appointment-with-venus.txt",
        "no-highway-in-the-sky.txt",
        "papa-s-delicate-condition.txt",
        "personal-affair.txt",
        "the-cabinet-of-caligari.txt",
        "the-card.txt",
        "the-court-jester.txt",
        "zelly-and-me.txt"
    ]
}