{
    "files": [
        "anastasia.txt",
        "big-trouble-in-little-china.txt",
        "emma-goldman-an-exceedingly-dangerous-woman.txt",
        "happy-birthday.txt",
        "misery.txt",
        "nicholas-and-alexandra.txt",
        "the-chamber.txt",
        "the-emperor-s-candlesticks.txt",
        "the-ghost-and-the-darkness.txt",
        "the-night-we-called-it-a-day.txt"
    ]
}