{
    "files": [
        "massive-attack-eleven-promos.txt",
        "the-thorn-in-the-heart.txt",
        "the-thorn-in-the-heart.txt",
        "the-thorn-in-the-heart.txt",
        "the-thorn-in-the-heart.txt"
    ]
}