{
    "files": [
        "arachnophobia.txt",
        "coyote-ugly.txt",
        "dave-attell-s-insomniac-tour-uncensored.txt",
        "fats-domino-walkin-back-to-new-orleans.txt",
        "frosty-returns.txt",
        "gigantic.txt",
        "goodman-town.txt",
        "marilyn-hotchkiss-ballroom-dancing-charm-school.txt",
        "monsters-university.txt",
        "rudolph-the-red-nosed-reindeer-the-movie.txt",
        "sea-of-love.txt",
        "the-jungle-book-2.txt",
        "the-last-lullaby.txt",
        "the-path-of-evil.txt",
        "the-path-of-evil.txt",
        "the-spine.txt",
        "the-sweatbox.txt",
        "to-love-and-die.txt",
        "to-love-and-die.txt",
        "what-planet-are-you-from.txt"
    ]
}