{
    "files": [
        "angels-in-disguise.txt",
        "blues-busters.txt",
        "bowery-buckaroos.txt",
        "flying-wild.txt",
        "high-society.txt",
        "high-society.txt",
        "jungle-gents.txt",
        "jungle-gents.txt",
        "no-holds-barred.txt",
        "private-eyes.txt",
        "private-eyes.txt"
    ]
}