{
    "files": [
        "an-officer-and-a-gentleman.txt",
        "daddy-s-little-girls.txt",
        "it-s-good-to-be-alive.txt",
        "roots-the-gift.txt",
        "skin-game.txt",
        "the-choirboys.txt",
        "the-inspectors-2-a-shred-of-evidence.txt"
    ]
}