{
    "files": [
        "eight-below.txt",
        "mee-shee-the-water-giant.txt",
        "meek-s-cutoff.txt",
        "mixed-blessings.txt",
        "palmy-days.txt",
        "radiohead-the-king-of-limbs-from-the-basement.txt",
        "radiohead-the-king-of-limbs-from-the-basement.txt",
        "radiohead-tkol-live-from-the-basement.txt",
        "the-challenger.txt",
        "the-gentle-sex.txt",
        "the-little-kidnappers.txt"
    ]
}