{
    "files": [
        "diamonds-for-the-dictatorship-of-the-proletariat.txt",
        "jolly-fellows.txt",
        "kill-the-dragon.txt",
        "que-viva-mexico.txt",
        "que-viva-mexico.txt",
        "the-republic-of-shkid.txt",
        "the-republic-of-shkid.txt",
        "volga-volga.txt",
        "volga-volga.txt",
        "yulenka.txt"
    ]
}