{
    "files": [
        "buonanotte-avvocato.txt",
        "la-cameriera-seduce-i-villeggianti.txt",
        "ladri-si-nasce.txt",
        "mery-per-sempre.txt",
        "stasera-mi-butto.txt",
        "the-black-cobra.txt"
    ]
}