{
    "files": [
        "after-the-wizard.txt",
        "after-the-wizard.txt",
        "doa-dead-or-alive.txt",
        "gross-anatomy.txt",
        "mrs-harris.txt",
        "passchendaele.txt",
        "passchendaele.txt",
        "sis-hopkins.txt",
        "sweet-sweetback-s-baadasssss-song.txt",
        "wilby-wonderful.txt"
    ]
}