{
    "files": [
        "a-moth-in-spring.txt",
        "a-moth-in-spring.txt",
        "guns-and-roses.txt",
        "mao-s-last-dancer.txt",
        "ufo-in-her-eyes.txt",
        "ufo-in-her-eyes.txt"
    ]
}