{
    "files": [
        "black-beauty.txt",
        "drag.txt",
        "hell-s-five-hours.txt",
        "lilly-the-witch-the-dragon-and-the-magic-book.txt",
        "the-woman-from-monte-carlo.txt"
    ]
}