{
    "files": [
        "13-frightened-girls.txt",
        "a-flyer-in-flapjacks.txt",
        "a-flyer-in-flapjacks.txt",
        "atomic-kitten-live-at-wembley.txt",
        "bottled-up.txt",
        "britney-spears-live-from-miami.txt",
        "carol-burnett-show-stoppers.txt",
        "eleven-men-against-eleven.txt",
        "excision.txt",
        "freak-talk-about-sex.txt",
        "gay-gaucho.txt",
        "gone.txt",
        "great-guns.txt",
        "ham-and-the-masked-marvel.txt",
        "hamilton.txt",
        "helen-keller-in-her-story.txt",
        "holiday-for-sinners.txt",
        "home-by-christmas.txt",
        "live-and-let-die.txt",
        "love-at-first-bite.txt",
        "mickey-s-elephant.txt",
        "night-catches-us.txt",
        "night-catches-us.txt",
        "poker-alice.txt",
        "ride-like-a-pro-v.txt",
        "riding-giants.txt",
        "shadow-conspiracy.txt",
        "somebody-s-fault.txt",
        "tall-timber.txt",
        "tarzan-the-ape-man.txt",
        "terminator-2-judgment-day.txt",
        "the-keeper-of-the-bees.txt",
        "the-set-up.txt",
        "the-silencers.txt",
        "the-strange-possession-of-mrs-oliver.txt",
        "the-wall-street-mystery.txt",
        "what-price-hollywood.txt",
        "where-the-boys-are.txt"
    ]
}