{
    "files": [
        "all-in-a-nutshell.txt",
        "bearly-asleep.txt",
        "bootle-beetle.txt",
        "clown-of-the-jungle.txt",
        "corrupt.txt",
        "crazy-people.txt",
        "donald-applecore.txt",
        "donald-s-happy-birthday.txt",
        "dude-duck.txt",
        "exit.txt",
        "fire-chief.txt",
        "first-descent.txt",
        "hannah-takes-the-stairs.txt",
        "reckless.txt",
        "resurrection-man.txt",
        "shark-swarm.txt",
        "sinking-of-the-lusitania.txt",
        "spare-the-rod.txt",
        "splash.txt",
        "storm-seekers.txt",
        "straight-shooters.txt",
        "the-army-mascot.txt",
        "the-cooler.txt",
        "the-real-blonde.txt",
        "wildflowers.txt",
        "wizards-on-deck-with-hannah-montana.txt",
        "working-for-peanuts.txt"
    ]
}