{
    "files": [
        "black-mask-2-city-of-masks.txt",
        "black-mask-2-city-of-masks.txt",
        "love-in-the-time-of-twilight.txt",
        "once-upon-a-time-in-china-v.txt",
        "once-upon-a-time-in-china-v.txt",
        "peking-opera-blues.txt",
        "the-banquet.txt",
        "the-killer.txt",
        "the-legend-of-the-swordsman.txt",
        "working-class.txt",
        "working-class.txt"
    ]
}