{
    "files": [
        "a-dream-within-a-dream-the-making-of-picnic-at-hanging-rock.txt",
        "nyc-3-94.txt",
        "nyc-3-94.txt",
        "nyc-3-94.txt",
        "ride-the-high-country.txt",
        "the-return-of-count-yorga.txt",
        "trust.txt",
        "trust.txt",
        "x-he-s-always-watching.txt"
    ]
}