{
    "files": [
        "by-the-sun-s-rays.txt",
        "dawg.txt",
        "engaged-to-kill.txt",
        "engaged-to-kill.txt",
        "sammy-s-adventures-2.txt",
        "titanoboa-monster-snake.txt"
    ]
}