{
    "files": [
        "a-haunting-in-salem.txt",
        "haunting-desires.txt",
        "haunting-fear.txt",
        "the-haunting-of-hell-house.txt",
        "the-haunting-of-sorority-row.txt"
    ]
}