{
    "files": [
        "four-s-a-crowd.txt",
        "hold-back-the-dawn.txt",
        "not-as-a-stranger.txt",
        "princess-o-rourke.txt",
        "the-charge-of-the-light-brigade.txt",
        "the-male-animal.txt",
        "the-proud-rebel.txt",
        "the-strawberry-blonde.txt"
    ]
}