{
    "files": [
        "bad-girls.txt",
        "he-fengming.txt",
        "he-fengming.txt",
        "he-sees-you-when-you-re-sleeping.txt",
        "mr-tree.txt",
        "the-triple-echo.txt",
        "the-wives-he-forgot.txt",
        "wheat.txt"
    ]
}