{
    "files": [
        "formosa-betrayed.txt",
        "one-eight-seven.txt",
        "remember-the-daze.txt",
        "roy-chubby-brown-obscene-and-not-heard.txt",
        "the-river-why.txt"
    ]
}