{
    "files": [
        "crossed.txt",
        "interview-with-a-serial-killer.txt",
        "mee-shee-the-water-giant.txt",
        "meek-s-cutoff.txt",
        "merely-a-married-man.txt",
        "molly-the-ghost.txt",
        "out-in-the-silence.txt",
        "spies-and-lies.txt",
        "tactical.txt",
        "the-baron.txt",
        "the-brady-girls-get-married.txt",
        "the-house-with-closed-shutters.txt",
        "the-plumber.txt",
        "the-usurer.txt",
        "through-darkened-vales.txt",
        "ufc-93-franklin-vs-henderson.txt",
        "ufc-93-franklin-vs-henderson.txt",
        "underground-railroad-the-william-still-story.txt",
        "wec-40-torres-vs-mizugaki.txt",
        "wec-43-cerrone-vs-henderson.txt",
        "wec-43-cerrone-vs-henderson.txt",
        "wec-46-varner-vs-henderson.txt",
        "wec-46-varner-vs-henderson.txt"
    ]
}