{
    "files": [
        "desperate-crossing-the-untold-story-of-the-mayflower.txt",
        "music-for-the-movies-bernard-herrmann.txt",
        "spare-parts.txt",
        "the-kentuckian.txt"
    ]
}