{
    "files": [
        "delgo.txt",
        "i-want-candy.txt",
        "if-only.txt",
        "if-only.txt",
        "kentucky-rifle.txt",
        "princess-of-thieves.txt",
        "the-audrey-hepburn-story.txt",
        "the-verne-miller-story.txt",
        "ultraviolet.txt"
    ]
}