{
    "files": [
        "battle-angel-alita.txt",
        "blazing-bondage-lady.txt",
        "cheers-from-heaven.txt",
        "demon-fighter-kocho.txt",
        "fist-of-the-north-star-the-legend-of-kenshiro.txt",
        "hell-s-angels-crimson-roar.txt",
        "henshin.txt",
        "in-the-line-of-duty-3.txt",
        "ladius.txt",
        "otona-joshi-no-anime-time-kawamo-o-suberu-kaze.txt",
        "petal-dance.txt",
        "petal-dance.txt",
        "slayers-gorgeous.txt",
        "slayers-gorgeous.txt",
        "star-watching-dog.txt",
        "terrifying-girls-high-school-women-s-violent-classroom.txt",
        "the-life-of-matsu-the-untamed.txt",
        "toyo-s-camera.txt",
        "trick-the-movie-psychic-battle-royale.txt"
    ]
}