{
    "files": [
        "4192-the-crowning-of-the-hit-king.txt",
        "hit-the-ice.txt",
        "hit-the-saddle.txt",
        "skazi-hit-and-run-world-tour.txt",
        "the-virginity-hit.txt"
    ]
}