{
    "files": [
        "a-trip-thru-a-hollywood-studio.txt",
        "babysitter-diaries-5.txt",
        "billy-s-hollywood-screen-kiss.txt",
        "breakfast-in-hollywood.txt",
        "buffy-the-vampire-slayer-xxx-a-parody.txt",
        "flying-saucers-over-hollywood-the-plan-9-companion.txt",
        "from-hollywood-to-tamanrasset.txt",
        "from-ufa-to-hollywood-douglas-sirk-remembers.txt",
        "hollywood-boulevard-ii.txt",
        "hollywood-cops.txt",
        "hollywood-high-part-ii.txt",
        "hollywood-hot-tubs-2-educating-crystal.txt",
        "hollywood-on-parade-no-a-12.txt",
        "hollywood-on-parade-no-a-2.txt",
        "hollywood-the-unusual.txt",
        "hollywood-vice-squad.txt",
        "hollywood-wives-the-new-generation.txt",
        "kenneth-anger-s-hollywood-babylon.txt",
        "pornography-in-hollywood.txt",
        "quiet-riot-starwood-club-hollywood-ca-10-26-1979.txt",
        "van-morrison-astral-weeks-live-at-the-hollywood-bowl-the-concert-film.txt",
        "what-price-hollywood.txt"
    ]
}