{
    "files": [
        "anna.txt",
        "eden.txt",
        "gingerdead-man-3-saturday-night-cleaver.txt",
        "mexicali-shmoes.txt",
        "signore-scandalose-di-provincia.txt",
        "star-wars-revelations.txt",
        "sugar.txt",
        "the-offspring-rock-in-rio-2012.txt",
        "the-other-brother.txt",
        "the-other-brother.txt",
        "the-stranger-within.txt",
        "the-third-miracle.txt"
    ]
}