{
    "files": [
        "for-the-next-7-generations.txt",
        "holy-weapon.txt",
        "the-holy-modal-rounders-bound-to-lose.txt",
        "the-holy-modal-rounders-bound-to-lose.txt",
        "the-holy-office.txt",
        "the-holy-roller.txt"
    ]
}