{
    "files": [
        "a-long-way-home.txt",
        "a-place-to-call-home.txt",
        "all-the-way-home.txt",
        "avia-guide-to-home-theater.txt",
        "close-to-home.txt",
        "do-you-keep-a-lion-at-home.txt",
        "don-t-try-this-at-home-the-steve-o-video-vol-2.txt",
        "don-t-try-this-at-home.txt",
        "dying-to-go-home.txt",
        "echoes-of-home.txt",
        "headin-home.txt",
        "home-by-christmas.txt",
        "home-makeover.txt",
        "home-movie.txt",
        "home-of-the-brave.txt",
        "home-road-movies.txt",
        "home-to-danger.txt",
        "home.txt",
        "johnny-carson-his-favorite-moments-from-the-tonight-show-johnny-goes-home.txt",
        "kansas-there-s-know-place-like-home.txt",
        "maicching-machiko-teacher-go-go-visit-a-pupil-s-home.txt",
        "martians-go-home.txt",
        "molly-an-american-girl-on-the-home-front.txt",
        "motor-home-massacre.txt",
        "my-way-home.txt",
        "news-from-home.txt",
        "no-place-like-home.txt",
        "roger-hodgson-take-the-long-way-home-live-in-montreal.txt",
        "seeing-nellie-home.txt",
        "shakespeare-was-a-big-george-jones-fan-cowboy-jack-clement-s-home-movies.txt",
        "simply-red-home-live-in-sicily.txt",
        "sweet-home-alabama.txt",
        "the-home-made-car.txt",
        "the-home-teachers.txt",
        "the-moon-s-our-home.txt",
        "the-sandlot-heading-home.txt",
        "the-war-at-home.txt",
        "welcome-home.txt",
        "why-girls-walk-home.txt"
    ]
}