{
    "files": [
        "a-tragedy-at-midnight.txt",
        "bachelor-bait.txt",
        "bend-of-the-river.txt",
        "bosko-s-picture-show.txt",
        "darling-lili.txt",
        "desert-blue.txt",
        "festival-express.txt",
        "fool-s-gold.txt",
        "george-stevens-a-filmmaker-s-journey.txt",
        "hard-wood.txt",
        "ice-station-zebra.txt",
        "love-hate.txt",
        "love-thy-neighbor.txt",
        "pillow-talk.txt",
        "poppy.txt",
        "prime-risk.txt",
        "raising-helen.txt",
        "revolution.txt",
        "showdown.txt",
        "that-i-may-live.txt",
        "the-force.txt",
        "the-four-feathers.txt",
        "the-golden-blade.txt",
        "the-last-sunset.txt"
    ]
}