{
    "files": [
        "encounters-of-the-spooky-kind.txt",
        "encounters-of-the-spooky-kind.txt",
        "encounters-of-the-spooky-kind.txt",
        "goo-waak-chai-ching-yee-pin-ji-hung-hing-sap-saam-mooi.txt",
        "island-of-fire.txt",
        "lady-whirlwind.txt",
        "long-arm-of-the-law.txt",
        "moon-warriors.txt",
        "my-flying-wife.txt",
        "my-name-called-bruce.txt",
        "one-armed-against-nine-killers.txt",
        "return-of-bruce.txt",
        "return-of-bruce.txt",
        "she-mao-ho-hun-hsing.txt",
        "three-kingdoms-resurrection-of-the-dragon.txt",
        "vampire-settle-on-police-camp.txt",
        "warbus.txt",
        "woman-on-fire-looks-for-water.txt"
    ]
}