{
    "files": [
        "an-englishman-in-new-york.txt",
        "brighton-rock.txt",
        "east-of-elephant-rock.txt",
        "from-the-hip.txt",
        "hell-is-full.txt",
        "house-hunting.txt",
        "house-hunting.txt",
        "late-bloomers.txt",
        "shaolin-wheel-of-life.txt",
        "the-challenger.txt",
        "the-commissioner.txt",
        "the-doctor.txt",
        "the-field.txt",
        "the-legend-of-sasquatch.txt",
        "the-osterman-weekend.txt",
        "the-plague-dogs.txt",
        "the-river-why.txt",
        "these-hammers-don-t-hurt-us.txt",
        "wild-bill.txt"
    ]
}