{
    "files": [
        "30-days-until-i-m-famous.txt",
        "all-about-my-wife.txt",
        "before-i-m-21-vol-2.txt",
        "hallelujah-i-m-a-bum.txt",
        "happiness.txt",
        "hold-me-while-i-m-naked.txt",
        "i-m-a-big-shot-now.txt",
        "i-m-caravaggio.txt",
        "i-m-going-to-change-my-name.txt",
        "i-m-no-angel.txt",
        "i-m-staying.txt",
        "i-m-still-here.txt",
        "im-goggomobil-um-die-welt.txt",
        "kategorie-c-live-im-ruhrpott.txt",
        "kevin-hart-i-m-a-grown-little-man.txt",
        "limp-bizkit-rock-im-park-2001.txt",
        "miracle-in-cell-no-7.txt",
        "miracle-on-1st-street.txt",
        "moody-mccarthy-i-think-i-m-getting-dumber.txt",
        "see-what-i-m-saying-the-deaf-entertainers-documentary.txt",
        "sex-is-zero.txt",
        "steal-it-if-you-can.txt",
        "the-housemaid.txt",
        "the-housemaid.txt",
        "the-servant.txt",
        "unkraut-im-paradies.txt",
        "vietnam-ein-land-im-aufbruch.txt",
        "without-you-i-m-nothing.txt"
    ]
}