{
    "files": [
        "cold-night-into-dawn.txt",
        "descend-into-darkness.txt",
        "first-man-into-space.txt",
        "getting-into-heaven.txt",
        "into-temptation.txt",
        "into-the-mind.txt",
        "into-the-mirror.txt",
        "into-the-storm.txt",
        "journey-into-medicine.txt",
        "paddle-pop-adventures-2-journey-into-the-kingdom.txt",
        "step-into-the-third-dimension.txt",
        "surplus-terrorized-into-being-consumers.txt"
    ]
}