{
    "files": [
        "1001-arabian-nights.txt",
        "4d-man.txt",
        "a-deeper-shade-of-blue.txt",
        "a-deeper-shade-of-blue.txt",
        "a-dog-of-flanders.txt",
        "a-dog-of-flanders.txt",
        "a-dog-s-love.txt",
        "a-face-to-die-for.txt",
        "a-few-good-men.txt",
        "a-star-is-born.txt",
        "airport-77.txt",
        "all-in-a-nutshell.txt",
        "anne-of-windy-poplars.txt",
        "apache-blood.txt",
        "arrowhead.txt",
        "as-long-as-they-re-happy.txt",
        "bad-girls.txt",
        "barnacle-bill.txt",
        "batman.txt",
        "bearly-asleep.txt",
        "behind-the-mask.txt",
        "bells-of-rosarita.txt",
        "bernie.txt",
        "billy-the-kid-returns.txt",
        "biohazard-patient-zero.txt",
        "blood-dolls.txt",
        "bone-trouble.txt",
        "bootle-beetle.txt",
        "bride-of-the-incredible-hulk.txt",
        "buddy-s-circus.txt",
        "buddy-s-circus.txt",
        "by-dawn-s-early-light.txt",
        "call-of-the-wild.txt",
        "cannibal-corpse-live-cannibalism.txt",
        "casey-at-the-bat.txt",
        "champagne.txt",
        "clearing-the-range.txt",
        "clearing-the-range.txt",
        "cleopatra-jones.txt",
        "clown-of-the-jungle.txt",
        "cover-girl-killer.txt",
        "cracked-ice.txt",
        "cream-classic-albums-disraeli-gears.txt",
        "cream-royal-albert-hall-london.txt",
        "cured-duck.txt",
        "curse-of-the-zodiac.txt",
        "dancing-trees.txt",
        "daughter-of-the-nile.txt",
        "deadly-messages.txt",
        "der-fuehrer-s-face.txt",
        "discover-the-gift.txt",
        "donald-applecore.txt",
        "donald-s-diary.txt",
        "donald-s-dilemma.txt",
        "donald-s-dream-voice.txt",
        "donald-s-happy-birthday.txt",
        "donald-s-snow-fight.txt",
        "down-with-your-hands-you-scum.txt",
        "dreams-that-money-can-buy.txt",
        "duck-pimples.txt",
        "dude-duck.txt",
        "echo.txt",
        "el-gaucho-goofy.txt",
        "enter-nowhere.txt",
        "eroica.txt",
        "fall-out-fall-in.txt",
        "falling-uphill.txt",
        "family-album.txt",
        "fathers-are-people.txt",
        "fbi-code-98.txt",
        "final-chapter-walking-tall.txt",
        "fire-chief.txt",
        "fire-chief.txt",
        "flaming-creatures.txt",
        "floor-flusher.txt",
        "football-now-and-then.txt",
        "getting-away-with-murder.txt",
        "good-scouts.txt",
        "goofy-gymnastics.txt",
        "grand-national-night.txt",
        "grim.txt",
        "gypsy-woman.txt",
        "halls-of-montezuma.txt",
        "heavy-weather.txt",
        "hell-s-five-hours.txt",
        "hello-aloha.txt",
        "his-kind-of-woman.txt",
        "hockey-night.txt",
        "homerun.txt",
        "homerun.txt",
        "homerun.txt",
        "honeymoon-hotel.txt",
        "honky-tonk.txt",
        "how-to-be-a-sailor.txt",
        "how-to-have-an-accident-at-work.txt",
        "hunt-to-kill.txt",
        "i-don-t-scare.txt",
        "i-don-t-scare.txt",
        "intimacy.txt",
        "it-only-money.txt",
        "jack-dee-live-and-uncut.txt",
        "jack-dee-live-and-uncut.txt",
        "jack-dee-live-at-the-apollo.txt",
        "jack-dee-live-at-the-apollo.txt",
        "jack-frost.txt",
        "jack-of-all-trades.txt",
        "jack-of-all-trades.txt",
        "jack-of-all-trades.txt",
        "jack-pot.txt",
        "jack-the-giant-killer.txt",
        "just-follow-law.txt",
        "kiss-of-fire.txt",
        "lady-of-the-tropics.txt",
        "land-of-the-pharaohs.txt",
        "let-s-all-go-to-the-lobby.txt",
        "lizzies-of-the-field.txt",
        "looking-for-trouble.txt",
        "lucky-partners.txt",
        "macbeth.txt",
        "man-in-the-shadow.txt",
        "may-i-kill-u.txt",
        "meet-mr-lucifer.txt",
        "melody.txt",
        "million-dollar-legs.txt",
        "mr-deeds.txt",
        "murder-in-soho.txt",
        "my-fellow-americans.txt",
        "my-fellow-americans.txt",
        "my-fellow-americans.txt",
        "nasse-exzesse.txt",
        "night-of-the-dribbler.txt",
        "night-of-the-fox.txt",
        "nine-men.txt",
        "no-holds-barred.txt",
        "offspring.txt",
        "offspring.txt",
        "oklahoma-crude.txt",
        "one-way-out.txt",
        "out-to-sea.txt",
        "outer-space-jitters.txt",
        "outlaw-of-gor.txt",
        "ozzfest-10th-anniversary.txt",
        "papa-s-delicate-condition.txt",
        "pinball-summer.txt",
        "polar-storm.txt",
        "polly-tix-in-washington.txt",
        "portrait-of-a-hitman.txt",
        "pull-my-daisy.txt",
        "putzel.txt",
        "rage-20-years-of-punk-rock-west-coast-style.txt",
        "raisin-trouble.txt",
        "razortooth.txt",
        "red-garters.txt",
        "red-sundown.txt",
        "rhythm-on-the-range.txt",
        "riders-of-the-whistling-pines.txt",
        "room-for-one-more.txt",
        "roughly-speaking.txt",
        "rumble-on-the-docks.txt",
        "safari-express.txt",
        "self-control.txt",
        "sex-play.txt",
        "shakespeare-was-a-big-george-jones-fan-cowboy-jack-clement-s-home-movies.txt",
        "shakespeare-was-a-big-george-jones-fan-cowboy-jack-clement-s-home-movies.txt",
        "shrooms.txt",
        "sis-hopkins.txt",
        "sky-riders.txt",
        "smashing-pumpkins-siamese-dream.txt",
        "song-of-the-islands.txt",
        "space-cowboys.txt",
        "spare-the-rod.txt",
        "speed-king.txt",
        "straight-shooters.txt",
        "street-corner.txt",
        "street-girl.txt",
        "sudden-fear.txt",
        "that-i-may-live.txt",
        "the-anniversary.txt",
        "the-army-mascot.txt",
        "the-awakening.txt",
        "the-china-syndrome.txt",
        "the-crooked-circle.txt",
        "the-departed.txt",
        "the-flesh-eaters.txt",
        "the-flesh-eaters.txt",
        "the-four-deuces.txt",
        "the-goose-woman.txt",
        "the-hart-of-london.txt",
        "the-hockey-champ.txt",
        "the-hot-potato.txt",
        "the-hunted.txt",
        "the-incredible-mr-limpet.txt",
        "the-lady-takes-a-flyer.txt",
        "the-landlady.txt",
        "the-last-rebel.txt",
        "the-lively-set.txt",
        "the-lonely-trail.txt",
        "the-longest-hundred-miles.txt",
        "the-lost.txt",
        "the-martins-and-the-coys.txt",
        "the-murder-of-mary-phagan.txt",
        "the-mystery-of-chess-boxing.txt",
        "the-notorious-landlady.txt",
        "the-one-man-jury.txt",
        "the-outlaw.txt",
        "the-poor-little-rich-girl.txt",
        "the-pumpkin-eater.txt",
        "the-quatermass-xperiment.txt",
        "the-silver-chalice.txt",
        "the-story-of-temple-drake.txt",
        "the-swinging-cheerleaders.txt",
        "the-swinging-cheerleaders.txt",
        "the-two-gun-man.txt",
        "the-unkissed-bride.txt",
        "the-unkissed-bride.txt",
        "the-velvet-touch.txt",
        "the-white-stripes-under-blackpool-lights.txt",
        "the-wicked-lady.txt",
        "the-wind-in-the-willows.txt",
        "the-woman-hunt.txt",
        "the-yesterday-machine.txt",
        "three-little-pigs.txt",
        "through-the-back-door.txt",
        "thunderball.txt",
        "to-the-last-man.txt",
        "to-the-last-man.txt",
        "tokyo-olympiad.txt",
        "tommy-tucker-s-tooth.txt",
        "train-of-events.txt",
        "ultraviolet.txt",
        "under-the-lighthouse-dancing.txt",
        "via-satellite.txt",
        "voyage-of-the-rock-aliens.txt",
        "wide-open-spaces.txt",
        "wings-in-the-dark.txt",
        "women-in-cell-block-7.txt",
        "working-for-peanuts.txt",
        "year-one.txt",
        "yellow-submarine.txt",
        "you-can-t-run-away-from-it.txt"
    ]
}