{
    "files": [
        "13-lakes.txt",
        "4d-man.txt",
        "a-close-call-for-ellery-queen.txt",
        "a-dangerous-summer.txt",
        "a-darker-reality.txt",
        "a-day-in-venice.txt",
        "a-dog-of-flanders.txt",
        "a-face-to-die-for.txt",
        "a-killing-affair.txt",
        "a-man-called-sledge.txt",
        "a-man-called-tiger.txt",
        "a-marriage-of-convenience.txt",
        "a-morning-bath.txt",
        "a-room-with-a-view.txt",
        "a-siren-in-the-dark.txt",
        "a-star-is-born.txt",
        "a-summer-story.txt",
        "above-and-beyond.txt",
        "air-hostess.txt",
        "aliens-of-the-deep.txt",
        "aliens-of-the-deep.txt",
        "all-creatures-great-and-small.txt",
        "all-in-a-nutshell.txt",
        "all-star-superman.txt",
        "all-the-way-home.txt",
        "american-harmony.txt",
        "american-me.txt",
        "american-me.txt",
        "american-revenge.txt",
        "amityville-ii-the-possession.txt",
        "an-interesting-story.txt",
        "and-the-pursuit-of-happiness.txt",
        "anne-of-windy-poplars.txt",
        "another-48-hrs.txt",
        "another-48-hrs.txt",
        "area-407.txt",
        "arizona-to-broadway.txt",
        "arizona-to-broadway.txt",
        "around-the-world-in-eighty-days.txt",
        "asia-noir.txt",
        "at-the-death-house-door.txt",
        "avatar-3.txt",
        "avatar-3.txt",
        "awful-nice.txt",
        "baby-take-a-bow.txt",
        "bachelor-party-2-the-last-temptation.txt",
        "badlanders.txt",
        "basket-case-3.txt",
        "batman-xxx-a-porn-parody.txt",
        "bearly-asleep.txt",
        "beasties.txt",
        "beau-hunks.txt",
        "beau-hunks.txt",
        "beautiful-budapest.txt",
        "bend-of-the-river.txt",
        "best-men.txt",
        "beyond-and-back.txt",
        "bicentennial-man.txt",
        "birdemic-shock-and-terror.txt",
        "birdemic-shock-and-terror.txt",
        "bittersweet.txt",
        "black-white-gray-a-portrait-of-sam-wagstaff-and-robert-mapplethorpe.txt",
        "bless-this-house.txt",
        "blessed.txt",
        "blockade.txt",
        "blonde-crazy.txt",
        "blood-cult.txt",
        "bloodfist-v.txt",
        "bloodletting.txt",
        "blowback.txt",
        "bmx-bandits.txt",
        "bob-james-keikomatsui-altair-vega.txt",
        "bob-james-keikomatsui-altair-vega.txt",
        "body-of-the-prey.txt",
        "body-of-the-prey.txt",
        "borderland.txt",
        "born-to-ride.txt",
        "born-wild.txt",
        "boy-wonder.txt",
        "boyfriends.txt",
        "bring-em-back-a-wife.txt",
        "buffalo-fire-department-in-action.txt",
        "bulldog-drummond-at-bay.txt",
        "busty-cops-and-the-jewel-of-denial.txt",
        "by-dawn-s-early-light.txt",
        "cabin-boy.txt",
        "call-northside-777.txt",
        "capital-punishment.txt",
        "capture-of-boer-battery.txt",
        "carry-on-constable.txt",
        "carry-on-dick.txt",
        "carry-on-henry.txt",
        "charlie-chan-in-shanghai.txt",
        "chicago-in-chicago.txt",
        "chris-isaak-beyond-the-sun-live.txt",
        "christmas-in-wonderland.txt",
        "christmas-in-wonderland.txt",
        "christy-return-to-cutter-gap.txt",
        "citadels-of-the-mediterranean.txt",
        "claudine.txt",
        "coach.txt",
        "cock-o-the-walk.txt",
        "cocktail-hour.txt",
        "code-of-the-west.txt",
        "cold-fusion-fire-from-water.txt",
        "connie-and-carla.txt",
        "crash-landing-the-rescue-of-flight-232.txt",
        "creepshow-3.txt",
        "curtain-call.txt",
        "cyberjack.txt",
        "dangerous-game.txt",
        "dark-nature.txt",
        "darkness-falls.txt",
        "deadly-little-secrets.txt",
        "deadly-target.txt",
        "death-force.txt",
        "deeper-4.txt",
        "demon-slayer.txt",
        "dio-at-tokyo-super-rock-festival.txt",
        "dio-evil-or-divine.txt",
        "dio-finding-the-sacred-heart-live-in-philly-1986.txt",
        "dio-super-rock-85-in-japan.txt",
        "doctor-bull.txt",
        "donald-applecore.txt",
        "donkeys.txt",
        "double-dragon.txt",
        "downhill-racer.txt",
        "dr-jeckyll-s-dungeon-of-death.txt",
        "dr-jeckyll-s-dungeon-of-death.txt",
        "dragonfly.txt",
        "dream-theater-score-20th-anniversary-world-tour-live-with-the-octavarium-orchestra.txt",
        "dreamland.txt",
        "dreamland.txt",
        "duet.txt",
        "dutch-guiana-land-of-the-djuka.txt",
        "eames-the-architect-the-painter.txt",
        "east-of-elephant-rock.txt",
        "easy.txt",
        "edge-of-america.txt",
        "eesan.txt",
        "eleven-men-against-eleven.txt",
        "ellery-queen-and-the-perfect-crime.txt",
        "elvis-in-concert.txt",
        "elvis-that-s-the-way-it-is.txt",
        "enslavement-the-true-story-of-fanny-kemble.txt",
        "excessive-force.txt",
        "eyes-of-the-mothman.txt",
        "facing-the-giants.txt",
        "fast-girls.txt",
        "fast-girls.txt",
        "fast-walking.txt",
        "father-hood.txt",
        "feast.txt",
        "feed.txt",
        "final-draft.txt",
        "final-justice.txt",
        "final-justice.txt",
        "flying-elephants.txt",
        "formosa-betrayed.txt",
        "francis-in-the-haunted-house.txt",
        "frankenstein.txt",
        "frankenstein.txt",
        "from-above.txt",
        "front-of-the-class.txt",
        "g-men.txt",
        "games.txt",
        "garden-of-love.txt",
        "ghosts-that-still-walk.txt",
        "ghosts-that-still-walk.txt",
        "ghouls.txt",
        "glitterbug.txt",
        "going-undercover.txt",
        "gone-with-the-west.txt",
        "grand-canyon-massacre.txt",
        "gun-fight.txt",
        "gun-street.txt",
        "gunsmoke-to-the-last-man.txt",
        "hard-to-handle.txt",
        "heaven-hell-neon-nights-30-years-of-heaven-and-hell.txt",
        "heavy.txt",
        "heavy.txt",
        "hell-s-angels.txt",
        "hell-s-belles.txt",
        "here-comes-the-boom.txt",
        "hollywood-vice-squad.txt",
        "horror-high.txt",
        "horses-loading-for-klondike.txt",
        "howards-end.txt",
        "humanoids-from-the-deep.txt",
        "humphrey-jennings-the-man-who-listened-to-britain.txt",
        "i-can-see-you.txt",
        "i-ll-do-anything.txt",
        "i-ll-do-anything.txt",
        "i-shot-jesse-james.txt",
        "i-think-i-do.txt",
        "i-walked-with-a-zombie.txt",
        "i-was-a-teenage-zombie.txt",
        "i-was-a-zombie-for-the-f-b-i.txt",
        "identity.txt",
        "immortally-yours.txt",
        "in-search-of-blind-joe-death-the-saga-of-john-fahey.txt",
        "in-search-of-blind-joe-death-the-saga-of-john-fahey.txt",
        "in-search-of-noah-s-ark.txt",
        "insidious.txt",
        "interstate-60.txt",
        "into-the-storm.txt",
        "irene.txt",
        "james-batman.txt",
        "james-benning-circling-the-image.txt",
        "james-benning-circling-the-image.txt",
        "james-brown-live-at-the-boston-garden.txt",
        "james-brown-live-at-the-boston-garden.txt",
        "james-brown-live-from-the-house-of-blues.txt",
        "james-dean-forever-young.txt",
        "james-dean-forever-young.txt",
        "james-dean.txt",
        "jane-doe-how-to-fire-your-boss.txt",
        "jason-x.txt",
        "java-the-fragrant-isle.txt",
        "jingle-bells.txt",
        "joanna-angels-alt-corruption.txt",
        "john-wycliffe-the-morning-star.txt",
        "johnny-eager.txt",
        "johnny-eager.txt",
        "joy-ride-2-dead-ahead.txt",
        "jungle-cat.txt",
        "junior-pilot.txt",
        "karl-the-butcher-vs-axe.txt",
        "katsuni-opened-up.txt",
        "ken-park.txt",
        "king-kong.txt",
        "kiss-the-abyss.txt",
        "kiss-tomorrow-goodbye.txt",
        "knights-of-bloodsteel.txt",
        "l-a-streetfighters.txt",
        "la-vida-nocturna.txt",
        "lady-street-fighter.txt",
        "last-mysteries-of-the-titanic.txt",
        "lightning-in-a-bottle.txt",
        "little-annie-rooney.txt",
        "little-giants.txt",
        "little-red-monkey.txt",
        "lone-fisherman.txt",
        "lone-star-scene.txt",
        "lord-of-the-flies.txt",
        "lost-angel.txt",
        "lotus-blossom.txt",
        "love-at-first-bite.txt",
        "man-of-a-thousand-faces.txt",
        "man-or-gun.txt",
        "marriage-is-a-private-affair.txt",
        "match-dead.txt",
        "mclintock.txt",
        "me-and-my-pal.txt",
        "megaforce.txt",
        "metallica-classic-albums-the-black-album.txt",
        "metallica-cliff-em-all.txt",
        "metallica-live-at-monsters-of-rock-1991.txt",
        "metallica-mtv-icon.txt",
        "metallica-st-anger.txt",
        "michael-jordan-to-the-max.txt",
        "mickey-down-under.txt",
        "misbegotten.txt",
        "mischief-night.txt",
        "misery.txt",
        "missing-pieces.txt",
        "misty.txt",
        "money-and-medicine.txt",
        "montana.txt",
        "moon-pilot.txt",
        "mother-daughter-exchange-club-part-18.txt",
        "my-fellow-americans.txt",
        "naanayam.txt",
        "nathaniel-hawthorne.txt",
        "naval-apprentices-at-sail-drill-on-historic-ship-constellation.txt",
        "navy-blue-and-gold.txt",
        "never-say-goodbye.txt",
        "never-say-goodbye.txt",
        "never-surrender.txt",
        "next-time-we-love.txt",
        "nicholas-and-alexandra.txt",
        "nicky-deuce.txt",
        "night-at-the-golden-eagle.txt",
        "night-of-the-dark-full-moon.txt",
        "night-of-the-juggler.txt",
        "ninja-iii-the-domination.txt",
        "no-highway-in-the-sky.txt",
        "ocean-voyagers.txt",
        "once-upon-a-time-in-america.txt",
        "one-more-river.txt",
        "opportunity-knocks.txt",
        "our-vines-have-tender-grapes.txt",
        "overnight.txt",
        "owd-bob.txt",
        "p-o-w-the-escape.txt",
        "paranormal-calamity.txt",
        "paul-blart-mall-cop.txt",
        "paul-blart-mall-cop.txt",
        "picture-snatcher.txt",
        "pink-floyd-pulse.txt",
        "pink-narcissus.txt",
        "pink-narcissus.txt",
        "pink-narcissus.txt",
        "plaguers.txt",
        "pleasure-garden.txt",
        "poker-alice.txt",
        "pope-john-paul-ii.txt",
        "pork-chop-hill.txt",
        "private-gold-42-madness-2.txt",
        "private-wars.txt",
        "project-nightmare.txt",
        "quest-of-the-delta-knights.txt",
        "quiet-cool.txt",
        "race-to-space.txt",
        "rage-in-heaven.txt",
        "ray.txt",
        "reckless.txt",
        "red-dirt-rising.txt",
        "redemption-a-mile-from-hell.txt",
        "rent-a-cop.txt",
        "resurrection-man.txt",
        "rites-of-passage.txt",
        "river-patrol.txt",
        "roaring-six-guns.txt",
        "rock-around-the-clock.txt",
        "rock-around-the-clock.txt",
        "rocknrolla.txt",
        "rolled-stockings.txt",
        "rope.txt",
        "roseland.txt",
        "rumble-on-the-docks.txt",
        "s-s-doomtrooper.txt",
        "saxon.txt",
        "scorching-sands.txt",
        "sebastiane.txt",
        "sebastiane.txt",
        "second-chance.txt",
        "seven-miles-from-alcatraz.txt",
        "shadow-dancer.txt",
        "shadow-of-fear.txt",
        "shadows-in-the-dark-the-val-lewton-legacy.txt",
        "shadowzone.txt",
        "shake-hands-with-the-devil.txt",
        "shame.txt",
        "shark-swarm.txt",
        "she-couldn-t-say-no.txt",
        "she-s-working-her-way-through-college.txt",
        "shooting-the-chutes.txt",
        "short-of-love.txt",
        "side-street.txt",
        "sideline-secrets.txt",
        "sideline-secrets.txt",
        "skin-game.txt",
        "sky-riders.txt",
        "smashing-pumpkins-vieuphoria.txt",
        "south-of-santa-fe.txt",
        "southern-pacific-overland-mail.txt",
        "space-station-3d.txt",
        "speed-of-life.txt",
        "stacey.txt",
        "stalker.txt",
        "still-breathing.txt",
        "still-breathing.txt",
        "stilte.txt",
        "stilte.txt",
        "straight-talk.txt",
        "sunset-range.txt",
        "super.txt",
        "super.txt",
        "superior-firepower-making-aliens.txt",
        "surf-at-monterey.txt",
        "surviving-a-family-in-crisis.txt",
        "talent-for-the-game.txt",
        "talons-of-the-eagle.txt",
        "terminal-island.txt",
        "that-guy-with-the-glasses-anniversary-brawl.txt",
        "the-alamo.txt",
        "the-american-way.txt",
        "the-basketball-diaries.txt",
        "the-bells.txt",
        "the-big-swallow.txt",
        "the-big-swallow.txt",
        "the-blade-spares-none.txt",
        "the-bohemian-girl.txt",
        "the-caribbean-mystery.txt",
        "the-challenger.txt",
        "the-chamber.txt",
        "the-china-syndrome.txt",
        "the-clinic.txt",
        "the-clinic.txt",
        "the-concorde-affair.txt",
        "the-conjuring.txt",
        "the-dakota-kid.txt",
        "the-dark-side-of-midnight.txt",
        "the-dark.txt",
        "the-delhi-way.txt",
        "the-delhi-way.txt",
        "the-delhi-way.txt",
        "the-eagle-s-brood.txt",
        "the-feast-of-stephen.txt",
        "the-feast-of-stephen.txt",
        "the-fierce-wife-final-episode.txt",
        "the-fighting-69th.txt",
        "the-first-of-the-few.txt",
        "the-flyboys.txt",
        "the-forbidden-dance.txt",
        "the-forgotten.txt",
        "the-forgotten.txt",
        "the-gene-krupa-story.txt",
        "the-glenn-miller-story.txt",
        "the-good-shepherd.txt",
        "the-gorilla.txt",
        "the-graffiti-artist.txt",
        "the-graffiti-artist.txt",
        "the-graffiti-artist.txt",
        "the-great-gabbo.txt",
        "the-grizzly-and-the-treasure.txt",
        "the-guru.txt",
        "the-hire-beat-the-devil.txt",
        "the-home-made-car.txt",
        "the-interrupters.txt",
        "the-interrupters.txt",
        "the-jungle-book-2.txt",
        "the-king-james-bible-the-book-that-changed-the-world.txt",
        "the-last-gangster.txt",
        "the-letter.txt",
        "the-listening.txt",
        "the-little-match-seller.txt",
        "the-lively-set.txt",
        "the-loft.txt",
        "the-lone-avenger.txt",
        "the-lone-avenger.txt",
        "the-man-who-collected-food.txt",
        "the-mighty-quinn.txt",
        "the-moon-spinners.txt",
        "the-music-box.txt",
        "the-nail.txt",
        "the-narnia-code.txt",
        "the-november-men.txt",
        "the-old-dark-house.txt",
        "the-passage.txt",
        "the-perfect-marriage.txt",
        "the-plague-dogs.txt",
        "the-prince-and-the-pauper.txt",
        "the-program.txt",
        "the-pumpkin-eater.txt",
        "the-rape-of-richard-beck.txt",
        "the-reading-room.txt",
        "the-rise-and-fall-of-the-great-lakes.txt",
        "the-river-why.txt",
        "the-roaring-road.txt",
        "the-roaring-twenties.txt",
        "the-rockford-files-a-blessing-in-disguise.txt",
        "the-set-up.txt",
        "the-set-up.txt",
        "the-seventh-veil.txt",
        "the-shark-is-still-working.txt",
        "the-shrink-is-in.txt",
        "the-soft-kill.txt",
        "the-storm.txt",
        "the-strawberry-blonde.txt",
        "the-suspicions-of-mr-whicher-the-murder-at-road-hill-house.txt",
        "the-temple-of-love.txt",
        "the-thrill-of-it-all.txt",
        "the-trail-beyond.txt",
        "the-true-story-of-jesse-james.txt",
        "the-truth-about-spring.txt",
        "the-unborn.txt",
        "the-unchastened-woman.txt",
        "the-warriors.txt",
        "the-weight-of-chains.txt",
        "the-wife-swappers.txt",
        "the-wind-in-the-willows.txt",
        "the-winning-season.txt",
        "the-winning-season.txt",
        "the-witch-s-sabbath.txt",
        "the-wolves-of-kromer.txt",
        "the-yesterday-machine.txt",
        "the-yum-yum-girls.txt",
        "them.txt",
        "these-amazing-shadows.txt",
        "things-we-do-when-we-fall-in-love.txt",
        "things-we-do-when-we-fall-in-love.txt",
        "third-man-on-the-mountain.txt",
        "this-is-my-father.txt",
        "this-is-the-end.txt",
        "three-days-of-the-condor.txt",
        "three-inches.txt",
        "three-on-a-meathook.txt",
        "tiembla-y-titubea.txt",
        "tight-jeans.txt",
        "time-runner.txt",
        "tom-and-jerry-the-magic-ring.txt",
        "tori-amos-live-from-ny.txt",
        "truck-tunes.txt",
        "twenty-cigarettes.txt",
        "twilight-zone-rod-serling-s-lost-classics.txt",
        "tyson.txt",
        "valley-of-wanted-men.txt",
        "vera-cruz.txt",
        "viennese-nights.txt",
        "vortex.txt",
        "voyage-of-the-rock-aliens.txt",
        "welcome-to-the-rileys.txt",
        "what-s-a-nice-girl-like-you-doing-in-a-place-like-this.txt",
        "when-will-i-be-loved.txt",
        "when-will-i-be-loved.txt",
        "when-will-i-be-loved.txt",
        "white-wall.txt",
        "white-wall.txt",
        "white-wings.txt",
        "why-mrs-jones-got-a-divorce.txt",
        "wild-about-harry.txt",
        "wings-in-the-dark.txt",
        "winning-your-wings.txt",
        "winter-a-go-go.txt",
        "wonderland.txt",
        "working-for-peanuts.txt",
        "x-15.txt",
        "yellow-rock.txt",
        "yesterday.txt",
        "yesterday.txt",
        "ziegfeld-girl.txt",
        "zombie-bohemia.txt"
    ]
}