{
    "files": [
        "born-of-fire.txt",
        "born-of-fire.txt",
        "hey-arnold-the-movie.txt",
        "the-american-dream.txt",
        "the-american-dream.txt",
        "the-american-dream.txt"
    ]
}