{
    "files": [
        "30-seconds-to-mars-live-in-malaysia-2011.txt",
        "a-nanny-for-christmas.txt",
        "a-shot-in-the-dark.txt",
        "b-monkey.txt",
        "sherlock-holmes-a-game-of-shadows.txt",
        "spike.txt",
        "sylvia.txt",
        "talihina-sky-the-story-of-kings-of-leon.txt",
        "the-earth-rejects-him.txt",
        "the-earth-rejects-him.txt",
        "the-house-that-drips-blood-on-alex.txt",
        "the-legends-of-nethiah.txt",
        "the-notorious-bettie-page.txt",
        "the-sea-serpent.txt"
    ]
}