{
    "files": [
        "art-pepper-notes-from-a-jazz-survivor.txt",
        "bill-frisell-solos-the-jazz-sessions.txt",
        "bireli-lagrene-friends-live-jazz-a-vienne.txt",
        "brian-blade-mama-rosa-cully-jazz-festival.txt",
        "casino-lights-99-live-at-the-montreux-jazz-festival.txt",
        "cesaria-evora-estival-jazz-lugano.txt",
        "delivery-day.txt",
        "diana-krall-live-at-the-montreal-jazz-festival.txt",
        "dr-john-the-lower-911-montreux-jazz-festival.txt",
        "icons-among-us-jazz-in-the-present-tense.txt",
        "incognito-at-estival-jazz-lugano.txt",
        "jazz-on-a-summer-s-day.txt",
        "jungle-jazz.txt",
        "mike-stern-didier-lockwood-4tet-jazz-a-vienne.txt",
        "steve-hackett-electric-band-estival-jazz-lugano.txt",
        "the-cry-of-jazz.txt",
        "the-jazz-fool.txt",
        "the-story-of-jazz.txt"
    ]
}