{
    "files": [
        "29-palms.txt",
        "50-nuts-2.txt",
        "all-souls-day-dia-de-los-muertos.txt",
        "american-beer.txt",
        "ankle-biters.txt",
        "anomaly.txt",
        "any-which-way-you-can.txt",
        "apocalypse-clarkson.txt",
        "apocalypse-clarkson.txt",
        "betrayal.txt",
        "bobby-jones-stroke-of-genius.txt",
        "bulworth.txt",
        "code-2600.txt",
        "code-2600.txt",
        "crusty-demons-of-dirt-1.txt",
        "darling-lili.txt",
        "dirty-girl.txt",
        "dna-vs-the-book-of-mormon.txt",
        "east-of-elephant-rock.txt",
        "event-horizon.txt",
        "fatty-finn.txt",
        "five-golden-dragons.txt",
        "flirting-with-flamenco.txt",
        "frost.txt",
        "hell-s-belles.txt",
        "higher-ground.txt",
        "humboldt-county.txt",
        "into-temptation.txt",
        "jeremy-camp-live-unplugged.txt",
        "jeremy-clarkson-war-stories.txt",
        "jibbing-with-jeremy-jones.txt",
        "jibbing-with-jeremy-jones.txt",
        "julius-caesar.txt",
        "keeping-up-with-the-steins.txt",
        "killing-hitler.txt",
        "killing-hitler.txt",
        "larger-than-life.txt",
        "love-comes-to-the-executioner.txt",
        "mimic.txt",
        "naked-lunch.txt",
        "nitro-circus-4-lock-n-load.txt",
        "no-room-for-rockstars-the-vans-warped-tour.txt",
        "now-is-good.txt",
        "phil-collins-face-value.txt",
        "possession.txt",
        "raising-waylon.txt",
        "rapid-eye-movement.txt",
        "resident-evil-afterlife.txt",
        "san-ferry-ann.txt",
        "seal-team-vi.txt",
        "see-girl-run.txt",
        "the-babysitter.txt",
        "the-battery.txt",
        "the-battery.txt",
        "the-battery.txt",
        "the-big-fix.txt",
        "the-cicerones.txt",
        "the-cicerones.txt",
        "the-face-of-eve.txt",
        "the-hittites-a-civilization-that-changed-the-world.txt",
        "the-journey-of-natty-gann.txt",
        "the-notebook.txt",
        "the-sasquatch-gang.txt",
        "the-secret-of-seagull-island.txt",
        "the-stimulators.txt",
        "the-words.txt",
        "there-is-no-authority-but-yourself.txt",
        "twisted-desire.txt",
        "wec-4-rumble-under-the-sun.txt",
        "work-is-a-4-letter-word.txt",
        "x-he-s-always-watching.txt"
    ]
}