{
    "files": [
        "1911.txt",
        "almost-normal.txt",
        "arizona-to-broadway.txt",
        "behind-the-burly-q.txt",
        "big-brown-eyes.txt",
        "big-girls-don-t-cry-they-get-even.txt",
        "billion-dollar-limited.txt",
        "black-scorpion-ii-aftershock.txt",
        "blond-cheat.txt",
        "blonde-crazy.txt",
        "blue-hawaii.txt",
        "boogie-boy.txt",
        "bullets-for-o-hara.txt",
        "carry-on-emmannuelle.txt",
        "column-south.txt",
        "dad-and-dave-on-our-selection.txt",
        "east-of-ipswich.txt",
        "father-of-the-bride.txt",
        "father-s-little-dividend.txt",
        "female-on-the-beach.txt",
        "flying-wild.txt",
        "forget-me-not.txt",
        "frogs.txt",
        "from-this-day-forward.txt",
        "good-girls-go-to-paris.txt",
        "grand-hotel.txt",
        "gun-fight.txt",
        "hollow-triumph.txt",
        "i-killed-that-man.txt",
        "intimacy.txt",
        "joan-the-woman.txt",
        "juvenile-liaison-2.txt",
        "juvenile-liaison.txt",
        "knife-edge.txt",
        "land-of-the-pharaohs.txt",
        "michael-shayne-private-detective.txt",
        "miss-marple-sleeping-murder.txt",
        "montana-moon.txt",
        "music-for-madame.txt",
        "narcotic.txt",
        "nurse-on-wheels.txt",
        "ode-to-billy-joe.txt",
        "operation-petticoat.txt",
        "ozzie.txt",
        "paid.txt",
        "queen-bee.txt",
        "rabbit-test.txt",
        "rabbit-test.txt",
        "raising-helen.txt",
        "renaldo-and-clara.txt",
        "rock-my-world.txt",
        "satisfaction.txt",
        "sea-wife.txt",
        "sex-and-consequences.txt",
        "show-business.txt",
        "skirts-ahoy.txt",
        "start-cheering.txt",
        "strange-alibi.txt",
        "sudden-fear.txt",
        "tales-from-the-crypt.txt",
        "the-adventures-of-errol-flynn.txt",
        "the-bitch.txt",
        "the-blue-veil.txt",
        "the-boob.txt",
        "the-captive-city.txt",
        "the-dressmaker.txt",
        "the-gentle-sex.txt",
        "the-gentle-sex.txt",
        "the-kid-from-kokomo.txt",
        "the-male-animal.txt",
        "the-mists-of-avalon.txt",
        "the-night-stalker.txt",
        "the-revolt-of-mamie-stover.txt",
        "the-shining-hour.txt",
        "the-story-of-robin-hood-and-his-merrie-men.txt",
        "the-system.txt",
        "the-terminal-man.txt",
        "the-verdict.txt",
        "them.txt",
        "there-s-always-tomorrow.txt",
        "this-is-the-army.txt",
        "three-on-a-match.txt",
        "topper-returns.txt",
        "traveling-saleslady.txt",
        "twisted-desire.txt",
        "vogues-of-1938.txt",
        "way-up-thar.txt",
        "we-joined-the-navy.txt",
        "whispers-and-lies.txt",
        "wild-girl.txt",
        "yield-to-the-night.txt",
        "you-re-telling-me.txt"
    ]
}