{
    "files": [
        "am-sklavenmarkt.txt",
        "aufregende-lekture.txt",
        "baden-verboten.txt",
        "robert-and-bertram.txt",
        "sonata-for-hitler.txt",
        "the-long-run.txt",
        "the-power-of-hypnosis.txt",
        "the-sand-bath.txt",
        "the-seven-of-daran-battle-of-pareo-rock.txt",
        "the-sin-of-nora-moran.txt"
    ]
}