{
    "files": [
        "12-men-of-christmas.txt",
        "a-certain-sacrifice.txt",
        "alligator-2-the-mutation.txt",
        "american-beer.txt",
        "anne-frank-remembered.txt",
        "anyone-can-play-guitar.txt",
        "b-b-king-the-life-of-riley.txt",
        "before-i-say-goodbye.txt",
        "believe-in-me.txt",
        "black-mask-2-city-of-masks.txt",
        "bon-jovi-live-on-vh1-unplugged.txt",
        "bon-jovi-one-last-wild-night.txt",
        "boz-thank-you-god-for-colors-and-shapes.txt",
        "braindead.txt",
        "charlie-chan-in-shanghai.txt",
        "coldplay-live-at-the-bbc.txt",
        "cowboys-aliens.txt",
        "crimes-of-the-future.txt",
        "curse-of-the-zodiac.txt",
        "dancing-with-the-devil.txt",
        "dancing-with-the-devil.txt",
        "darklands.txt",
        "dead-end.txt",
        "doogal.txt",
        "dudes.txt",
        "elf.txt",
        "embraceable.txt",
        "embraceable.txt",
        "excessive-force.txt",
        "frat-house-massacre.txt",
        "greece-secrets-of-the-past.txt",
        "held-up.txt",
        "i-ll-come-running.txt",
        "king-richard-the-second.txt",
        "last-chants-for-a-slow-dance.txt",
        "last-chants-for-a-slow-dance.txt",
        "last-chants-for-a-slow-dance.txt",
        "like-dandelion-dust.txt",
        "made.txt",
        "made.txt",
        "match-dead.txt",
        "million-dollar-arm.txt",
        "mister-drake-s-duck.txt",
        "mormor-og-de-8-ungene-i-skogen.txt",
        "mr-jones.txt",
        "my-date-with-drew.txt",
        "my-stepmother-is-an-alien.txt",
        "out-of-it.txt",
        "pacific-rim.txt",
        "pope-john-paul-ii.txt",
        "righteous-kill.txt",
        "sacred-planet.txt",
        "sacred-planet.txt",
        "sidecar-racers.txt",
        "stay-gold-the-emerica-video.txt",
        "step-up-2-the-streets.txt",
        "stripped-naked.txt",
        "teenage.txt",
        "the-change-up.txt",
        "the-crazy-rulers-of-the-world.txt",
        "the-crazy-rulers-of-the-world.txt",
        "the-debt.txt",
        "the-ghost-army.txt",
        "the-highest-pass.txt",
        "the-mighty-ducks.txt",
        "the-spanish-gardener.txt",
        "the-toe-tactic.txt",
        "the-tuttles-of-tahiti.txt",
        "three-days-to-vegas.txt",
        "ufn-5-leben-vs-silva.txt",
        "unflinching-triumph-the-philip-rockhammer-story.txt",
        "when-the-zombies-come.txt",
        "yes-yessongs-40th-anniversary-special-edition.txt"
    ]
}