{
    "files": [
        "horror-hotline-big-head-monster.txt",
        "josie-long-trying-is-good.txt",
        "josie-long-trying-is-good.txt",
        "much-ado-about-nothing.txt",
        "the-ballad-of-josie.txt"
    ]
}