{
    "files": [
        "albert-s-memorial.txt",
        "are-you-in-the-house-alone.txt",
        "bad-city-blues.txt",
        "die-eisblumen-farm.txt",
        "g-i-joe-valor-vs-venom.txt",
        "murder-at-my-door.txt",
        "private-black-label-16-santo-domingo-connection-the-sex-ransom.txt",
        "private-gold-87-hi-speed-sex.txt",
        "simply-irresistible.txt",
        "snow-white-and-7-dwarfs.txt",
        "strawberry-fields.txt",
        "the-effect-of-gamma-rays-on-man-in-the-moon-marigolds.txt",
        "the-living-sea.txt",
        "the-most-dangerous-man-in-america-daniel-ellsberg-and-the-pentagon-papers.txt",
        "theo-maassen-tegen-beter-weten-in.txt",
        "vampires-anonymous.txt",
        "what-alice-found.txt"
    ]
}