{
    "files": [
        "all-star-milfs.txt",
        "all-star-teens-3.txt",
        "around-the-world-in-eighty-days.txt",
        "bedlam-in-paradise.txt",
        "boobs-in-arms.txt",
        "buzz.txt",
        "circle-of-two.txt",
        "cookoo-cavaliers.txt",
        "deep-anal-drilling.txt",
        "far-out-isn-t-far-enough-the-tomi-ungerer-story.txt",
        "fling-in-the-ring.txt",
        "frosty-the-snowman.txt",
        "help-the-doctor-is-drowning.txt",
        "if-a-body-meets-a-body.txt",
        "jack-frost.txt",
        "kylie-minogue-aphrodite-les-folies-live-in-london.txt",
        "loco-boy-makes-good.txt",
        "northsyde-live-in-italy.txt",
        "outer-space-jitters.txt",
        "rusty-romeos.txt",
        "self-made-maids.txt",
        "slut-puppies-4.txt",
        "spooks.txt",
        "sweet-and-hot.txt",
        "the-first-christmas-the-story-of-the-first-christmas-snow.txt",
        "the-ghost-talks.txt",
        "the-life-adventures-of-santa-claus.txt",
        "the-light-at-the-edge-of-the-world.txt",
        "the-outlaw.txt",
        "the-tell-tale-heart.txt",
        "trader-hound.txt",
        "triple-crossed.txt",
        "uncivil-war-birds.txt",
        "up-in-daisy-s-penthouse.txt",
        "wham-bam-slam.txt"
    ]
}