{
    "files": [
        "10.txt",
        "airplane.txt",
        "armageddon-boulevard.txt",
        "around-the-bend.txt",
        "ascendancy.txt",
        "baby-mozart.txt",
        "barney-s-rhyme-time-rhythm.txt",
        "battle-queen-2020.txt",
        "blame-it-on-fidel.txt",
        "blame-it-on-fidel.txt",
        "boobs-an-american-obsession.txt",
        "breaking-upwards.txt",
        "care-bears-journey-to-joke-a-lot.txt",
        "chickboxer.txt",
        "darling-lili.txt",
        "devil-s-harvest.txt",
        "eloise-at-christmastime.txt",
        "escape-from-crime.txt",
        "exterminator-city.txt",
        "far-from-the-madding-crowd.txt",
        "girls-night.txt",
        "glorious-39.txt",
        "happy-birthday.txt",
        "hold-me-tight.txt",
        "i-am-a-camera.txt",
        "i-was-framed.txt",
        "just-45-minutes-from-broadway.txt",
        "lapland.txt",
        "late-bloomers.txt",
        "lethal-seduction.txt",
        "little-miss-marker.txt",
        "method-to-the-madness-of-jerry-lewis.txt",
        "nameless.txt",
        "one-for-the-money.txt",
        "planet-of-the-erotic-ape.txt",
        "primal-scream.txt",
        "purgatory.txt",
        "revenge-of-the-stepford-wives.txt",
        "saturday-the-14th.txt",
        "something-to-scream-about.txt",
        "sorceress-ii-the-temptress.txt",
        "summer-school-teachers.txt",
        "the-christmas-wife.txt",
        "the-ghost.txt",
        "the-legend-of-lucy-keyes.txt",
        "the-lunatic.txt",
        "the-miracle-maker.txt",
        "the-picnic.txt",
        "the-pool-boys.txt",
        "the-power-and-the-glory.txt",
        "the-tempest.txt",
        "the-tempest.txt",
        "the-white-slave-trade.txt",
        "trilogy-of-lust.txt",
        "trilogy-of-lust.txt",
        "trilogy-of-lust.txt",
        "voice-in-the-mirror.txt",
        "waiting-for-hockney.txt",
        "waiting-for-hockney.txt",
        "what-about-bob.txt",
        "wolfhound.txt",
        "you-re-killing-me.txt"
    ]
}