{
    "files": [
        "kid-galahad.txt",
        "scandal-sheet.txt",
        "swing-parade-of-1946.txt",
        "the-brothers-rico.txt",
        "the-silencers.txt",
        "the-young-doctors.txt"
    ]
}