{
    "files": [
        "all-the-king-s-men.txt",
        "best-defense.txt",
        "black-rock.txt",
        "brokedown-palace.txt",
        "cheaters-club.txt",
        "christmas-in-the-clouds.txt",
        "christmas-in-the-clouds.txt",
        "click.txt",
        "cold-comfort-farm.txt",
        "def-con-4.txt",
        "desert-blue.txt",
        "donkeys.txt",
        "emma.txt",
        "eternal-summer.txt",
        "everything-went-down.txt",
        "fatal-honeymoon.txt",
        "fool-s-gold.txt",
        "grizzly-rage.txt",
        "home-makeover.txt",
        "imaginary-larry.txt",
        "ivans-xtc.txt",
        "just-a-little-heart-attack.txt",
        "killing-hitler.txt",
        "looking-for-alibrandi.txt",
        "making-love.txt",
        "meatballs.txt",
        "miracle-dogs.txt",
        "murder-in-the-heartland.txt",
        "old-times.txt",
        "poultrygeist-night-of-the-chicken-dead.txt",
        "puppet-master-the-legacy.txt",
        "quiet-killer.txt",
        "raising-helen.txt",
        "random-quest.txt",
        "red-road.txt",
        "riddler-s-moon.txt",
        "snow-angels.txt",
        "the-eye-infinity.txt",
        "the-fire-brigade.txt",
        "the-four-feathers.txt",
        "the-kate-logan-affair.txt",
        "the-man-who-cried.txt",
        "the-spirit-of-45.txt",
        "the-suspicions-of-mr-whicher-the-murder-at-road-hill-house.txt",
        "ukm-the-ultimate-killing-machine.txt",
        "what-s-love-got-to-do-with-it.txt",
        "what-s-up-nurse.txt",
        "wild-roomies.txt",
        "wonderland.txt"
    ]
}