{
    "files": [
        "1001-arabian-nights.txt",
        "1313-bigfoot-island.txt",
        "point-break.txt",
        "rio-rita.txt",
        "safety-in-numbers.txt",
        "sleepstalker.txt",
        "swingtime-in-the-movies.txt",
        "the-brothers-rico.txt",
        "the-christmas-toy.txt",
        "the-pursuit-of-d-b-cooper.txt",
        "the-turn-of-the-screw.txt",
        "the-vanishing-virginian.txt",
        "there-it-is.txt"
    ]
}