{
    "files": [
        "break-of-hearts.txt",
        "engaged-to-kill.txt",
        "games.txt",
        "goodnight-for-justice-queen-of-hearts.txt",
        "holiday.txt",
        "the-graduate.txt"
    ]
}