{
    "files": [
        "absolute-wilson.txt",
        "am-ende-die-wahrheit.txt",
        "happy-end.txt",
        "moon-man.txt",
        "the-last-giants-wenn-das-meer-stirbt.txt",
        "wer-hat-angst-vorm-schwarzen-mann.txt"
    ]
}