{
    "files": [
        "after-armageddon.txt",
        "after-armageddon.txt",
        "back-in-business.txt",
        "cyber-bandits.txt",
        "darling-lili.txt",
        "east-of-elephant-rock.txt",
        "first-descent.txt",
        "stalker.txt",
        "stalker.txt",
        "step-up-2-the-streets.txt",
        "the-crooked-man.txt",
        "titanoboa-monster-snake.txt"
    ]
}