{
    "files": [
        "burned.txt",
        "dreamland.txt",
        "moon-warriors.txt",
        "my-first-wedding.txt",
        "nitro-circus-4-lock-n-load.txt",
        "once-brothers.txt",
        "orgazmo.txt",
        "redrum.txt",
        "redrum.txt",
        "rise-of-the-zombie.txt",
        "rise-of-the-zombie.txt",
        "rootin-tootin-roundup.txt",
        "the-gambler-returns-the-luck-of-the-draw.txt",
        "the-papal-chase.txt",
        "the-task.txt"
    ]
}