{
    "files": [
        "i-killed-that-man.txt",
        "the-beast-that-killed-women.txt",
        "the-black-crowes-who-killed-that-bird-out-on-your-window-sill-the-movie.txt",
        "they-killed-sister-dorothy.txt",
        "who-killed-pasolini.txt",
        "zero-killed.txt"
    ]
}