{
    "files": [
        "200-pounds-beauty.txt",
        "200-pounds-beauty.txt",
        "200-pounds-beauty.txt",
        "200-pounds-beauty.txt",
        "200-pounds-beauty.txt",
        "36-hours-to-die.txt",
        "a-bloody-aria.txt",
        "a-brand-new-life.txt",
        "a-good-rain-knows.txt",
        "a-matter-of-life-and-death.txt",
        "a-millionaire-on-the-run.txt",
        "a-state-of-mind.txt",
        "actresses.txt",
        "addicted.txt",
        "airborne.txt",
        "aliens-vs-avatars.txt",
        "american-shaolin.txt",
        "an-ethics-lesson.txt",
        "another-public-enemy.txt",
        "another-public-enemy.txt",
        "antique.txt",
        "at-any-price.txt",
        "ballistic.txt",
        "barbie.txt",
        "barbie.txt",
        "batman.txt",
        "be-my-guest.txt",
        "beautiful.txt",
        "between-friends.txt",
        "between-love-and-hate.txt",
        "between-love-and-hate.txt",
        "between-love-and-hate.txt",
        "big-trouble-in-little-china.txt",
        "bloody-reunion.txt",
        "bloody-reunion.txt",
        "boys-of-tomorrow.txt",
        "boys-of-tomorrow.txt",
        "break-out.txt",
        "buleora-bombaram.txt",
        "buleora-bombaram.txt",
        "burning-annie.txt",
        "bus-stop.txt",
        "bus-stop.txt",
        "christmas-comes-to-willow-creek.txt",
        "chunganggonggyoksu.txt",
        "crossroad.txt",
        "crossroads-of-youth.txt",
        "crossroads-of-youth.txt",
        "ditto.txt",
        "ditto.txt",
        "ditto.txt",
        "divorce-iranian-style.txt",
        "dog-pound.txt",
        "dog-pound.txt",
        "don-t-believe-in-her.txt",
        "double-bliss.txt",
        "eaten-alive.txt",
        "escape-to-witch-mountain.txt",
        "even-money.txt",
        "eye-for-an-eye.txt",
        "final-analysis.txt",
        "firefist-of-incredible-dragon.txt",
        "for-horowitz.txt",
        "geo-lobotomy.txt",
        "geo-lobotomy.txt",
        "hard-country.txt",
        "hearty-paws.txt",
        "hearty-paws.txt",
        "helpless.txt",
        "hypnotized.txt",
        "hypnotized.txt",
        "hypnotized.txt",
        "hypnotized.txt",
        "i-love-you-goodbye.txt",
        "il-mare.txt",
        "il-mare.txt",
        "il-mare.txt",
        "in-montauk.txt",
        "in-montauk.txt",
        "in-the-land-of-milk-and-money.txt",
        "innocent-steps.txt",
        "into-the-mirror.txt",
        "into-the-mirror.txt",
        "into-the-mirror.txt",
        "invasion.txt",
        "invisible-light.txt",
        "invisible-light.txt",
        "iri.txt",
        "juvenile-offender.txt",
        "kung-fu-fever.txt",
        "kung-fu-fever.txt",
        "lies.txt",
        "live-nude-girls.txt",
        "london-2012-olympic-closing-ceremony-a-symphony-of-british-music.txt",
        "london-2012-olympic-closing-ceremony-a-symphony-of-british-music.txt",
        "love-in-magic.txt",
        "lovers-vanished.txt",
        "madeleine.txt",
        "masquerade.txt",
        "miracle-in-cell-no-7.txt",
        "mokpo-the-harbor.txt",
        "mokpo-the-harbor.txt",
        "mother-and-daughters.txt",
        "mother-lode.txt",
        "mr-hong.txt",
        "mr-idol.txt",
        "my-dear-desperado.txt",
        "my-dear-desperado.txt",
        "my-dear-enemy.txt",
        "my-stepmother-is-an-alien.txt",
        "my-wife-got-married.txt",
        "nerdcore-rising.txt",
        "out-live.txt",
        "out-live.txt",
        "out-live.txt",
        "over-my-dead-body.txt",
        "paradise-murdered.txt",
        "paradise-murdered.txt",
        "parents-hearts.txt",
        "peppermint-candy.txt",
        "perfect-sense.txt",
        "petty-romance.txt",
        "project-makeover.txt",
        "r-u-ready.txt",
        "r-u-ready.txt",
        "red-vacance-black-wedding.txt",
        "resurrection-of-the-little-match-girl.txt",
        "resurrection-of-the-little-match-girl.txt",
        "return-from-witch-mountain.txt",
        "road-movie.txt",
        "road-movie.txt",
        "romantic-heaven.txt",
        "romantic-heaven.txt",
        "romantic-heaven.txt",
        "runaway.txt",
        "salma.txt",
        "saving-my-hubby.txt",
        "say-yes.txt",
        "say-yes.txt",
        "six-string-samurai.txt",
        "stealing-heaven.txt",
        "terminator-salvation.txt",
        "that-man-in-chang-an.txt",
        "the-beast-and-the-beauty.txt",
        "the-big-bet.txt",
        "the-daughters-of-kim-s-pharmacy.txt",
        "the-door-in-the-floor.txt",
        "the-drifter.txt",
        "the-force.txt",
        "the-getaway.txt",
        "the-housemaid.txt",
        "the-juche-idea.txt",
        "the-man-with-the-golden-arm.txt",
        "the-memory-keeper-s-daughter.txt",
        "the-neighbors.txt",
        "the-neighbors.txt",
        "the-neighbors.txt",
        "the-neighbors.txt",
        "the-neighbors.txt",
        "the-notorious-landlady.txt",
        "the-pot.txt",
        "the-pot.txt",
        "the-restless.txt",
        "the-rocket.txt",
        "the-rocket.txt",
        "the-romance.txt",
        "the-schoolgirl-s-diary.txt",
        "the-schoolgirl-s-diary.txt",
        "the-schoolgirl-s-diary.txt",
        "the-secret-war.txt",
        "the-servant.txt",
        "the-servant.txt",
        "the-show-must-go-on.txt",
        "the-spiritual-love.txt",
        "the-sunlit-path.txt",
        "the-sword-with-no-name.txt",
        "the-unjust.txt",
        "this-is-law-out-of-justice.txt",
        "time.txt",
        "time.txt",
        "treeless-mountain.txt",
        "treeless-mountain.txt",
        "treeless-mountain.txt",
        "tropical-manila.txt",
        "tunnel.txt",
        "unholy.txt",
        "vegetarian.txt",
        "vegetarian.txt",
        "warren-miller-s-dynasty.txt",
        "we-re-puttin-on-the-ritz.txt",
        "when-romance-meets-destiny.txt",
        "when-romance-meets-destiny.txt",
        "wild-animals.txt",
        "wild-animals.txt",
        "windstruck.txt",
        "windstruck.txt",
        "woman-is-the-future-of-man.txt",
        "yakeen.txt"
    ]
}