{
    "files": [
        "doraemon-nobita-and-the-robot-kingdom.txt",
        "kingdom-of-gladiators.txt",
        "my-kingdom.txt",
        "paddle-pop-adventures-2-journey-into-the-kingdom.txt",
        "the-kingdom-of-heaven.txt",
        "the-kingdom-of-solomon.txt"
    ]
}