{
    "files": [
        "how-do-you-know-it-s-love.txt",
        "i-know-what-i-saw.txt",
        "kansas-there-s-know-place-like-home.txt",
        "please-kill-mr-know-it-all.txt",
        "we-know-where-you-live-live.txt"
    ]
}