{
    "files": [
        "a-brand-new-life.txt",
        "american-force-2-the-untouchable-glory.txt",
        "don-t-click.txt",
        "duet.txt",
        "guns-roses.txt",
        "legacy-of-rage.txt",
        "maine-gandhi-ko-nahi-mara.txt",
        "once-a-thief.txt",
        "project-makeover.txt",
        "r-u-ready.txt",
        "ten-brothers-of-shaolin.txt",
        "the-banquet.txt",
        "the-seven-commandments-of-kung-fu.txt",
        "the-story-of-daisy.txt",
        "vampire-settle-on-police-camp.txt"
    ]
}