{
    "files": [
        "bop-girl-goes-calypso.txt",
        "citizen-koch.txt",
        "dead-doll.txt",
        "koch-brothers-exposed.txt",
        "our-little-differences.txt",
        "puss-in-boots.txt",
        "sea-wolf.txt",
        "snow-day.txt",
        "the-girl-in-black-stockings.txt",
        "the-letter.txt",
        "trunk-to-cairo.txt"
    ]
}