{
    "files": [
        "ang-utol-kong-hoodlum.txt",
        "bloody-ghost.txt",
        "challenge-of-the-masters.txt",
        "hong-kong-butcher.txt",
        "hong-kong-nights.txt",
        "hong-kong-nocturne.txt",
        "i-love-hong-kong-2012.txt",
        "king-kong.txt",
        "king-of-kong-island.txt",
        "long-arm-of-the-law.txt",
        "made-in-hong-kong.txt",
        "my-name-called-bruce.txt",
        "pituitary-hunter.txt",
        "queen-kong.txt",
        "return-of-bruce.txt",
        "return-of-bruce.txt",
        "silver-dragon-ninja.txt",
        "the-devil-s-mirror.txt",
        "tsai-chin-in-concert-hong-kong.txt",
        "windstruck.txt"
    ]
}