{
    "files": [
        "dog-barbos-and-unusual-cross.txt",
        "four-hearts.txt",
        "ivan.txt",
        "nomer-lyuks-dlya-generala-s-devochkoi.txt",
        "spring.txt",
        "the-god.txt",
        "the-god.txt",
        "the-magic-voyage-of-sinbad.txt",
        "the-tavern-on-pyatnitskaya.txt"
    ]
}