{
    "files": [
        "astro-boy.txt",
        "how-to-train-your-dragon-2.txt",
        "megaville.txt",
        "pride-part-2.txt",
        "pride-part-2.txt",
        "spaceship-terror.txt",
        "student-bodies.txt",
        "the-flintstones-in-viva-rock-vegas.txt",
        "the-scratch.txt",
        "the-twilight-saga-eclipse.txt",
        "veronica-mars.txt",
        "waking-up-wally-the-walter-gretzky-story.txt",
        "welcome-to-the-rileys.txt"
    ]
}