{
    "files": [
        "asia-noir-3.txt",
        "exit.txt",
        "kylie-minogue-aphrodite-les-folies-live-in-london.txt",
        "kylie-minogue-aphrodite-les-folies-live-in-london.txt",
        "kylie-minogue-fever-2002.txt",
        "kylie-minogue-fever-2002.txt",
        "kylie-minogue-showgirl-homecoming-tour.txt",
        "kylie-minogue-showgirl-homecoming-tour.txt",
        "kylie-minogue-x2008.txt",
        "kylie-minogue-x2008.txt",
        "kylie-minogue-x2008.txt",
        "the-delinquents.txt"
    ]
}