{
    "files": [
        "a-man-s-land.txt",
        "angkor-land-of-the-gods.txt",
        "balloon-land.txt",
        "dprk-the-land-of-whispers.txt",
        "dutch-guiana-land-of-the-djuka.txt",
        "from-the-sea-to-the-land-beyond.txt",
        "fun-in-balloon-land.txt",
        "in-the-land-of-milk-and-money.txt",
        "in-the-land-of-owl-turds.txt",
        "in-the-land-of-the-head-hunters.txt",
        "jews-on-the-land.txt",
        "journey-to-the-promised-land.txt",
        "land-of-dreams.txt",
        "land-of-scarecrows.txt",
        "land-of-the-pharaohs.txt",
        "manchester-united-beyond-the-promised-land.txt",
        "mother-goose-land.txt",
        "naked-island-the-land-of-1001-nudes.txt",
        "no-man-s-land.txt",
        "on-the-marriage-broker-joke-as-cited-by-sigmund-freud-in-wit-and-its-relation-to-the-unconscious-or-can-the-avant-garde-artist-be-wholed.txt",
        "prison-heat.txt",
        "projekt-erde-norwegen-land-der-fjorde.txt",
        "the-land-before-time-good-times-and-good-friends.txt",
        "the-land-before-time-v-the-mysterious-island.txt",
        "the-land.txt",
        "two-acres-of-land.txt",
        "vietnam-ein-land-im-aufbruch.txt",
        "water-from-the-land.txt"
    ]
}