{
    "files": [
        "destination-moonbase-alpha.txt",
        "ed-wood.txt",
        "mysteria.txt",
        "the-girl-in-black-stockings.txt",
        "the-glass-cage.txt",
        "the-quatermass-xperiment.txt"
    ]
}