{
    "files": [
        "10-32.txt",
        "beer-league.txt",
        "beer-league.txt",
        "country.txt",
        "der-verdacht.txt",
        "fer-de-lance.txt",
        "ford-the-man-and-the-machine.txt",
        "grey-gardens.txt",
        "i-ll-come-running.txt",
        "king-kong.txt",
        "night-and-the-city.txt",
        "o-pioneers.txt",
        "peyton-place.txt",
        "pinkeltje.txt",
        "the-hillside-strangler.txt",
        "the-true-story-of-jesse-james.txt"
    ]
}