{
    "files": [
        "buddy-guy-can-t-quit-the-blues.txt",
        "but-not-for-me.txt",
        "cage.txt",
        "ctrl-alt-compete.txt",
        "dead-knot.txt",
        "don-t-go-to-sleep.txt",
        "flaxy-martin.txt",
        "k-d-lang-live-by-request.txt",
        "k-d-lang-live-by-request.txt",
        "moon-over-miami.txt",
        "on-the-riviera.txt",
        "pangako-ikaw-lang.txt",
        "sex-romance-2.txt",
        "song-of-the-islands.txt",
        "state-fair.txt",
        "the-alley-cat.txt",
        "the-baroness-and-the-butler.txt",
        "the-fat-boy-chronicles.txt",
        "the-mighty-barnum.txt",
        "the-private-eyes.txt",
        "week-end-in-havana.txt",
        "with-a-song-in-my-heart.txt",
        "zum-beispiel-fritz-lang.txt",
        "zum-beispiel-fritz-lang.txt"
    ]
}