{
    "files": [
        "21-jump-street.txt",
        "conquest-of-the-earth.txt",
        "dos-abrazos.txt",
        "double-happiness-uranium.txt",
        "fm.txt",
        "out-of-the-clear-blue-sky.txt",
        "tales-from-the-far-side.txt",
        "the-darwin-conspiracy.txt",
        "thomas-friends-calling-all-engines.txt",
        "tigerland.txt",
        "xtinction-predator-x.txt"
    ]
}