{
    "files": [
        "2002.txt",
        "6-bullets.txt",
        "6-bullets.txt",
        "alienator.txt",
        "all-the-king-s-men.txt",
        "bruce-lee-and-i.txt",
        "counsellor-at-law.txt",
        "curse-of-the-deserted.txt",
        "fighting-life.txt",
        "i-am-the-law.txt",
        "iceman.txt",
        "in-the-line-of-duty-3.txt",
        "just-follow-law.txt",
        "koma.txt",
        "law-and-order.txt",
        "law-of-the-lash.txt",
        "law-of-the-pampas.txt",
        "like-a-dream.txt",
        "like-a-dream.txt",
        "long-arm-of-the-law.txt",
        "marilyn-alive-and-behind-bars.txt",
        "monkey-kung-fu.txt",
        "monkey-kung-fu.txt",
        "moon-warriors.txt",
        "muse-the-making-of-the-2nd-law.txt",
        "newman-s-law.txt",
        "running-out-of-time-2.txt",
        "she-mao-ho-hun-hsing.txt",
        "sherlock-holmes-a-game-of-shadows.txt",
        "short-of-love.txt",
        "the-common-law.txt",
        "the-dragon-lives-again.txt",
        "the-law-and-jake-wade.txt",
        "the-law-in-these-parts.txt",
        "the-three-faces-of-terror.txt",
        "this-is-law-out-of-justice.txt",
        "tony-law-go-mr-tony-go.txt",
        "tony-law-go-mr-tony-go.txt",
        "united-we-fall.txt",
        "young-and-dangerous-reloaded.txt"
    ]
}