{
    "files": [
        "7-below.txt",
        "a-gun-for-one-hundred-graves.txt",
        "abducted.txt",
        "assassins-code.txt",
        "b-b-king-live-by-request.txt",
        "backfire.txt",
        "backfire.txt",
        "battle-of-the-stars.txt",
        "big-momma-s-house.txt",
        "bloody-ghost.txt",
        "boog-and-elliot-s-midnight-bun-run.txt",
        "breast-men.txt",
        "breath-made-visible-anna-halprin.txt",
        "claudine.txt",
        "delirious.txt",
        "do-children-count.txt",
        "emma.txt",
        "event-horizon.txt",
        "ever-since-eve.txt",
        "fighting-fear.txt",
        "headin-home.txt",
        "house-at-the-end-of-the-street.txt",
        "kill-her-gently.txt",
        "king-of-kong-island.txt",
        "korn-live-on-the-other-side.txt",
        "lantana.txt",
        "larger-than-life-in-3d.txt",
        "mass.txt",
        "mcq.txt",
        "midnight-oil-black-rain-falls.txt",
        "murder-by-the-book.txt",
        "national-security.txt",
        "night-after-night.txt",
        "nothing-to-lose.txt",
        "peter-ibbetson.txt",
        "rip-a-remix-manifesto.txt",
        "romantic-dream.txt",
        "roustabout.txt",
        "scream-free.txt",
        "scream-free.txt",
        "start-the-revolution-without-me.txt",
        "stephen-king-s-it.txt",
        "the-beverly-hillbillies.txt",
        "the-clown-murders.txt",
        "the-delinquents.txt",
        "the-evidence-of-the-film.txt",
        "the-eye.txt",
        "the-glass-menagerie.txt",
        "the-hoodlum.txt",
        "the-hunger-games-catching-fire.txt",
        "the-innocent-interloper.txt",
        "the-man-who-finally-died.txt",
        "the-mended-lute.txt",
        "the-tommyknockers.txt",
        "the-treasure-of-abbot-thomas.txt",
        "tower-of-terror.txt",
        "voice-in-the-mirror.txt",
        "you-lucky-dog.txt",
        "youngblood.txt"
    ]
}