{
    "files": [
        "good-girls-go-to-paris.txt",
        "hell-ephone.txt",
        "rapid-fire.txt",
        "rio-rita.txt",
        "sweet-smell-of-success.txt",
        "the-hunters.txt",
        "the-poor-little-rich-girl.txt",
        "this-time-for-keeps.txt"
    ]
}