{
    "files": [
        "10-man-milf-cum-slam.txt",
        "29-palms.txt",
        "an-american-dream.txt",
        "angels-in-the-outfield.txt",
        "carolina-blues.txt",
        "crossed-over.txt",
        "curse-of-the-voodoo.txt",
        "family-rescue.txt",
        "four-days-in-july.txt",
        "frost-bite.txt",
        "high-jump.txt",
        "insidious.txt",
        "judgment.txt",
        "keith-lemon-s-fit.txt",
        "my-first-wedding.txt",
        "night-of-the-lepus.txt",
        "offspring.txt",
        "scream-bloody-murder.txt",
        "summer-school-teachers.txt",
        "the-deep-blue-sea.txt",
        "the-dunwich-horror.txt",
        "the-dunwich-horror.txt",
        "the-hi-line.txt",
        "the-hitcher.txt",
        "the-hitchhiker.txt",
        "the-hitchhiker.txt",
        "the-mad-miss-manton.txt",
        "the-making-of-psycho.txt",
        "the-turn-of-the-screw.txt",
        "world-without-end.txt",
        "zombie-christ.txt"
    ]
}