{
    "files": [
        "brother-s-keeper.txt",
        "call-of-the-wild.txt",
        "checking-out.txt",
        "resurrection.txt",
        "the-big-man.txt",
        "the-nail-gun-massacre.txt"
    ]
}