{
    "files": [
        "airport-77.txt",
        "getting-away-with-murder.txt",
        "going-undercover.txt",
        "my-fellow-americans.txt",
        "out-to-sea.txt",
        "the-china-syndrome.txt",
        "the-murder-of-mary-phagan.txt",
        "the-notorious-landlady.txt",
        "you-can-t-run-away-from-it.txt"
    ]
}