{
    "files": [
        "alleged.txt",
        "angels-in-disguise.txt",
        "anna-karenina.txt",
        "aussie-and-ted-s-great-adventure.txt",
        "bela-lugosi-meets-a-brooklyn-gorilla.txt",
        "blockade.txt",
        "blood-and-diamonds.txt",
        "blues-busters.txt",
        "bottled-up.txt",
        "bowery-buckaroos.txt",
        "confess.txt",
        "crazy-like-a-fox.txt",
        "dad-and-dave-on-our-selection.txt",
        "dynamite-warrior.txt",
        "eroica.txt",
        "fireball-500.txt",
        "flying-wild.txt",
        "frozen-river.txt",
        "green-for-danger.txt",
        "her-heart-still-beats.txt",
        "high-society.txt",
        "his-wooden-wedding.txt",
        "honokaa-boy.txt",
        "horror-island.txt",
        "isn-t-life-terrible.txt",
        "jungle-gents.txt",
        "king-and-country.txt",
        "la-vida-nocturna.txt",
        "ladri-si-nasce.txt",
        "mad-dog-coll.txt",
        "mafioso-the-father-the-son.txt",
        "no-holds-barred.txt",
        "once-upon-a-honeymoon.txt",
        "our-little-differences.txt",
        "personal-affair.txt",
        "powder-blue.txt",
        "private-eyes.txt",
        "rise-of-the-black-bat.txt",
        "ruggles-of-red-gap.txt",
        "seeing-nellie-home.txt",
        "shell-shock.txt",
        "strangler-of-the-swamp.txt",
        "the-bells-of-st-mary-s.txt",
        "the-bells-of-st-mary-s.txt",
        "the-cricket.txt",
        "the-delhi-way.txt",
        "the-devil-s-messenger.txt",
        "the-home-made-car.txt",
        "the-red-beret.txt",
        "the-song-of-songs.txt",
        "the-velvet-touch.txt",
        "this-is-elvis.txt",
        "this-is-elvis.txt",
        "welcome-to-the-rileys.txt",
        "zyzzyx-road.txt"
    ]
}