{
    "files": [
        "12-chairs.txt",
        "a-plasticine-crow.txt",
        "afghan-breakdown.txt",
        "afonya.txt",
        "cinema-circus.txt",
        "comrade-nikanorova-awaits-you.txt",
        "dangerous-for-your-life.txt",
        "dangerous-for-your-life.txt",
        "dangerous-for-your-life.txt",
        "dog-barbos-and-unusual-cross.txt",
        "donetskie-shakhtyory.txt",
        "doroga.txt",
        "gospodin-gimnazist.txt",
        "hard-to-be-a-god.txt",
        "jolly-fellows.txt",
        "konvoj-pq-17.txt",
        "makar-pathfinder.txt",
        "nasha-masha-i-volshebnyy-orekh.txt",
        "nasreddin-in-bukhara.txt",
        "operation-happy-new-year.txt",
        "osen.txt",
        "radio-day.txt",
        "radio-day.txt",
        "telets.txt",
        "the-girl-and-death.txt",
        "the-pokrovsky-gates.txt",
        "the-pokrovsky-gates.txt",
        "the-pokrovsky-gates.txt",
        "the-secret-agent-s-return.txt",
        "the-stone.txt",
        "the-volunteers.txt",
        "the-white-eagle.txt",
        "zhavoronok.txt"
    ]
}