{
    "files": [
        "48-hours.txt",
        "almost-big.txt",
        "batch-81.txt",
        "bezkresne-laki.txt",
        "black-cock-slut.txt",
        "blue-cha-cha.txt",
        "buddy-s-circus.txt",
        "chicago-in-chicago.txt",
        "cracked-ice.txt",
        "daffy-duck-egghead.txt",
        "dark-regrets.txt",
        "death-force.txt",
        "dream-of-a-warrior.txt",
        "egghead-rides-again.txt",
        "forever-enthralled.txt",
        "gunfight-at-the-o-k-corral.txt",
        "hiawatha-s-rabbit-hunt.txt",
        "hollywood-vice-squad.txt",
        "jerry-springer-the-opera.txt",
        "lady-of-the-dynasty.txt",
        "little-pancho-vanilla.txt",
        "mean-streak.txt",
        "mr-leon.txt",
        "murder-by-contract.txt",
        "number-seventeen.txt",
        "oh-schucks-it-s-schuster.txt",
        "oh-schucks-it-s-schuster.txt",
        "oh-schucks-it-s-schuster.txt",
        "omoo-omoo-the-shark-god.txt",
        "penitentiary.txt",
        "piece-of-cake.txt",
        "pigs-is-pigs.txt",
        "playing-for-keeps.txt",
        "pop-always-pays.txt",
        "porky-s-party.txt",
        "prest-o-change-o.txt",
        "qb-vii.txt",
        "queen-kong.txt",
        "ruggles-of-red-gap.txt",
        "slap-happy-pappy.txt",
        "stacey.txt",
        "stone-bros.txt",
        "taboo-iv-the-younger-generation.txt",
        "talihina-sky-the-story-of-kings-of-leon.txt",
        "the-depot-of-the-dead.txt",
        "the-killing-strain.txt",
        "the-misadventures-of-merlin-jones.txt",
        "the-pace-that-thrills.txt",
        "the-seven-ups.txt",
        "the-unguarded-hour.txt",
        "tsar-to-lenin.txt",
        "when-ladies-meet.txt",
        "white-vengeance.txt"
    ]
}