{
    "files": [
        "always-for-pleasure.txt",
        "chulas-fronteras.txt",
        "frolicking-fish.txt",
        "innocents-abroad.txt",
        "kylie-minogue-aphrodite-les-folies-live-in-london.txt",
        "les-aventures-de-tom-sawyer.txt",
        "les-aventures-effrayantes-de-scoubidou.txt",
        "les-bodin-s-maria-bodin.txt",
        "les-bodin-s-retour-au-pays.txt",
        "les-carnets-secrets-de-nuremberg.txt",
        "les-claypool-5-gallons-of-diesel.txt",
        "les-claypool-5-gallons-of-diesel.txt",
        "les-cousins-du-vrai-monde.txt",
        "les-gauloises-bleues.txt",
        "les-hauts-murs.txt",
        "les-larmes-d-argent.txt",
        "les-otages-d-entebbe.txt",
        "les-paul-chasing-sound.txt",
        "les-rebelles-du-foot.txt",
        "les-sexpervers-2.txt",
        "les-victimes-de-l-alcoolisme.txt",
        "private-parts.txt",
        "society-dog-show.txt",
        "the-nifty-nineties.txt",
        "tous-les-papas-ne-font-pas-pipi-debout.txt",
        "train.txt",
        "where-evil-lies.txt",
        "ziveli-medicine-for-the-heart.txt"
    ]
}