{
    "files": [
        "and-never-let-her-go.txt",
        "don-t-let-the-angels-fall.txt",
        "let-george-do-it.txt",
        "let-the-devil-wear-black.txt",
        "live-and-let-die.txt",
        "white-zombie-let-sleeping-corpses-lie.txt",
        "won-t-let-the-angels-take-you-away.txt"
    ]
}