{
    "files": [
        "a-kid-in-aladdin-s-palace.txt",
        "aussie-and-ted-s-great-adventure.txt",
        "aussie-and-ted-s-great-adventure.txt",
        "bananaz.txt",
        "do-not-disturb.txt",
        "hype.txt",
        "juliette-of-the-herbs.txt",
        "new-york-minute.txt",
        "sintel.txt",
        "six-acts.txt",
        "splash.txt",
        "the-ballad-of-the-weeping-spring.txt",
        "the-hunt-for-the-unicorn-killer.txt",
        "the-old-dark-house.txt",
        "the-president-versus-david-hicks.txt",
        "the-yum-yum-girls.txt"
    ]
}