{
    "files": [
        "bedevil.txt",
        "die-unsichtbaren-krallen-des-dr-mabuse.txt",
        "emulsion.txt",
        "go-west.txt",
        "old-shatterhand.txt",
        "the-girl-in-black-stockings.txt",
        "the-price-of-fear.txt",
        "twenty-four-hours-to-kill.txt"
    ]
}