{
    "files": [
        "dragon-swamp.txt",
        "emperor-of-shaolin-kung-fu.txt",
        "executioners-from-shaolin.txt",
        "one-armed-against-nine-killers.txt",
        "the-chinese-boxer.txt",
        "the-lady-hermit.txt",
        "the-magic-blade.txt"
    ]
}