{
    "files": [
        "30-years-to-life.txt",
        "a-borrowed-life.txt",
        "a-brand-new-life.txt",
        "a-humble-life.txt",
        "a-life-for-a-life.txt",
        "a-life-for-a-life.txt",
        "a-life-of-her-own.txt",
        "a-matter-of-life-and-death.txt",
        "a-simple-life.txt",
        "a-way-of-life.txt",
        "alex-agnew-larger-than-life.txt",
        "anaparastasis-life-work-of-jani-christou.txt",
        "army-life.txt",
        "b-b-king-the-life-of-riley.txt",
        "bare-essence-of-life.txt",
        "barred-for-life.txt",
        "betty-blowtorch-and-her-amazing-true-life-adventures.txt",
        "bottled-life-nestle-s-business-with-water.txt",
        "dangerous-for-your-life.txt",
        "digital-nation-life-on-the-virtual-frontier.txt",
        "down-for-life.txt",
        "dust-of-life.txt",
        "fighting-life.txt",
        "get-a-life.txt",
        "half-life-escape-from-city-17-part-2.txt",
        "happy-life.txt",
        "in-my-life.txt",
        "isn-t-life-terrible.txt",
        "kino-s-journey-life-goes-on.txt",
        "larger-than-life-in-3d.txt",
        "larger-than-life.txt",
        "laughing-at-life.txt",
        "life-according-to-agfa.txt",
        "life-as-a-house.txt",
        "life-begins-at-eight-thirty.txt",
        "life-begins-for-andy-hardy.txt",
        "life-for-ruth.txt",
        "life-in-a-day.txt",
        "life-in-one-day.txt",
        "life-in-perpetual-beta.txt",
        "life-is-beautiful.txt",
        "life-kills-me.txt",
        "life-love-death.txt",
        "life-on-a-string.txt",
        "life-on-hold.txt",
        "life-or-death.txt",
        "life-with-father.txt",
        "lost-worlds-life-in-the-balance.txt",
        "metallica-a-year-and-a-half-in-the-life-of-part-2.txt",
        "monty-python-s-life-of-brian.txt",
        "mr-immortality-the-life-and-times-of-twista.txt",
        "north-korea-a-day-in-the-life.txt",
        "one-day-in-the-life-of-andrei-arsenevich.txt",
        "opeth-still-life.txt",
        "out-of-life.txt",
        "passionate-life-of-clemenceau.txt",
        "perfect-life.txt",
        "precious-life.txt",
        "quarter-life-crisis.txt",
        "rainforest-the-secret-of-life.txt",
        "revolution-of-everyday-life.txt",
        "shaolin-wheel-of-life.txt",
        "speed-of-life.txt",
        "steve-jobs-secrets-of-life.txt",
        "still-life.txt",
        "tarzan-s-fight-for-life.txt",
        "the-best-day-of-my-life.txt",
        "the-crazy-life.txt",
        "the-life-adventures-of-santa-claus.txt",
        "the-life-and-adventures-of-nicholas-nickleby.txt",
        "the-life-and-death-of-king-john.txt",
        "the-life-and-death-of-peter-sellers.txt",
        "the-life-and-times-of-judge-roy-bean.txt",
        "the-life-before-her-eyes.txt",
        "the-life-of-henry-the-fifth.txt",
        "the-life-of-matsu-the-untamed.txt",
        "the-life-of-reilly.txt",
        "the-life-of-the-party.txt",
        "the-love-of-her-life.txt",
        "the-mad-love-life-of-a-hot-vampire.txt",
        "the-magic-life.txt",
        "the-private-life-of-tarra-white-3.txt",
        "the-wild-life.txt",
        "the-worst-christmas-of-my-life.txt",
        "the-worst-man-of-my-life.txt",
        "to-save-a-life.txt",
        "your-money-or-your-life.txt"
    ]
}