{
    "files": [
        "kung-fu-nurses-a-go-go.txt",
        "mustang-sally-s-horror-house.txt",
        "saved-by-the-juvenile-court.txt",
        "shredder.txt",
        "shrooms.txt",
        "the-appointment.txt",
        "the-appointment.txt"
    ]
}