{
    "files": [
        "21-jump-street.txt",
        "a-gem-of-a-jam.txt",
        "a-gem-of-a-jam.txt",
        "all-the-world-s-a-stooge.txt",
        "beyond-and-back.txt",
        "bring-em-back-a-wife.txt",
        "dutiful-but-dumb.txt",
        "hard-to-handle.txt",
        "hoi-polloi.txt",
        "killer-bodies-the-awakening.txt",
        "lizzies-of-the-field.txt",
        "lord-of-the-ants.txt",
        "lord-of-the-flies.txt",
        "pest-from-the-west.txt",
        "she-couldn-t-say-no.txt",
        "so-you-won-t-squawk.txt",
        "ten-dollars-or-ten-days.txt",
        "the-charge-of-the-light-brigade.txt",
        "the-lord-of-the-g-strings-the-femaleship-of-the-string.txt",
        "the-lord-of-the-rings-the-fellowship-of-the-ring.txt",
        "the-lord-of-the-rings-the-two-towers.txt",
        "the-matinee-idol.txt",
        "three-little-sew-and-sews.txt",
        "to-make-a-killing.txt"
    ]
}