{
    "files": [
        "bad-boys-of-summer.txt",
        "desire-under-the-elms.txt",
        "freeway-maniac.txt",
        "honey-bunny.txt",
        "is-it-just-me.txt",
        "loren-cass.txt",
        "too-bad-she-s-bad.txt"
    ]
}