{
    "files": [
        "briana-loves-rocco.txt",
        "jenna-loves-pain-2.txt",
        "love-s-brother.txt",
        "love-s-enduring-promise.txt",
        "love-s-labour-s-lost.txt",
        "love-s-long-journey.txt",
        "nina-loves-girls.txt"
    ]
}