{
    "files": [
        "black-friday.txt",
        "francis-goes-to-west-point.txt",
        "impact.txt",
        "phantom-of-the-opera.txt",
        "san-francisco-docks.txt",
        "south-sea-woman.txt",
        "the-incredible-mr-limpet.txt",
        "the-spider-woman-strikes-back.txt"
    ]
}