{
    "files": [
        "01-42-1.txt",
        "american-shaolin.txt",
        "auditions-48-popping-d-o-s-cherry.txt",
        "calvaire.txt",
        "captain-eo.txt",
        "cold-dark.txt",
        "death-in-love.txt",
        "derren-brown-behind-the-mischief.txt",
        "dirty-girl.txt",
        "el-ultimo-perro.txt",
        "electronic-labyrinth-thx-1138-4eb.txt",
        "electronic-labyrinth-thx-1138-4eb.txt",
        "enoch-arden-part-i.txt",
        "fred-the-movie.txt",
        "les-sexpervers-2.txt",
        "little-britain-live.txt",
        "little-britain-live.txt",
        "mad-bastards.txt",
        "merry-in-laws.txt",
        "milius.txt",
        "more-american-graffiti.txt",
        "star-wars-the-clone-wars-darth-maul-returns.txt",
        "star-wars-the-legacy-revealed.txt",
        "sweet-home-alabama.txt",
        "tell-tale.txt",
        "the-beginning-making-episode-i.txt",
        "the-change-up.txt",
        "the-kate-logan-affair.txt",
        "the-people-vs-george-lucas.txt",
        "the-real-little-britain.txt",
        "this-is-not-a-robbery.txt",
        "when-lynch-met-lucas.txt",
        "when-strangers-appear.txt",
        "within-a-minute-the-making-of-episode-iii.txt",
        "wuthering-heights.txt",
        "zombie-town.txt"
    ]
}