{
    "files": [
        "beauty-for-the-asking.txt",
        "best-foot-forward.txt",
        "du-barry-was-a-lady.txt",
        "five-came-back.txt",
        "meet-the-people.txt",
        "private-parts.txt",
        "the-magic-carpet.txt",
        "the-two-gun-man.txt"
    ]
}