{
    "files": [
        "48-shades.txt",
        "7-man-army.txt",
        "clan-feuds.txt",
        "crave.txt",
        "deadly-strike.txt",
        "deadly-strike.txt",
        "fighting-ace.txt",
        "goodbye-bruce-lee-his-last-game-of-death.txt",
        "have-sword-will-travel.txt",
        "long-arm-of-the-law.txt",
        "ninja-massacre.txt",
        "ol-dirty-kung-fu.txt",
        "people-s-hero.txt",
        "shaolin-prince.txt",
        "ten-tigers-of-kwangtung.txt",
        "the-anonymous-heroes.txt",
        "the-champion.txt",
        "the-magic-blade.txt",
        "the-mystery-of-chess-boxing.txt",
        "the-mystery-of-chess-boxing.txt",
        "the-seven-commandments-of-kung-fu.txt",
        "true-colours.txt",
        "usurpers-of-emperor-s-power.txt"
    ]
}