{
    "files": [
        "a-man-with-a-maid-a-tale-of-victorian-lust.txt",
        "family-of-lust.txt",
        "five-hot-stories-for-her.txt",
        "jesse-jane-lust.txt",
        "lust-exzesse.txt",
        "lust-exzesse.txt",
        "lust-for-freedom.txt",
        "lust.txt",
        "rape-zombie-lust-of-the-dead.txt",
        "trilogy-of-lust.txt"
    ]
}