{
    "files": [
        "deeper-8.txt",
        "devon-decadence.txt",
        "honey-bunny.txt",
        "jayantabhai-ki-luv-story.txt",
        "jesse-jane-lust.txt",
        "riley-steele-chic.txt",
        "stoya-perfect-picture.txt"
    ]
}