{
    "files": [
        "bruce-lee-and-i.txt",
        "cross-examination.txt",
        "fighting-for-love.txt",
        "fly-me-to-polaris.txt",
        "hidden-heroes.txt",
        "if-i-were-you.txt",
        "iron-monkey-2.txt",
        "just-heroes.txt",
        "kali-ma.txt",
        "legend-of-the-dragonslayer-sword.txt",
        "loup.txt",
        "ma-chi-t-ha-dato-la-patente.txt",
        "monkey-kung-fu.txt",
        "monkey-kung-fu.txt",
        "murder-on-the-campus.txt",
        "parents-hearts.txt",
        "raise-the-red-lantern.txt",
        "the-seven-commandments-of-kung-fu.txt"
    ]
}