{
    "files": [
        "angels-airwaves-start-the-machine.txt",
        "cinematic-titanic-doomsday-machine.txt",
        "ford-the-man-and-the-machine.txt",
        "ghost-from-the-machine.txt",
        "machine-gun-preacher.txt",
        "machine-head-rock-am-ring-2012.txt",
        "the-washing-machine.txt",
        "the-yesterday-machine.txt",
        "ukm-the-ultimate-killing-machine.txt"
    ]
}