{
    "files": [
        "cosa-bella.txt",
        "cosa-bella.txt",
        "deadly-little-secrets.txt",
        "hercules-saves-christmas.txt",
        "perfect-sense.txt",
        "the-honorary-consul.txt",
        "the-infiltrator.txt",
        "the-last-of-the-finest.txt",
        "the-mating-habits-of-the-earthbound-human.txt",
        "the-thompsons.txt",
        "worth-winning.txt"
    ]
}