{
    "files": [
        "peter-macleod-le-monde-selon-macleod.txt",
        "peter-macleod-le-monde-selon-macleod.txt",
        "peter-macleod-le-monde-selon-macleod.txt",
        "sea-monsters-a-prehistoric-adventure.txt",
        "sea-monsters-a-prehistoric-adventure.txt"
    ]
}