{
    "files": [
        "a-certain-sacrifice.txt",
        "dangerous-game.txt",
        "madonna-live-earth-concert-at-london.txt",
        "madonna-live-earth-concert-at-london.txt",
        "madonna-re-invention-tour-live-in-lisbon.txt",
        "madonna-sex-bomb.txt",
        "madonna-the-re-invention-tour-live-in-lisbon.txt",
        "madonna-the-re-invention-tour-live-in-lisbon.txt"
    ]
}