{
    "files": [
        "barefoot-boy.txt",
        "betty-boop-s-bamboo-isle.txt",
        "betty-boop-s-museum.txt",
        "beware-of-barnacle-bill.txt",
        "choose-your-weppins.txt",
        "floor-flusher.txt",
        "for-better-or-worser.txt",
        "i-don-t-scare.txt",
        "i-m-no-angel.txt",
        "i-m-no-angel.txt",
        "it-only-money.txt",
        "king-of-the-rocket-men.txt",
        "lost-in-the-dark.txt",
        "lost-planet-airmen.txt",
        "lying-lips.txt",
        "merely-a-married-man.txt",
        "mother-goose-land.txt",
        "shiver-me-timbers.txt",
        "snow-white.txt",
        "street-corner.txt",
        "the-betty-boop-limited.txt",
        "the-fabulous-fraud.txt",
        "the-first-round-up.txt",
        "the-jungle-book-2.txt",
        "the-sands-of-dee.txt",
        "the-two-alarm-fire.txt",
        "the-white-rose.txt",
        "them-thar-hills.txt",
        "vanessa-mae-the-red-hot-tour-live-at-the-royal-albert-hall.txt",
        "vanessa-mae-the-red-hot-tour-live-at-the-royal-albert-hall.txt",
        "without-honor.txt"
    ]
}