{
    "files": [
        "barnacle-bill.txt",
        "deewana-main-deewana.txt",
        "main-street-after-dark.txt",
        "placebo-main-square-festival-arras.txt",
        "the-belle-of-new-york.txt",
        "the-egg-and-i.txt",
        "the-kettles-on-old-macdonald-s-farm.txt",
        "the-main-event.txt",
        "within-temptation-main-square-festival.txt"
    ]
}