{
    "files": [
        "a-bitter-taste-of-freedom.txt",
        "antwone-fisher.txt",
        "are-parents-people.txt",
        "beat-this-a-hip-hop-history.txt",
        "bopha.txt",
        "class-of-1999.txt",
        "cold-comfort-farm.txt",
        "dr-john-the-lower-911-montreux-jazz-festival.txt",
        "drawing-flies.txt",
        "human-feelings.txt",
        "imaginary-larry.txt",
        "love-you-till-tuesday.txt",
        "malcolm-x.txt",
        "malcolm-x.txt",
        "monash-the-forgotten-anzac.txt",
        "montana-moon.txt",
        "moving-malcolm.txt",
        "orchestral-manoeuvres-in-the-dark-live-architecture-morality-and-more.txt",
        "pact-with-the-devil.txt",
        "princess-of-thieves.txt",
        "return-from-witch-mountain.txt",
        "slam-bang.txt",
        "the-american-dream.txt",
        "the-bashful-bachelor.txt",
        "the-caller.txt",
        "the-curse.txt",
        "the-employer.txt",
        "the-passage.txt",
        "the-revengers-comedies.txt",
        "the-revengers-comedies.txt",
        "this-is-elvis.txt",
        "this-is-elvis.txt"
    ]
}