{
    "files": [
        "an-american-dream.txt",
        "bend-of-the-river.txt",
        "brainstorm.txt",
        "cadillac-named-desire.txt",
        "deadly-target.txt",
        "der-mann-ohne-namen.txt",
        "desire-under-the-elms.txt",
        "doctors-don-t-tell.txt",
        "eurocrime-the-italian-cop-and-gangster-films-that-ruled-the-70s.txt",
        "fitzwilly.txt",
        "funny-people.txt",
        "god-s-little-acre.txt",
        "grass.txt",
        "high-art.txt",
        "il-mostro-di-firenze.txt",
        "il-mostro-di-firenze.txt",
        "judgment-at-nuremberg.txt",
        "manfred-mann-s-earth-band-ohne-filter-extra.txt",
        "matilda.txt",
        "meet-the-browns.txt",
        "meet-the-browns.txt",
        "mitti-wajaan-maardi.txt",
        "project-x.txt",
        "return-to-two-moon-junction.txt",
        "side-street.txt",
        "sky-riders.txt",
        "space-truckers.txt",
        "t-men.txt",
        "the-glenn-miller-story.txt",
        "the-great-flamarion.txt",
        "the-man-who-collected-food.txt",
        "the-perfect-crime.txt",
        "the-unearthly.txt",
        "the-unholy-four.txt",
        "this-is-40.txt",
        "twist.txt",
        "wer-hat-angst-vorm-schwarzen-mann.txt"
    ]
}