{
    "files": [
        "love-for-rent.txt",
        "queste-pazze-pazze-donne.txt",
        "valentina-the-virgin-wife.txt",
        "valentina-the-virgin-wife.txt",
        "veneri-in-collegio.txt",
        "zombie-holocaust.txt"
    ]
}