{
    "files": [
        "angels-in-disguise.txt",
        "between-men.txt",
        "blues-busters.txt",
        "blues-busters.txt",
        "cavalcade-of-the-west.txt",
        "city-girl.txt",
        "deadline-auto-theft.txt",
        "ever-since-eve.txt",
        "food-fight.txt",
        "in-society.txt",
        "ladies-of-the-big-house.txt",
        "madame-butterfly.txt",
        "marianne.txt",
        "marion-bridge.txt",
        "pacific-palisades.txt",
        "son-of-india.txt",
        "the-big-house.txt",
        "the-big-house.txt",
        "the-flying-mouse.txt",
        "the-gibson-goddess.txt",
        "the-mists-of-avalon.txt",
        "the-red-mill.txt",
        "the-toll-of-the-sea.txt",
        "the-toll-of-the-sea.txt",
        "when-knighthood-was-in-flower.txt"
    ]
}