{
    "files": [
        "10-man-cum-slam-18.txt",
        "2009-season-highlights-geelong-cats.txt",
        "311-enlarged-to-show-detail.txt",
        "a-dream-within-a-dream-the-making-of-picnic-at-hanging-rock.txt",
        "a-face-to-die-for.txt",
        "a-prize-of-gold.txt",
        "a-question-mark.txt",
        "action-man-the-outside-edge.txt",
        "air-doll.txt",
        "alabama-love-story.txt",
        "alien-origin.txt",
        "all-souls-day-dia-de-los-muertos.txt",
        "american-movie.txt",
        "and-never-let-her-go.txt",
        "angels-airwaves-start-the-machine.txt",
        "apartment-12.txt",
        "aroused.txt",
        "artois-the-goat.txt",
        "b-b-king-live-by-request.txt",
        "barbie-a-perfect-christmas.txt",
        "barbie-of-swan-lake.txt",
        "barnum.txt",
        "batch-81.txt",
        "batman-beyond-return-of-the-joker.txt",
        "best-men.txt",
        "beyond-sherwood-forest.txt",
        "big-girls-don-t-cry-they-get-even.txt",
        "births-marriages-and-deaths.txt",
        "black-butterfly.txt",
        "black-butterfly.txt",
        "black-rebels.txt",
        "black-rock.txt",
        "blessed.txt",
        "blood-red-moon.txt",
        "blowback.txt",
        "blues-britannia-can-blue-men-sing-the-whites.txt",
        "boogie-boy.txt",
        "boy-a.txt",
        "boyfriends.txt",
        "bride-of-killer-nerd.txt",
        "bubba-ho-tep.txt",
        "buck-wild.txt",
        "buford-s-beach-bunnies.txt",
        "buford-s-beach-bunnies.txt",
        "buford-s-beach-bunnies.txt",
        "bushisms.txt",
        "camera-shy.txt",
        "camera-shy.txt",
        "captives.txt",
        "centrespread.txt",
        "certain-prey.txt",
        "chain-letters.txt",
        "chain-letters.txt",
        "chain-letters.txt",
        "chainsaw-sally.txt",
        "charge.txt",
        "chatterbox.txt",
        "checkout.txt",
        "cheyenne-warrior.txt",
        "chimpanzee.txt",
        "clara-s-heart.txt",
        "class-of-1999.txt",
        "class-of-1999.txt",
        "class-of-1999.txt",
        "click.txt",
        "crowded-house-live-from-the-artists-den.txt",
        "ctrl-alt-compete.txt",
        "dead-end.txt",
        "dead-men-don-t-count.txt",
        "den-brother.txt",
        "distant-shadow.txt",
        "doc-martin.txt",
        "dora-heldt-urlaub-mit-papa.txt",
        "double-dragon.txt",
        "double-take.txt",
        "dragonquest.txt",
        "dreamland.txt",
        "dust-in-the-wind.txt",
        "emma.txt",
        "even-money.txt",
        "fast-forward.txt",
        "fast-walking.txt",
        "fear-of-clowns.txt",
        "fever-pitch.txt",
        "fighting-fear.txt",
        "first-mission.txt",
        "flying-saucers-over-hollywood-the-plan-9-companion.txt",
        "from-this-day-forward.txt",
        "galaxy-quest.txt",
        "girls-on-the-loose.txt",
        "gross-anatomy.txt",
        "harry-and-walter-go-to-new-york.txt",
        "heartland.txt",
        "hollywood-hot-tubs-2-educating-crystal.txt",
        "homerun.txt",
        "horror-business.txt",
        "house-at-the-end-of-the-street.txt",
        "how-to-live-forever.txt",
        "huckleberry-finn.txt",
        "intoxicating.txt",
        "invincible.txt",
        "invincible.txt",
        "isle-of-the-damned.txt",
        "isle-of-the-damned.txt",
        "jack-the-giant-killer.txt",
        "jack-the-giant-killer.txt",
        "jane-doe-the-wrong-face.txt",
        "johnny-shortwave.txt",
        "journey-3-from-the-earth-to-the-moon.txt",
        "judge-minty.txt",
        "keeping-up-with-the-steins.txt",
        "kill-the-dragon.txt",
        "kung-fu-nurses-a-go-go.txt",
        "la-missione-di-clara-rinker.txt",
        "last-summer.txt",
        "last-summer.txt",
        "last-summer.txt",
        "leave-me.txt",
        "lemonade-mouth.txt",
        "leprechaun.txt",
        "leprechaun.txt",
        "life-as-a-house.txt",
        "life-in-one-day.txt",
        "lily-savage-live-and-outrageous.txt",
        "little-manhattan.txt",
        "little-voice.txt",
        "little-voice.txt",
        "lone-survivor.txt",
        "magicians.txt",
        "marillion-bootleg-butlins.txt",
        "marillion-christmas-in-the-chapel.txt",
        "marillion-holidays-in-zelande.txt",
        "mark-of-the-astro-zombies.txt",
        "mark-visser-s-night-rider.txt",
        "marvin-the-martian-in-the-third-dimension.txt",
        "marwencol.txt",
        "max-keeble-s-big-move.txt",
        "max-payne.txt",
        "melody.txt",
        "memorial-valley-massacre.txt",
        "mike-hammer-murder-takes-all.txt",
        "minghags.txt",
        "misbegotten.txt",
        "model-behavior.txt",
        "modus-operandi.txt",
        "mother-goose-rock-n-rhyme.txt",
        "mr-jones.txt",
        "mustang-sally-s-horror-house.txt",
        "my-apprenticeship.txt",
        "my-foolish-heart.txt",
        "ned-kelly.txt",
        "nirvana-live-at-the-paramount.txt",
        "not-of-this-earth.txt",
        "one-man-band.txt",
        "ordinary-miracle.txt",
        "ordinary-miracle.txt",
        "partysaurus-rex.txt",
        "partysaurus-rex.txt",
        "partysaurus-rex.txt",
        "peyton-place.txt",
        "pharaoh-s-curse.txt",
        "pi.txt",
        "playoff.txt",
        "porky-s.txt",
        "pride-shockwave-2006.txt",
        "primal-force.txt",
        "ramona-and-beezus.txt",
        "removal.txt",
        "resort-massacre.txt",
        "rip-a-remix-manifesto.txt",
        "riptide.txt",
        "robert-e-lee.txt",
        "robert-plant-the-band-of-joy-live-from-the-artists-den.txt",
        "rocknrolla.txt",
        "rogue-male.txt",
        "ruffian.txt",
        "saw-vi.txt",
        "seal-team-vi.txt",
        "seal-team-vi.txt",
        "seven-green-bottles.txt",
        "sex-files-alien-erotica-ii.txt",
        "shadows-in-paradise.txt",
        "shaolin-avengers.txt",
        "simply-irresistible.txt",
        "sinbad-afros-and-bellbottoms.txt",
        "sinbad-brain-damaged.txt",
        "sky-high.txt",
        "skylark.txt",
        "splatter-beach.txt",
        "splatter-farm.txt",
        "stage-beauty.txt",
        "state-s-evidence.txt",
        "strip-mahjong-battle-royale.txt",
        "superguy-behind-the-cape.txt",
        "taboo.txt",
        "take-it-or-leave-it.txt",
        "tell-them-who-you-are.txt",
        "tell-them-who-you-are.txt",
        "terminal-voyage.txt",
        "thanks-for-sharing.txt",
        "the-american-way.txt",
        "the-art-of-flight-behind-the-scenes.txt",
        "the-ballad-of-the-weeping-spring.txt",
        "the-beverly-hillbillies.txt",
        "the-big-frame.txt",
        "the-cicerones.txt",
        "the-cook.txt",
        "the-crater-lake-monster.txt",
        "the-dead-will-tell.txt",
        "the-death-of-poe.txt",
        "the-death-of-poe.txt",
        "the-dirty-dozen-the-fatal-mission.txt",
        "the-dwarfs.txt",
        "the-eye-infinity.txt",
        "the-flint-street-nativity.txt",
        "the-flintstones-in-viva-rock-vegas.txt",
        "the-force.txt",
        "the-great-texas-dynamite-chase.txt",
        "the-greater-meaning-of-water.txt",
        "the-hitcher.txt",
        "the-interrogation-of-michael-crowe.txt",
        "the-last-horror-movie.txt",
        "the-legend-ii.txt",
        "the-man-who-sued-god.txt",
        "the-man-who-sued-god.txt",
        "the-mark-of-zorro.txt",
        "the-mystery-of-chess-boxing.txt",
        "the-passing.txt",
        "the-people-vs-george-lucas.txt",
        "the-power-of-one.txt",
        "the-red-sneakers.txt",
        "the-script-homecoming-live-at-the-aviva-stadium.txt",
        "the-siege-of-firebase-gloria.txt",
        "the-wives-he-forgot.txt",
        "three-kings.txt",
        "thru-the-moebius-strip.txt",
        "tigerland.txt",
        "time-runner.txt",
        "touching-wild-horses.txt",
        "tuareg-desert-warrior.txt",
        "tyler-perry-s-i-don-t-want-to-do-wrong-the-play.txt",
        "ufc-11-5-ultimate-ultimate-2.txt",
        "ufc-93-franklin-vs-henderson.txt",
        "undercover-maisie.txt",
        "undisputed-iii-redemption.txt",
        "unflinching-triumph-the-philip-rockhammer-story.txt",
        "unhappy-birthday.txt",
        "uprising-hip-hop-and-the-l-a-riots.txt",
        "warhead.txt",
        "where-evil-lies.txt",
        "where-evil-lives.txt",
        "wieners.txt",
        "witch-edited.txt",
        "worth-winning.txt",
        "wwe-hell-in-a-cell-2010.txt",
        "wwe-judgment-day-in-your-house.txt",
        "wwe-survivor-series-1992.txt",
        "xtinction-predator-x.txt",
        "you-are-special.txt",
        "you-are-special.txt",
        "zuma-ii-hell-serpent.txt",
        "zuma.txt"
    ]
}