{
    "files": [
        "a-lively-market-garden.txt",
        "a-trip-down-market-street-before-the-fire.txt",
        "meat-market.txt",
        "new-york-city-ghetto-fish-market.txt",
        "night-market-hero.txt",
        "the-mad-doctor-of-market-street.txt"
    ]
}