{
    "files": [
        "bob-james-keikomatsui-altair-vega.txt",
        "daily-lives-of-high-school-boys.txt",
        "japanese-devils.txt",
        "japanese-devils.txt",
        "pride-3.txt",
        "the-snake-girl-and-the-silver-haired-witch.txt"
    ]
}