{
    "files": [
        "along-the-great-divide.txt",
        "backfire.txt",
        "colorado-territory.txt",
        "desirable.txt",
        "flaxy-martin.txt",
        "fort-utah.txt",
        "gambling-lady.txt",
        "king-richard-and-the-crusaders.txt",
        "night-after-night.txt",
        "she-s-working-her-way-through-college.txt",
        "six-acts.txt",
        "south-sea-woman.txt",
        "starlift.txt",
        "the-silver-chalice.txt",
        "wednesday-afternoon.txt",
        "westbound.txt"
    ]
}