{
    "files": [
        "a-deeper-shade-of-blue.txt",
        "a-deeper-shade-of-blue.txt",
        "appointment-in-berlin.txt",
        "i-was-a-teenage-zombie.txt",
        "killer-mccoy.txt",
        "kiss-tomorrow-goodbye.txt",
        "mabel-and-fatty-s-wash-day.txt",
        "merely-a-married-man.txt",
        "rage-at-dawn.txt",
        "riders-of-the-west.txt",
        "the-last-rebel.txt",
        "the-players-club.txt",
        "we-re-puttin-on-the-ritz.txt",
        "wild-things-diamonds-in-the-rough.txt"
    ]
}