{
    "files": [
        "charge.txt",
        "desserts.txt",
        "little-voice.txt",
        "perfect-sense.txt",
        "primal-scream.txt",
        "stay.txt",
        "within-a-minute-the-making-of-episode-iii.txt"
    ]
}