{
    "files": [
        "cirque-du-soleil-journey-of-man.txt",
        "neverwas.txt",
        "the-hobbit-an-unexpected-journey.txt",
        "the-lord-of-the-rings-the-fellowship-of-the-ring.txt",
        "the-lord-of-the-rings-the-two-towers.txt"
    ]
}