{
    "files": [
        "a-bullet-is-waiting.txt",
        "coyote-ugly.txt",
        "hell-bent-for-leather.txt",
        "hell-s-five-hours.txt",
        "no-way-out.txt",
        "the-black-castle.txt",
        "violent-saturday.txt"
    ]
}