{
    "files": [
        "1313-bigfoot-island.txt",
        "1313-frankenqueen.txt",
        "embrace-the-darkness-iii.txt",
        "kung-fu-nurses-a-go-go.txt",
        "the-brain-from-planet-arous.txt",
        "x-he-s-always-watching.txt",
        "x-he-s-always-watching.txt"
    ]
}