{
    "files": [
        "meat-loaf-live-with-the-melbourne-symphony-orchestra.txt",
        "paul-stanley-live-in-melbourne.txt",
        "there-it-is.txt",
        "what-happened-to-jones.txt"
    ]
}