{
    "files": [
        "advance-to-the-rear.txt",
        "annie-oakley.txt",
        "good-girls-go-to-paris.txt",
        "mr-blandings-builds-his-dream-house.txt",
        "tell-no-tales.txt",
        "the-changeling.txt",
        "the-king-james-bible-the-book-that-changed-the-world.txt",
        "the-lone-wolf-returns.txt",
        "the-love-match.txt",
        "the-music-lovers.txt",
        "the-old-dark-house.txt"
    ]
}