{
    "files": [
        "a-room-with-a-view.txt",
        "quarter-life-crisis.txt",
        "quarter-life-crisis.txt",
        "roseland.txt",
        "stephen-merchant-hello-ladies-live.txt",
        "stephen-merchant-hello-ladies-live.txt",
        "the-flesh-merchant.txt",
        "the-guru.txt"
    ]
}