{
    "files": [
        "a-song-to-remember.txt",
        "casey-at-the-bat.txt",
        "goofy-gymnastics.txt",
        "the-employer.txt",
        "the-employer.txt",
        "the-lion-has-wings.txt",
        "the-price-of-fear.txt",
        "the-wind-in-the-willows.txt"
    ]
}