{
    "files": [
        "dead-of-night.txt",
        "escape.txt",
        "five-star-final.txt",
        "fools-for-scandal.txt",
        "hard-to-handle.txt",
        "high-pressure.txt",
        "johnny-eager.txt",
        "joyful-noise.txt",
        "million-dollar-mermaid.txt",
        "scrooge.txt",
        "three-on-a-match.txt"
    ]
}