{
    "files": [
        "bigard-met-le-paquet.txt",
        "guus-meeuwis-groots-met-een-zachte-g.txt",
        "harrie-jekkers-met-een-goudvis-naar-zee.txt",
        "i-met-the-walrus.txt",
        "m-a-n-met-andere-normen.txt",
        "robin-williams-a-night-at-the-met.txt",
        "when-brendan-met-trudy.txt",
        "when-lynch-met-lucas.txt"
    ]
}