{
    "files": [
        "bloodthirsty-butchers.txt",
        "legacy-of-blood.txt",
        "legacy-of-blood.txt",
        "monstrosity.txt",
        "surgikill.txt",
        "the-running-jumping-standing-still-film.txt",
        "whispers-and-lies.txt"
    ]
}