{
    "files": [
        "abandoned.txt",
        "boogeyman-3.txt",
        "cave-in.txt",
        "little-witches.txt",
        "mimi.txt",
        "ohne-krimi-geht-die-mimi-nie-ins-bett.txt",
        "return-to-the-hiding-place.txt",
        "someone-to-watch-over-me.txt",
        "steve-mcqueen-the-essence-of-cool.txt",
        "steve-mcqueen-the-essence-of-cool.txt",
        "the-accidental-husband.txt",
        "the-mighty-quinn.txt",
        "trapped.txt"
    ]
}