{
    "files": [
        "a-visit-from-miss-prothero.txt",
        "american-bukkake-29.txt",
        "at-the-bal-de-flore.txt",
        "at-the-bal-de-flore.txt",
        "brave-miss-world.txt",
        "danielle-dax-bad-miss-m-live.txt",
        "fireside-reminiscences.txt",
        "little-miss-marker.txt",
        "miss-dial.txt",
        "miss-fatty-s-seaside-lovers.txt",
        "miss-marple-sleeping-murder.txt",
        "miss-nobody.txt",
        "miss-novyj-god.txt",
        "miss-patty-cake-and-the-hullabaloo-zoo.txt",
        "miss-representation.txt",
        "our-miss-brooks.txt",
        "rescued-from-an-eagle-s-nest.txt",
        "the-mad-miss-manton.txt",
        "the-new-devil-in-miss-jones.txt",
        "traces.txt"
    ]
}