{
    "files": [
        "a-modern-musketeer.txt",
        "hearts-and-minds-2-modern-warfare.txt",
        "jaco-pastorius-modern-electric-bass.txt",
        "keep-the-river-on-your-right-a-modern-cannibal-tale.txt",
        "modern-talking-the-final-album-the-ultimate-dvd.txt"
    ]
}