{
    "files": [
        "a-bird-in-the-head.txt",
        "bedlam-in-paradise.txt",
        "eenie-meenie-miney-moe.txt",
        "fling-in-the-ring.txt",
        "fuelin-around.txt",
        "if-a-body-meets-a-body.txt",
        "monkey-businessmen.txt",
        "samurai-angel-wars.txt",
        "santa-preys-for-x-mas.txt",
        "sweet-and-hot.txt",
        "swing-parade-of-1946.txt",
        "tassels-in-the-air.txt",
        "tomie-unlimited.txt",
        "triple-crossed.txt",
        "wham-bam-slam.txt"
    ]
}