{
    "files": [
        "marriage-of-the-blessed.txt",
        "marriage-of-the-blessed.txt",
        "scream-of-the-ants.txt",
        "stardust-stricken-mohsen-makhmalbaf-a-portrait.txt",
        "stardust-stricken-mohsen-makhmalbaf-a-portrait.txt"
    ]
}