{
    "files": [
        "buford-s-beach-bunnies.txt",
        "chainsaw-sally.txt",
        "face-the-music.txt",
        "katie-tippel.txt",
        "loverboy.txt",
        "planet-of-the-erotic-ape.txt",
        "precious.txt",
        "stripshow.txt",
        "the-good-sisters.txt",
        "the-imaginarium-of-doctor-parnassus.txt",
        "the-secret-dreams-of-mona-q.txt",
        "the-truth-about-angels.txt",
        "the-umbrellas-of-cherbourg.txt"
    ]
}