{
    "files": [
        "canned-heat-live-at-montreux.txt",
        "casino-lights-99-live-at-the-montreux-jazz-festival.txt",
        "dr-john-the-lower-911-montreux-jazz-festival.txt",
        "gary-moore-the-midnight-blues-band-live-at-montreux-1990.txt",
        "george-benson-live-at-montreux.txt",
        "jethro-tull-live-at-montreux-2003.txt",
        "lee-ritenour-dave-grusin-jazzfestival-montreux.txt",
        "lou-reed-live-at-montreux.txt",
        "marvin-gaye-live-in-montreux-1980.txt",
        "super-guitar-trio-live-at-montreux-1989.txt"
    ]
}