{
    "files": [
        "angel-force.txt",
        "asian-fever-30.txt",
        "beyond-the-rising-moon.txt",
        "blood-red-moon.txt",
        "bratz-genie-magic.txt",
        "bratz-the-video-starrin-stylin.txt",
        "crazy-moon.txt",
        "dead-cold.txt",
        "devil-s-moon.txt",
        "eight-below.txt",
        "fatal-termination.txt",
        "halloween-ii.txt",
        "innocent-steps.txt",
        "journey-3-from-the-earth-to-the-moon.txt",
        "monkeys-catch-the-moon.txt",
        "montana-moon.txt",
        "moon-man.txt",
        "moon-over-miami.txt",
        "moon-pilot.txt",
        "moon-rider.txt",
        "moon-warriors.txt",
        "new-moon.txt",
        "night-of-the-dark-full-moon.txt",
        "paper-moon-affair.txt",
        "peppermint-candy.txt",
        "rabbit-s-moon.txt",
        "return-to-two-moon-junction.txt",
        "riddler-s-moon.txt",
        "sky-full-of-moon.txt",
        "the-devil-s-rejects.txt",
        "the-earth-rejects-him.txt",
        "the-insatiable-moon.txt",
        "the-romance.txt",
        "the-servant.txt",
        "voice-of-the-moon.txt",
        "waning-moon.txt",
        "women-seeking-women-volume-21.txt"
    ]
}