{
    "files": [
        "a-place-to-grow.txt",
        "after-midnight-with-boston-blackie.txt",
        "alias-boston-blackie.txt",
        "atlas.txt",
        "deep-valley.txt",
        "devil-in-the-flesh.txt",
        "dismal.txt",
        "double-exposure.txt",
        "fear-house.txt",
        "five-came-back.txt",
        "forgotten-silver.txt",
        "glass-a-portrait-of-philip-in-twelve-parts.txt",
        "hills-of-old-wyoming.txt",
        "i-ll-die-for-vengeance.txt",
        "i-thank-you.txt",
        "jimmy-carr-being-funny.txt",
        "lovers-and-lollipops.txt",
        "man-of-the-moment.txt",
        "martians-go-home.txt",
        "navigating-the-heart.txt",
        "no-hands-on-the-clock.txt",
        "not-easily-broken.txt",
        "public-hero-number-1.txt",
        "reel-evil.txt",
        "shaolin-wheel-of-life.txt",
        "she-couldn-t-say-no.txt",
        "sleepstalker.txt",
        "the-big-house.txt",
        "the-case-of-sergeant-grischa.txt",
        "the-fabulous-fraud.txt",
        "the-fugue.txt",
        "the-fugue.txt",
        "the-house-across-the-street.txt",
        "the-kid-from-kokomo.txt",
        "the-sorcerer-s-apprentice.txt",
        "tomorrow-at-seven.txt"
    ]
}