{
    "files": [
        "huckleberry-finn.txt",
        "most-high.txt",
        "rage-most-chosen.txt",
        "stewardess-school.txt",
        "the-most-dangerous-man-in-america-daniel-ellsberg-and-the-pentagon-papers.txt",
        "the-most-valuable-wife.txt",
        "the-yankles.txt"
    ]
}