{
    "files": [
        "13-frightened-girls.txt",
        "a-house-divided.txt",
        "air-hostess.txt",
        "arnold.txt",
        "baby-the-rain-must-fall.txt",
        "blue-eyed-butcher.txt",
        "bosko-s-picture-show.txt",
        "cougar-hunting.txt",
        "don-t-bet-on-love.txt",
        "everything-s-ducky.txt",
        "forever-s-not-so-long.txt",
        "hollow-triumph.txt",
        "justin-morgan-had-a-horse.txt",
        "kindergarten-cop.txt",
        "kindergarten-cop.txt",
        "larger-than-life.txt",
        "leonard-cohen-live-at-the-isle-of-wight-1970.txt",
        "maximum-breakout.txt",
        "meatballs.txt",
        "on-edge.txt",
        "passion-play.txt",
        "perestroika.txt",
        "pre-pop.txt",
        "primal-scream.txt",
        "primal-scream.txt",
        "rbs-inside-the-bank-that-ran-out-of-money.txt",
        "rock-baby-rock-it.txt",
        "sabu-and-the-magic-ring.txt",
        "salt.txt",
        "salt.txt",
        "shake-hands-with-the-devil.txt",
        "snipes.txt",
        "snipes.txt",
        "the-betty-boop-limited.txt",
        "the-four-dimensions-of-greta.txt",
        "the-plumber.txt",
        "the-wiggles-dorothy-the-dinosaur-s-party.txt",
        "the-wiggles-hoop-dee-doo.txt",
        "the-wiggles-pop-go-the-wiggles.txt",
        "the-wiggles-surfer-jeff.txt",
        "the-wiggles-you-make-me-feel-like-dancing.txt",
        "treed-murray.txt",
        "what-about-bob.txt"
    ]
}