{
    "files": [
        "baby-the-rain-must-fall.txt",
        "mallory-must-not-die.txt",
        "night-must-fall.txt",
        "romeo-must-die.txt",
        "stupid-teenagers-must-die.txt",
        "the-show-must-go-on.txt",
        "ushi-must-marry.txt"
    ]
}