{
    "files": [
        "america-stripped-naked-las-vegas.txt",
        "hold-me-while-i-m-naked.txt",
        "naked-island-the-land-of-1001-nudes.txt",
        "naked-killer.txt",
        "naked-lunch.txt",
        "naked-souls.txt",
        "naked-world-america-undercover.txt",
        "stripped-naked.txt"
    ]
}