{
    "files": [
        "20-years-after.txt",
        "all-my-presidents.txt",
        "alleged.txt",
        "dr-horrible-s-sing-along-blog.txt",
        "nicholas-nickleby.txt",
        "no-saints-for-sinners.txt",
        "out-of-the-clear-blue-sky.txt",
        "talihina-sky-the-story-of-kings-of-leon.txt",
        "tangled-ever-after.txt",
        "the-black-castle.txt",
        "the-blossoming-of-maximo-oliveros.txt",
        "the-brain-from-planet-arous.txt",
        "the-crypt.txt",
        "the-deadly-mantis.txt",
        "the-gamers-dorkness-rising.txt",
        "the-golden-blade.txt",
        "the-preacher-s-wife.txt",
        "this-revolution.txt",
        "tigerland.txt"
    ]
}