{
    "files": [
        "a-very-natural-thing.txt",
        "natural-city.txt",
        "natural-wonders-of-the-world-vol-66.txt",
        "o-amor-natural.txt",
        "the-world-natural-heritage-europe.txt",
        "the-world-natural-heritage-oceania.txt"
    ]
}