{
    "files": [
        "acoustic-at-the-bbc.txt",
        "assassin.txt",
        "back-in-business.txt",
        "boyfriends.txt",
        "boyfriends.txt",
        "breakfast-on-pluto.txt",
        "clear-and-present-danger.txt",
        "crowded-house-live-from-the-artists-den.txt",
        "dr-horrible-s-sing-along-blog.txt",
        "journey-through-the-past.txt",
        "lady-magdalene-s.txt",
        "lady-magdalene-s.txt",
        "lady-magdalene-s.txt",
        "mind-over-murder.txt",
        "moonwalk-one.txt",
        "my-big-fat-independent-movie.txt",
        "neil-young-in-berlin.txt",
        "neil-young-in-berlin.txt",
        "new-york.txt",
        "nexus.txt",
        "nexus.txt",
        "pat-benatar-live-the-summer-vacation-tour.txt",
        "piece-of-cake.txt",
        "piece-of-cake.txt",
        "plaza-suite.txt",
        "plaza-suite.txt",
        "possession.txt",
        "prairie-wind.txt",
        "purple-people-eater.txt",
        "queen-sized.txt",
        "rush-classic-albums-2112-moving-pictures.txt",
        "sebastiane.txt",
        "slices.txt",
        "tarzan-the-ape-man.txt",
        "the-adventures-of-buckaroo-banzai-across-the-8th-dimension.txt",
        "the-blossoming-of-maximo-oliveros.txt",
        "the-death-lords.txt",
        "the-emperor-s-club.txt",
        "the-heartbreak-kid.txt",
        "the-keeper-of-the-bees.txt",
        "the-little-kidnappers.txt",
        "the-perfect-marriage.txt",
        "the-roots-of-monthy-python.txt",
        "the-sunshine-boys.txt",
        "the-suspicions-of-mr-whicher-the-murder-at-road-hill-house.txt",
        "the-wedding-banquet.txt",
        "up-n-under.txt",
        "what-price-hollywood.txt",
        "yesterday-s-hero.txt"
    ]
}