{
    "files": [
        "jolly-fellows.txt",
        "rud-and-sam.txt",
        "the-hot-snow.txt",
        "the-lost-expedition.txt",
        "the-snow-maiden.txt",
        "volga-volga.txt"
    ]
}