{
    "files": [
        "bobik-visiting-barbos.txt",
        "chuk-and-gek.txt",
        "give-me-the-moonlight.txt",
        "height.txt",
        "help-the-doctor-is-drowning.txt",
        "i-wish-to-speak.txt",
        "kapitan-sovri-golova.txt",
        "ku-kin-dza-dza.txt",
        "makar-pathfinder.txt",
        "nasreddin-in-bukhara.txt",
        "the-captain-s-daughter.txt",
        "the-elder-son.txt",
        "the-magic-voyage-of-sinbad.txt",
        "the-tavern-on-pyatnitskaya.txt",
        "the-tavern-on-pyatnitskaya.txt",
        "zvenigora.txt"
    ]
}