{
    "files": [
        "circle-of-two.txt",
        "escape.txt",
        "ham-and-the-masked-marvel.txt",
        "the-capture-of-the-green-river-killer.txt",
        "the-christmas-hope.txt",
        "the-pastor-s-wife.txt",
        "the-return-of-dracula.txt",
        "the-waning-sex.txt",
        "windbag-the-sailor.txt"
    ]
}