{
    "files": [
        "gentlemen-of-nerve.txt",
        "helens-marriage.txt",
        "hide-and-seek.txt",
        "mabel-and-fatty-s-wash-day.txt",
        "mabel-s-new-hero.txt",
        "the-baron.txt",
        "what-happened-to-rosa.txt"
    ]
}