{
    "files": [
        "by-the-people-the-election-of-barack-obama.txt",
        "by-the-people-the-election-of-barack-obama.txt",
        "paul-mccartney-in-performance-at-the-white-house.txt",
        "president-barack-obama-the-man-and-his-journey.txt"
    ]
}