{
    "files": [
        "10-years-of-q-dance-de-feestfabriek.txt",
        "100-years-of-evil.txt",
        "12-08-east-of-bucharest.txt",
        "12-men-of-christmas.txt",
        "12-wishes-of-christmas.txt",
        "1313-night-of-the-widow.txt",
        "300-rise-of-an-empire.txt",
        "40-minutes-of-hell.txt",
        "4192-the-crowning-of-the-hit-king.txt",
        "6-days-to-air-the-making-of-south-park.txt",
        "6-degrees-of-hell.txt",
        "a-bitter-taste-of-freedom.txt",
        "a-bunch-of-amateurs.txt",
        "a-deeper-shade-of-blue.txt",
        "a-dog-of-flanders.txt",
        "a-dream-within-a-dream-the-making-of-picnic-at-hanging-rock.txt",
        "a-fantastic-fear-of-everything.txt",
        "a-gem-of-a-jam.txt",
        "a-hazard-of-hearts.txt",
        "a-history-of-the-blue-movie.txt",
        "a-king-s-story.txt",
        "a-king-s-story.txt",
        "a-life-of-her-own.txt",
        "a-little-bit-of-faith.txt",
        "a-man-with-a-maid-a-tale-of-victorian-lust.txt",
        "a-marriage-of-convenience.txt",
        "a-matter-of-life-and-death.txt",
        "a-murder-of-crows.txt",
        "a-nest-of-gentry.txt",
        "a-prize-of-gold.txt",
        "a-short-film-about-the-long-career-of-abel-ferrara.txt",
        "a-state-of-mind.txt",
        "a-suffragette-in-spite-of-himself.txt",
        "a-tale-of-lost-times.txt",
        "a-tale-of-two-cities.txt",
        "a-tale-of-two-mice.txt",
        "a-taste-of-cold-steel.txt",
        "a-taste-of-evil.txt",
        "a-thief-of-time.txt",
        "a-touch-of-zen.txt",
        "a-walk-through-h-the-reincarnation-of-an-ornithologist.txt",
        "a-way-of-life.txt",
        "a-woman-of-substance.txt",
        "ace-of-hearts.txt",
        "acres-of-ass-part-1.txt",
        "act-of-vengeance.txt",
        "adventures-of-a-teenage-dragonslayer.txt",
        "adventures-of-kitty-o-day.txt",
        "adventures-of-mowgli.txt",
        "adventures-of-power.txt",
        "adventures-of-sonic-the-hedgehog-the-fastest-thing-in-time.txt",
        "affairs-of-the-heart.txt",
        "ages-of-love.txt",
        "ahmad-shamlou-master-poet-of-liberty.txt",
        "alice-cooper-the-strange-case-of-alice-cooper.txt",
        "aliens-of-the-deep.txt",
        "all-of-me.txt",
        "almost-true-the-noble-art-of-forgery.txt",
        "amazing-world-of-ghosts.txt",
        "an-american-tail-the-treasure-of-manhattan-island.txt",
        "anaparastasis-life-work-of-jani-christou.txt",
        "and-the-pursuit-of-happiness.txt",
        "angel-of-vengeance.txt",
        "angkor-land-of-the-gods.txt",
        "anne-of-green-gables-a-new-beginning.txt",
        "anne-of-green-gables-the-continuing-story.txt",
        "anne-of-green-gables.txt",
        "anne-of-windy-poplars.txt",
        "anthrax-return-of-the-killer-a-s.txt",
        "antonia-a-portrait-of-the-woman.txt",
        "arch-of-triumph.txt",
        "art-of-mirrors.txt",
        "as-i-was-moving-ahead-occasionally-i-saw-brief-glimpses-of-beauty.txt",
        "ashes-of-time.txt",
        "attack-of-the-60-foot-centerfold.txt",
        "attack-of-the-puppet-people.txt",
        "attack-of-the-sabretooth.txt",
        "audience-of-one.txt",
        "autobiography-of-an-insect.txt",
        "avenge-but-one-of-my-two-eyes.txt",
        "ayumi-hamasaki-power-of-music-2011-limited-edition.txt",
        "ayurveda-art-of-being.txt",
        "b-b-king-the-life-of-riley.txt",
        "babar-king-of-the-elephants.txt",
        "baby-einstein-world-of-colors.txt",
        "baby-monitor-sound-of-fear.txt",
        "bad-boys-of-summer.txt",
        "ballad-of-a-soldier.txt",
        "balls-of-fury.txt",
        "band-of-angels.txt",
        "bandits-of-the-badlands.txt",
        "barbie-of-swan-lake.txt",
        "bare-essence-of-life.txt",
        "batman-beyond-return-of-the-joker.txt",
        "battle-of-the-chairmanship.txt",
        "battle-of-the-stars.txt",
        "battle-of-the-year.txt",
        "bbc-the-story-of-maths.txt",
        "because-of-eve.txt",
        "behemoth-live-eschaton-the-art-of-rebellion.txt",
        "behind-the-camera-the-unauthorized-story-of-charlie-s-angels.txt",
        "behind-the-ears-the-true-story-of-roger-rabbit.txt",
        "bells-of-rosarita.txt",
        "bend-of-the-river.txt",
        "benedict-arnold-a-question-of-honor.txt",
        "beware-of-barnacle-bill.txt",
        "beware-of-christians.txt",
        "beyond-the-frontiers-of-hate.txt",
        "big-bag-of.txt",
        "bill-of-hare.txt",
        "billy-joel-live-from-the-river-of-dreams.txt",
        "bionicle-2-legends-of-metru-nui.txt",
        "bitter-end-of-a-sweet-night.txt",
        "black-and-blue-legends-of-the-hip-hop-cop.txt",
        "black-belly-of-the-tarantula.txt",
        "black-mask-2-city-of-masks.txt",
        "black-white-gray-a-portrait-of-sam-wagstaff-and-robert-mapplethorpe.txt",
        "blades-of-blood.txt",
        "blood-of-dracula.txt",
        "blood-of-the-dragon-peril.txt",
        "blood-of-the-undead-the-unwanted.txt",
        "blood-reign-curse-of-the-yoma.txt",
        "bloodstained-clan-of-honor.txt",
        "bobby-jones-stroke-of-genius.txt",
        "body-of-the-prey.txt",
        "bodyguard-kiba-apocalypse-of-carnage.txt",
        "book-of-numbers.txt",
        "bored-of-the-rings.txt",
        "born-of-fire.txt",
        "boys-of-tomorrow.txt",
        "break-of-hearts.txt",
        "breaking-the-code-behind-the-walls-of-chris-jericho.txt",
        "bride-of-killer-nerd.txt",
        "bride-of-the-incredible-hulk.txt",
        "brighton-wok-the-legend-of-ganja-boxing.txt",
        "broadway-s-lost-treasures-iii-the-best-of-the-tony-awards.txt",
        "bruce-lee-in-pursuit-of-the-dragon.txt",
        "bunker-of-blood.txt",
        "buppha-rahtree-flower-of-the-night.txt",
        "burning-down-the-house-the-story-of-cbgb.txt",
        "busty-cops-and-the-jewel-of-denial.txt",
        "by-the-people-the-election-of-barack-obama.txt",
        "call-of-the-rockies.txt",
        "call-of-the-wild.txt",
        "cannibal-corpse-the-making-of-the-wretched-spawn.txt",
        "captain-america-sentinel-of-liberty.txt",
        "capture-of-boer-battery.txt",
        "car-of-dreams.txt",
        "caribbean-papaya-love-goddess-of-the-cannibals.txt",
        "carl-panzram-the-spirit-of-hatred-and-revenge.txt",
        "castle-of-de-sade.txt",
        "castle-of-the-banned-lovers.txt",
        "cattle-queen-of-montana.txt",
        "cavalcade-of-the-west.txt",
        "celebrating-bird-the-triumph-of-charlie-parker.txt",
        "center-of-the-web.txt",
        "centuries-of-june.txt",
        "challenge-of-the-masters.txt",
        "change-of-heart.txt",
        "change-of-mind.txt",
        "child-of-divorce.txt",
        "children-of-beslan.txt",
        "children-of-bodom-chaos-ridden-years.txt",
        "children-of-bodom-live-at-tuska.txt",
        "children-of-god.txt",
        "children-of-invention.txt",
        "children-of-the-dark.txt",
        "china-s-unnatural-disaster-the-tears-of-sichuan-province.txt",
        "christopher-titus-the-5th-annual-end-of-the-world-tour.txt",
        "chronicles-of-an-exorcism.txt",
        "cinematic-titanic-frankenstein-s-castle-of-freaks.txt",
        "circle-of-two.txt",
        "cirque-du-soleil-journey-of-man.txt",
        "citadels-of-the-mediterranean.txt",
        "city-of-shadows.txt",
        "clash-of-the-ash.txt",
        "class-of-1999.txt",
        "classic-albums-meat-loaf-bat-out-of-hell.txt",
        "classic-creatures-return-of-the-jedi.txt",
        "claymation-comedy-of-horrors.txt",
        "cleopatra-jones-and-the-casino-of-gold.txt",
        "clown-of-the-jungle.txt",
        "code-of-the-west.txt",
        "colt-in-the-hand-of-the-devil.txt",
        "coming-attractions-the-history-of-the-movie-trailer.txt",
        "coming-of-age.txt",
        "confessions-of-a-call-girl.txt",
        "confessions-of-a-sorority-girl.txt",
        "confessions-of-a-teenage-drama-queen.txt",
        "confessions-of-a-young-american-housewife.txt",
        "confessions-of-an-ex-doofus-itchy-footed-mutha.txt",
        "confessions-of-an-innocent-man.txt",
        "confessions-of-seka.txt",
        "conquest-of-cochise.txt",
        "conquest-of-the-earth.txt",
        "courier-of-death.txt",
        "court-of-lonely-royals.txt",
        "crash-landing-the-rescue-of-flight-232.txt",
        "creature-of-the-walking-dead.txt",
        "crimes-of-fashion.txt",
        "crimes-of-mike-recket.txt",
        "crimes-of-the-future.txt",
        "crossroads-of-youth.txt",
        "crusty-demons-of-dirt-1.txt",
        "crusty-demons-of-dirt-12-the-dirty-dozen.txt",
        "crusty-demons-of-dirt-global-assault-tour.txt",
        "crusty-x-a-decade-of-dirt.txt",
        "cry-of-the-werewolf.txt",
        "crying-freeman-1-portrait-of-a-killer.txt",
        "curse-of-the-deserted.txt",
        "curse-of-the-voodoo.txt",
        "curse-of-the-zodiac.txt",
        "cutting-edge-comedians-of-the-60s-70s.txt",
        "d-day-the-sixth-of-june.txt",
        "daily-lives-of-high-school-boys.txt",
        "dangers-of-the-canadian-mounted.txt",
        "dark-side-of-the-light.txt",
        "daughter-of-the-nile.txt",
        "day-of-the-evil-gun.txt",
        "days-of-dirt.txt",
        "days-of-eclipse.txt",
        "dead-of-night.txt",
        "death-of-the-dinosaur.txt",
        "death-wish-5-the-face-of-death.txt",
        "decoding-the-past-doomsday-2012-the-end-of-days.txt",
        "defence-of-the-realm.txt",
        "desperate-acts-of-magic.txt",
        "desperate-crossing-the-untold-story-of-the-mayflower.txt",
        "destination-forks-the-real-world-of-twilight.txt",
        "devils-of-monza.txt",
        "diameter-of-the-bomb.txt",
        "diamonds-for-the-dictatorship-of-the-proletariat.txt",
        "diary-of-a-suicide.txt",
        "digimon-island-of-the-lost-digimon.txt",
        "digimon-tamers-battle-of-adventurers.txt",
        "dirkie-lost-in-the-desert.txt",
        "dj-krush-history-of-dj-krush.txt",
        "dna-vs-the-book-of-mormon.txt",
        "doc-savage-the-man-of-bronze.txt",
        "doctor-death-seeker-of-souls.txt",
        "document-of-the-dead.txt",
        "doraemon-nobita-s-great-battle-of-the-mermaid-king.txt",
        "doraemons-the-great-operating-of-springing-insects.txt",
        "dorm-of-the-dead.txt",
        "dorothy-marie-and-the-unanswered-questions-of-the-zombie-apocalypse.txt",
        "dough-of-the-dead.txt",
        "dprk-the-land-of-whispers.txt",
        "dr-jeckyll-s-dungeon-of-death.txt",
        "dragonlance-dragons-of-autumn-twilight.txt",
        "dragons-gift-of-the-night-fury.txt",
        "drawing-dead-the-highs-and-lows-of-online-poker.txt",
        "dream-of-a-warrior.txt",
        "dream-storm-a-north-of-60-mystery.txt",
        "drums-of-africa.txt",
        "duel-of-champions.txt",
        "duel-of-masters.txt",
        "dust-of-life.txt",
        "dutch-guiana-land-of-the-djuka.txt",
        "dying-young-in-the-arms-of-a-widow.txt",
        "earth-the-power-of-the-planet.txt",
        "east-of-elephant-rock.txt",
        "east-of-ipswich.txt",
        "echoes-of-home.txt",
        "echoes-of-innocence.txt",
        "edge-of-america.txt",
        "edge-of-eternity.txt",
        "eiger-wall-of-death.txt",
        "eight-minutes-to-midnight-a-portrait-of-dr-helen-caldicott.txt",
        "el-dorado-city-of-gold.txt",
        "electric-edwardians-the-films-of-mitchell-and-kenyon.txt",
        "elusive-song-of-the-vampire.txt",
        "elvis-the-lonely-hunter-of-circle-beach.txt",
        "emotional-girl-doubt-of-distress.txt",
        "emperor-of-shaolin-kung-fu.txt",
        "empire-of-ash.txt",
        "empire-of-the-dark.txt",
        "empire-of-the-desert-ants.txt",
        "empire-st-pauli-on-strings-of-pearls-and-sending-offs.txt",
        "encounters-of-the-spooky-kind.txt",
        "end-of-the-line.txt",
        "end-of-the-road-how-money-became-worthless.txt",
        "end-of-the-road.txt",
        "endless-orgy-for-the-goddess-of-perversion.txt",
        "enemies-of-the-people.txt",
        "enslavement-the-true-story-of-fanny-kemble.txt",
        "erik-or-of-insects.txt",
        "erotic-diary-of-an-office-lady.txt",
        "escape-of-the-birdmen.txt",
        "eve-of-understanding.txt",
        "evil-breed-the-legend-of-samhain.txt",
        "eye-of-the-astronomer.txt",
        "eye-of-the-eagle-2-inside-the-enemy.txt",
        "eye-of-the-eagle.txt",
        "eyes-of-the-mothman.txt",
        "eyes-of-the-spider.txt",
        "eyes-of-the-underworld.txt",
        "face-of-a-fugitive.txt",
        "faces-of-death-fact-or-fiction.txt",
        "facets-of-love.txt",
        "fading-of-the-cries.txt",
        "family-of-lust.txt",
        "fangs-of-the-cobra.txt",
        "fate-of-graduates.txt",
        "father-of-the-bride.txt",
        "father-s-garden-the-love-of-my-parents.txt",
        "fear-of-clowns.txt",
        "female-mercenaries-2-the-mad-doctor-of-zombie-island.txt",
        "festival-of-lights.txt",
        "few-of-us.txt",
        "field-of-vision.txt",
        "final-fantasy-legend-of-the-crystals-iii-dragon-chapter.txt",
        "final-fantasy-legend-of-the-crystals-iv-star-chapter.txt",
        "firefist-of-incredible-dragon.txt",
        "fist-of-anger.txt",
        "fist-of-honor.txt",
        "fist-of-legend.txt",
        "fist-of-the-north-star-the-legend-of-kenshiro.txt",
        "fist-of-the-north-star-the-legend-of-kenshiro.txt",
        "fist-of-the-warrior.txt",
        "flight-of-the-aquanaut.txt",
        "force-of-circumstance.txt",
        "forces-of-nature.txt",
        "forever-activists-stories-from-the-veterans-of-the-abraham-lincoln-brigade.txt",
        "fortunes-of-captain-blood.txt",
        "fortunes-of-war.txt",
        "four-centuries-of-american-education.txt",
        "fractals-the-colors-of-infinity.txt",
        "free-radicals-a-history-of-experimental-film.txt",
        "freedom-call-gates-of-metal.txt",
        "friend-of-the-family.txt",
        "from-the-dead-of-night.txt",
        "from-the-edge-of-the-city.txt",
        "from-the-notebook-of.txt",
        "front-of-the-class.txt",
        "garden-of-delights.txt",
        "garden-of-love.txt",
        "gentlemen-of-nerve.txt",
        "ghosts-of-mars.txt",
        "gift-of-gab.txt",
        "girl-of-ghost-valley.txt",
        "girls-of-the-road.txt",
        "glass-a-portrait-of-philip-in-twelve-parts.txt",
        "gold-diggers-of-1935.txt",
        "gold-diggers-of-49.txt",
        "goodbye-bruce-lee-his-last-game-of-death.txt",
        "goodnight-for-justice-queen-of-hearts.txt",
        "gotham-uncovered-creation-of-a-scene.txt",
        "grace-of-my-heart.txt",
        "grand-old-duke-of-york.txt",
        "granddaughter-of-ice.txt",
        "grateful-dead-the-closing-of-winterland.txt",
        "greatest-heroes-and-legends-of-the-bible-david-and-goliath.txt",
        "greatest-heroes-and-legends-of-the-bible-noah-s-ark.txt",
        "greece-secrets-of-the-past.txt",
        "green-grass-of-wyoming.txt",
        "gregorian-masters-of-chant-chapter-3.txt",
        "gunter-lamoot-7-years-of-pure-genius.txt",
        "h-spencer-lewis-restorer-of-rosicrucianism.txt",
        "halls-of-montezuma.txt",
        "harlots-of-the-caribbean.txt",
        "hasten-slowly-the-journey-of-sir-laurens-van-der-post.txt",
        "haunts-of-the-very-rich.txt",
        "hawk-of-the-hills.txt",
        "hawkwind-knights-of-space.txt",
        "heart-of-arizona.txt",
        "heart-of-stone.txt",
        "heart-of-the-north.txt",
        "hearts-of-darkness-a-filmmaker-s-apocalypse.txt",
        "hearts-of-humanity.txt",
        "heat-of-the-flame.txt",
        "heaven-hell-neon-nights-30-years-of-heaven-and-hell.txt",
        "hellacious-acres-the-case-of-john-glass.txt",
        "heremias-book-one-the-legend-of-the-lizard-princess.txt",
        "heritage-of-the-desert.txt",
        "hiding-at-the-bottom-of-the-sea.txt",
        "high-tech-soul-the-creation-of-techno-music.txt",
        "hills-of-old-wyoming.txt",
        "his-kind-of-woman.txt",
        "history-of-the-joke.txt",
        "holt-of-the-secret-service.txt",
        "home-of-the-brave.txt",
        "homeless-the-motel-kids-of-orange-county.txt",
        "hood-of-the-living-dead.txt",
        "horror-hall-of-fame-a-monster-salute.txt",
        "horrors-of-the-black-museum.txt",
        "house-at-the-end-of-the-street.txt",
        "house-of-boys.txt",
        "house-of-games.txt",
        "hunters-since-the-beginning-of-time.txt",
        "i-dream-of-murder.txt",
        "i-dream-of-wires-hardcore-edition.txt",
        "i-was-a-teenage-zabbadoing-and-the-incredible-lusty-dust-whip-from-outer-space-conquers-the-earth-versus-the-3-psychedelic-stooges-of-dr-fun-helsing-and-fighting-against-surf-vampires-and-sex-nazis-and-have-troubles-with-this-endless-titillation-title.txt",
        "iced-earth-festivals-of-the-wicked.txt",
        "immortal-the-seventh-date-of-blashyrkh.txt",
        "in-august-of-1944.txt",
        "in-pursuit-of-honor.txt",
        "in-search-of-blind-joe-death-the-saga-of-john-fahey.txt",
        "in-search-of-blind-joe-death-the-saga-of-john-fahey.txt",
        "in-search-of-mozart.txt",
        "in-search-of-noah-s-ark.txt",
        "in-search-of-peace.txt",
        "in-search-of-steve-ditko.txt",
        "in-search-of.txt",
        "in-the-company-of-darkness.txt",
        "in-the-cool-of-the-day.txt",
        "in-the-land-of-milk-and-money.txt",
        "in-the-land-of-owl-turds.txt",
        "in-the-land-of-the-head-hunters.txt",
        "in-the-line-of-duty-3.txt",
        "in-the-teeth-of-jaws.txt",
        "in-the-zone-of-special-attention.txt",
        "in-time-of-need.txt",
        "invasion-of-the-body-snatchers.txt",
        "invasion-of-the-bunny-snatchers.txt",
        "invasion-of-the-love-drones.txt",
        "invocation-of-my-demon-brother.txt",
        "ishi-the-last-of-his-tribe.txt",
        "island-of-fire.txt",
        "isle-of-the-damned.txt",
        "it-is-useless-to-resist-us-25-years-of-information-society.txt",
        "it-s-alive-the-true-story-of-frankenstein.txt",
        "jack-of-all-trades.txt",
        "james-brown-live-from-the-house-of-blues.txt",
        "jane-doe-eye-of-the-beholder.txt",
        "janis-joplin-piece-of-my-heart.txt",
        "jason-byrne-out-of-the-box.txt",
        "jerusalem-center-of-the-world.txt",
        "jimi-hendrix-at-the-isle-of-wight.txt",
        "jimi-hendrix-live-at-the-isle-of-wight-blue-wild-angel.txt",
        "jock-of-the-bushveld.txt",
        "johnny-carson-his-favorite-moments-from-the-tonight-show-70s-80s-the-master-of-laughs.txt",
        "josh-kirby-time-warrior-planet-of-the-dino-knights.txt",
        "journal-of-a-contract-killer.txt",
        "journey-of-a-young-composer.txt",
        "journey-of-hope.txt",
        "joy-of-living.txt",
        "juliette-of-the-herbs.txt",
        "killer-of-sheep.txt",
        "king-of-california.txt",
        "king-of-kong-island.txt",
        "king-of-new-york.txt",
        "king-of-the-khyber-rifles.txt",
        "king-of-the-lost-world.txt",
        "king-of-the-pecos.txt",
        "king-of-the-rocket-men.txt",
        "king-of-the-travellers.txt",
        "kingdom-of-gladiators.txt",
        "kiss-of-fire.txt",
        "knights-of-bloodsteel.txt",
        "la-blue-girl-2-birth-of-the-demon-child.txt",
        "labyrinth-of-lies.txt",
        "ladies-of-the-big-house.txt",
        "lady-of-the-dynasty.txt",
        "lady-of-the-tropics.txt",
        "lady-of-vengeance.txt",
        "lake-of-fire.txt",
        "lamb-of-god-walk-with-me-in-hell.txt",
        "land-of-dreams.txt",
        "land-of-scarecrows.txt",
        "land-of-the-pharaohs.txt",
        "last-mysteries-of-the-titanic.txt",
        "last-night-of-the-bbc-proms-2010.txt",
        "last-ounce-of-courage.txt",
        "last-stand-of-the-300.txt",
        "law-of-the-lash.txt",
        "law-of-the-pampas.txt",
        "legacy-of-blood.txt",
        "legacy-of-rage.txt",
        "legend-of-the-dragonslayer-sword.txt",
        "legend-of-the-guardians-the-owls-of-ga-hoole.txt",
        "legend-of-the-guardians-the-owls-of-ga-hoole.txt",
        "legend-of-tianyun-mountain.txt",
        "lego-star-wars-revenge-of-the-brick.txt",
        "leonard-cohen-live-at-the-isle-of-wight-1970.txt",
        "les-claypool-5-gallons-of-diesel.txt",
        "letters-of-a-novice.txt",
        "liberty-s-kids-the-first-fourth-of-july.txt",
        "lies-of-love.txt",
        "lights-and-shadows-in-a-city-of-a-million.txt",
        "lizzies-of-the-field.txt",
        "london-2012-olympic-closing-ceremony-a-symphony-of-british-music.txt",
        "long-arm-of-the-law.txt",
        "lord-of-the-ants.txt",
        "lord-of-the-flies.txt",
        "lost-on-location-behind-the-scenes-of-lost-in-translation.txt",
        "lots-of-luck.txt",
        "love-in-the-nick-of-tyme.txt",
        "love-in-the-time-of-twilight.txt",
        "lump-of-sugar.txt",
        "mafalda-of-saboy.txt",
        "magic-bird-a-courtship-of-rivals.txt",
        "magic-of-the-dance.txt",
        "magnificent-voyage-of-christopher-columbus.txt",
        "malady-of-love.txt",
        "man-of-a-thousand-faces.txt",
        "man-of-africa.txt",
        "man-of-flowers.txt",
        "man-of-the-moment.txt",
        "manon-of-the-spring.txt",
        "mantis-fists-and-tiger-claws-of-shaolin.txt",
        "mark-of-the-astro-zombies.txt",
        "marriage-of-the-blessed.txt",
        "masters-of-menace.txt",
        "max-havoc-ring-of-fire.txt",
        "maybe-logic-the-lives-and-ideas-of-robert-anton-wilson.txt",
        "mayu-uchida-woman-of-more-than-180.txt",
        "mean-streets-of-kung-fu.txt",
        "meltdown-days-of-destruction.txt",
        "memories-of-midnight.txt",
        "men-of-honor.txt",
        "metallica-a-year-and-a-half-in-the-life-of-part-2.txt",
        "metallica-live-at-monsters-of-rock-1991.txt",
        "method-to-the-madness-of-jerry-lewis.txt",
        "michael-flatley-feet-of-flames.txt",
        "mickey-s-magical-christmas-snowed-in-at-the-house-of-mouse.txt",
        "mike-portnoy-ten-degrees-of-turbulent-drumming.txt",
        "mind-meld-secrets-behind-the-voyage-of-a-lifetime.txt",
        "minecraft-the-story-of-mojang.txt",
        "miracle-of-flight.txt",
        "monty-python-s-life-of-brian.txt",
        "moochie-of-pop-warner-football.txt",
        "morning-of-the-earth.txt",
        "mother-terese-in-the-name-of-god-s-poor.txt",
        "mr-immortality-the-life-and-times-of-twista.txt",
        "muse-the-making-of-the-2nd-law.txt",
        "my-heart-of-darkness.txt",
        "mysteries-of-the-deep.txt",
        "mystery-of-the-wax-museum.txt",
        "myths-and-logic-of-shaolin-kung-fu.txt",
        "naked-island-the-land-of-1001-nudes.txt",
        "nanook-of-the-north.txt",
        "naruto-the-movie-2-legend-of-the-stone-of-gelel.txt",
        "naruto-the-movie-2-legend-of-the-stone-of-gelel.txt",
        "natural-wonders-of-the-world-vol-66.txt",
        "nature-of-the-beast.txt",
        "necromania-a-tale-of-weird-love.txt",
        "new-adventures-of-captain-vrungel.txt",
        "new-adventures-of-puss-in-boots.txt",
        "new-tales-of-the-flying-fox.txt",
        "next-of-kin.txt",
        "nfl-history-of-the-denver-broncos.txt",
        "nick-of-time.txt",
        "night-of-horror.txt",
        "night-of-the-comet.txt",
        "night-of-the-dark-full-moon.txt",
        "night-of-the-dribbler.txt",
        "night-of-the-fox.txt",
        "night-of-the-juggler.txt",
        "night-of-the-lepus.txt",
        "night-of-the-living-dead-re-animation.txt",
        "night-of-the-sinner.txt",
        "nightmare-at-the-end-of-the-hall.txt",
        "nightwish-end-of-an-era.txt",
        "ninja-shadow-of-a-tear.txt",
        "ninja-vixens-flame-of-seduction.txt",
        "no-1-of-the-secret-service.txt",
        "no-4-street-of-our-lady.txt",
        "no-child-of-mine.txt",
        "nomads-of-the-north.txt",
        "not-of-this-earth.txt",
        "of-by-for.txt",
        "of-golf-and-god.txt",
        "of-human-bondage.txt",
        "of-mice-and-men.txt",
        "of-two-minds.txt",
        "old-bones-of-the-river.txt",
        "old-jane-of-the-gaiety.txt",
        "on-wings-of-eagles.txt",
        "one-day-in-the-life-of-andrei-arsenevich.txt",
        "one-night-choice-of-evil.txt",
        "one-night-stand-flight-of-the-conchords.txt",
        "one-out-of-two.txt",
        "one-touch-of-nature.txt",
        "origins-of-the-da-vinci-code.txt",
        "out-of-bounds.txt",
        "out-of-it.txt",
        "out-of-life.txt",
        "out-of-sight.txt",
        "out-of-the-blue.txt",
        "out-of-the-clear-blue-sky.txt",
        "out-of-the-woods.txt",
        "outlaw-of-gor.txt",
        "overlords-of-the-u-f-o.txt",
        "p-o-e-project-of-evil-p-o-e-2.txt",
        "pals-of-the-pecos.txt",
        "panorama-of-calcutta.txt",
        "panorama-of-cork-exhibition-grounds.txt",
        "panorama-of-galveston-power-house.txt",
        "parade-of-the-dead.txt",
        "paradise-lost-anatomy-of-melancholy.txt",
        "passionate-life-of-clemenceau.txt",
        "patagonia-3d-in-the-footsteps-of-charles-darwin.txt",
        "paul-gilbert-get-out-of-my-yard.txt",
        "paul-wilbur-a-night-of-extravagant-worship.txt",
        "pax-americana-and-the-weaponization-of-space.txt",
        "peculiarities-of-the-national-ice-fishing.txt",
        "people-of-a-feather.txt",
        "people-of-the-po-valley.txt",
        "perry-mason-the-case-of-the-glass-coffin.txt",
        "perry-mason-the-case-of-the-heartbroken-bride.txt",
        "perry-mason-the-case-of-the-reckless-romeo.txt",
        "phantom-museums-the-short-films-of-the-quay-brothers.txt",
        "phantom-of-the-opera.txt",
        "phantoms-of-nabua.txt",
        "piece-of-cake.txt",
        "pink-floyd-the-story-of-wish-you-were-here.txt",
        "planet-of-the-erotic-ape.txt",
        "play-mate-of-the-apes.txt",
        "playboy-s-girls-of-hooters.txt",
        "playgirls-of-munich.txt",
        "point-of-order.txt",
        "pope-john-paul-ii-builder-of-bridges.txt",
        "porn-business-of-pleasure.txt",
        "portrait-of-a-callgirl-dup.txt",
        "portrait-of-a-hitman.txt",
        "portrait-of-hell.txt",
        "portrait-of-teresa.txt",
        "portrait-of-the-artist-as-a-young-bunny.txt",
        "poultrygeist-night-of-the-chicken-dead.txt",
        "pretty-as-a-picture-the-art-of-david-lynch.txt",
        "prince-of-broadway.txt",
        "princess-of-the-sun.txt",
        "princess-of-thieves.txt",
        "prisoners-of-the-sun.txt",
        "private-gold-53-center-of-sex.txt",
        "private-gold-62-house-of-games.txt",
        "private-gold-64-cleopatra-2-the-legend-of-eros.txt",
        "prometheus-triumphant-a-fugue-in-the-key-of-flesh.txt",
        "protocols-of-zion.txt",
        "pseudo-blood-of-our-own.txt",
        "public-enemy-reflections-of-the-black-panthers.txt",
        "pursuit-of-a-killer.txt",
        "queen-of-the-lot.txt",
        "queens-of-the-stone-age-over-the-years-and-through-the-woods.txt",
        "quest-of-the-delta-knights.txt",
        "radiohead-the-king-of-limbs-from-the-basement.txt",
        "rage-20-years-of-punk-rock-west-coast-style.txt",
        "raiders-of-the-lost-skull.txt",
        "rain-of-the-children.txt",
        "rainforest-the-secret-of-life.txt",
        "rape-zombie-lust-of-the-dead.txt",
        "rbs-inside-the-bank-that-ran-out-of-money.txt",
        "reflections-of-light.txt",
        "reign-of-the-gargoyles.txt",
        "reminiscences-of-a-journey-to-lithuania.txt",
        "resurrection-of-the-little-match-girl.txt",
        "return-of-bruce.txt",
        "return-of-the-family-man.txt",
        "return-of-the-general.txt",
        "return-of-the-one-armed-swordsman.txt",
        "return-to-the-edge-of-the-world.txt",
        "revenge-of-the-electric-car.txt",
        "revenge-of-the-nerds-ii-nerds-in-paradise.txt",
        "revenge-of-the-nerds-iv-nerds-in-love.txt",
        "revenge-of-the-stepford-wives.txt",
        "reverse-of-the-curse-of-the-bambino.txt",
        "reverse-of-the-curse-of-the-bambino.txt",
        "revolution-of-everyday-life.txt",
        "richard-hammond-s-invisible-worlds-out-of-sight.txt",
        "richard-herring-the-twelve-tasks-of-hercules-terrace.txt",
        "richard-jeni-a-big-steaming-pile-of-me.txt",
        "rick-wakeman-the-six-wives-of-henry-viii.txt",
        "riders-of-the-deadline.txt",
        "riders-of-the-west.txt",
        "riders-of-the-whistling-pines.txt",
        "ring-of-fire.txt",
        "ring-of-steel.txt",
        "ring-of-terror.txt",
        "rise-of-the-black-bat.txt",
        "rise-of-the-footsoldier.txt",
        "rise-of-the-zombie.txt",
        "rites-of-passage.txt",
        "robert-plant-the-band-of-joy-live-from-the-artists-den.txt",
        "robin-of-locksley.txt",
        "robin-trower-living-out-of-time.txt",
        "rock-and-roll-hall-of-fame-live.txt",
        "rudolph-the-red-nosed-reindeer-the-island-of-misfit-toys.txt",
        "ruggles-of-red-gap.txt",
        "running-out-of-time-2.txt",
        "saga-curse-of-the-shadow.txt",
        "sammy-j-the-forest-of-dreams.txt",
        "san-francisco-aftermath-of-earthquake.txt",
        "santo-vs-the-riders-of-terror.txt",
        "saturday-nightmares-the-ultimate-horror-expo-of-all-time.txt",
        "school-of-seduction.txt",
        "scorpions-moment-of-glory-live-with-the-berlin-philharmonic-orchestra.txt",
        "scream-of-the-ants.txt",
        "scream-of-the-wolf.txt",
        "screaming-in-high-heels-the-rise-fall-of-the-scream-queen-era.txt",
        "sea-of-love.txt",
        "search-for-the-jewel-of-polaris-mysterious-museum.txt",
        "secret-mysteries-of-america-s-beginnings-volume-2-riddles-in-stone-the-secret-architecture-of-washington-d-c.txt",
        "secret-mysteries-of-america-s-beginnings-volume-2-riddles-in-stone-the-secret-architecture-of-washington-d-c.txt",
        "secrets-of-a-married-man.txt",
        "secrets-of-a-secretary.txt",
        "secrets-of-scotland-yard.txt",
        "seeds-of-resiliency.txt",
        "seeds-of-the-fall.txt",
        "seeds-of-tragedy.txt",
        "semiotics-of-the-kitchen.txt",
        "seven-cities-of-gold.txt",
        "shades-of-gray.txt",
        "shadow-of-a-candle.txt",
        "shadow-of-fear.txt",
        "shadows-of-the-orient.txt",
        "shaolin-wheel-of-life.txt",
        "she-s-alive-creating-the-bride-of-frankenstein.txt",
        "sheriff-of-cimarron.txt",
        "sheriff-of-tombstone.txt",
        "sherlock-holmes-a-game-of-shadows.txt",
        "sherlock-holmes-and-the-sign-of-four.txt",
        "short-of-love.txt",
        "sidewalks-of-bangkok.txt",
        "sidewalks-of-new-york.txt",
        "sighs-of-spain.txt",
        "silent-night-of-the-living-dead.txt",
        "sin-of-a-family.txt",
        "sinking-of-the-lusitania.txt",
        "sins-of-the-mother.txt",
        "six-degrees-of-separation.txt",
        "sky-full-of-moon.txt",
        "sky-of-love.txt",
        "smokey-joe-s-cafe-the-songs-of-leiber-and-stoller.txt",
        "snow-white-the-fairest-of-them-all.txt",
        "soldiers-of-conscience.txt",
        "son-of-dracula.txt",
        "son-of-flubber.txt",
        "son-of-india.txt",
        "son-of-sardaar.txt",
        "song-of-freedom.txt",
        "song-of-the-dead.txt",
        "song-of-the-islands.txt",
        "sons-of-the-sea.txt",
        "south-of-pico.txt",
        "south-of-santa-fe.txt",
        "south-of-the-border.txt",
        "souvenir-strip-of-the-edison-kinetoscope.txt",
        "speed-of-life.txt",
        "spy-kids-2-the-island-of-lost-dreams.txt",
        "standing-in-the-shadowns-of-mowtown.txt",
        "state-of-emergency.txt",
        "stations-of-the-elevated.txt",
        "steve-jobs-secrets-of-life.txt",
        "steve-mcqueen-the-essence-of-cool.txt",
        "stir-of-echoes-the-homecoming.txt",
        "story-of-one-crime.txt",
        "strangler-of-the-swamp.txt",
        "street-of-forgotten-women.txt",
        "summer-of-giacomo.txt",
        "superheroes-of-stoke.txt",
        "survival-of-the-woodchucks.txt",
        "swansong-story-of-occi-byrne.txt",
        "sweet-smell-of-success.txt",
        "sweetheart-of-the-fleet.txt",
        "swing-parade-of-1946.txt",
        "sword-of-lancelot.txt",
        "system-of-a-down-rock-in-rio-2011.txt",
        "system-of-a-down-toxicity-dvd.txt",
        "take-all-of-me.txt",
        "takut-faces-of-fear.txt",
        "tales-of-the-black-freighter.txt",
        "tales-of-the-night.txt",
        "talibe-the-least-favored-children-of-senegal.txt",
        "talihina-sky-the-story-of-kings-of-leon.txt",
        "talihina-sky-the-story-of-kings-of-leon.txt",
        "talons-of-the-eagle.txt",
        "tapestry-of-passion.txt",
        "tarzan-of-the-apes.txt",
        "taste-of-cherry.txt",
        "taste-of-fear.txt",
        "tears-of-the-sun.txt",
        "ten-brothers-of-shaolin.txt",
        "ten-tigers-of-kwangtung.txt",
        "the-10-conditions-of-love.txt",
        "the-30-foot-bride-of-candy-rock.txt",
        "the-7th-date-of-hell.txt",
        "the-adventure-of-sherlock-holmes-smarter-brother.txt",
        "the-adventures-of-buckaroo-banzai-across-the-8th-dimension.txt",
        "the-adventures-of-elmo-in-grouchland.txt",
        "the-adventures-of-errol-flynn.txt",
        "the-adventures-of-goopy-and-bagha.txt",
        "the-adventures-of-ociee-nash.txt",
        "the-affairs-of-dobie-gillis.txt",
        "the-american-matrix-age-of-deception.txt",
        "the-appointments-of-dennis-jennings.txt",
        "the-architecture-of-doom.txt",
        "the-art-of-flight-behind-the-scenes.txt",
        "the-art-of-nature-jellies-jellyfish-aquarium-dvd.txt",
        "the-atomic-states-of-america.txt",
        "the-ballad-of-cable-hogue.txt",
        "the-ballad-of-genesis-and-lady-jaye.txt",
        "the-ballad-of-josie.txt",
        "the-ballad-of-the-sad-cafe.txt",
        "the-ballad-of-the-weeping-spring.txt",
        "the-barber-of-siberia.txt",
        "the-battle-of-amfar.txt",
        "the-battle-of-kerzhenets.txt",
        "the-battle-of-midway.txt",
        "the-battle-of-the-alamo.txt",
        "the-battle-of-the-v-1.txt",
        "the-belle-of-new-york.txt",
        "the-belles-of-st-trinian-s.txt",
        "the-bells-of-st-mary-s.txt",
        "the-best-british-rock-concert-of-all-time-live-at-knebworth.txt",
        "the-best-day-of-my-life.txt",
        "the-best-of-times.txt",
        "the-biggest-bang-rest-of-the-world.txt",
        "the-black-sheep-of-whitehall.txt",
        "the-blood-of-yingzhou-district.txt",
        "the-blossoming-of-maximo-oliveros.txt",
        "the-bonfire-of-the-vanities.txt",
        "the-book-of-esther.txt",
        "the-book-of-revelation.txt",
        "the-book-of-the-dead.txt",
        "the-botany-of-desire.txt",
        "the-boy-who-plays-on-the-buddhas-of-bamiyan.txt",
        "the-brides-of-dracula.txt",
        "the-broadcast-tapes-of-dr-peter.txt",
        "the-brutal-hopelessness-of-love.txt",
        "the-business-of-fancydancing.txt",
        "the-cabinet-of-caligari.txt",
        "the-capture-of-the-green-river-killer.txt",
        "the-career-of-a-chambermaid.txt",
        "the-case-of-itaewon-homicide.txt",
        "the-case-of-sergeant-grischa.txt",
        "the-castle-of-others.txt",
        "the-cat-of-the-worm-s-green-realm.txt",
        "the-charge-of-the-light-brigade.txt",
        "the-charm-of-others.txt",
        "the-cockeyed-cowboys-of-calico-county.txt",
        "the-color-of-the-chameleon.txt",
        "the-continuing-story-of-carel-and-ferd.txt",
        "the-cost-of-love.txt",
        "the-count-of-monte-cristo.txt",
        "the-crazy-rulers-of-the-world.txt",
        "the-creators-of-the-shopping-worlds.txt",
        "the-crimson-wing-mystery-of-the-flamingos.txt",
        "the-cry-of-jazz.txt",
        "the-curators-of-dixon-school.txt",
        "the-dance-of-the-paroxysms.txt",
        "the-dark-glow-of-the-mountain.txt",
        "the-dark-side-of-briana.txt",
        "the-dark-side-of-chocolate.txt",
        "the-dark-side-of-midnight.txt",
        "the-darkness-of-day.txt",
        "the-daughters-of-kim-s-pharmacy.txt",
        "the-dead-man-2-return-of-the-dead-man.txt",
        "the-death-of-a-working-man-s-newspaper.txt",
        "the-death-of-poe.txt",
        "the-death-of-richie.txt",
        "the-death-of-the-incredible-hulk.txt",
        "the-departure-of-a-great-old-man.txt",
        "the-depot-of-the-dead.txt",
        "the-descendant-of-wing-chun.txt",
        "the-desert-of-the-tartars.txt",
        "the-disappearance-of-finbar.txt",
        "the-doolins-of-oklahoma.txt",
        "the-dragon-vs-needles-of-death.txt",
        "the-dukes-of-hazzard-reunion.txt",
        "the-effect-of-gamma-rays-on-man-in-the-moon-marigolds.txt",
        "the-emperor-of-atlantis.txt",
        "the-end-of-a-priest.txt",
        "the-end-of-the-world-in-four-seasons.txt",
        "the-enemies-of-reason.txt",
        "the-enigma-of-nasca.txt",
        "the-erotic-world-of-seka.txt",
        "the-eschatrilogy-book-of-the-dead.txt",
        "the-evidence-of-the-film.txt",
        "the-execution-of-private-slovik.txt",
        "the-face-of-eve.txt",
        "the-fairy-king-of-ar.txt",
        "the-fairy-of-the-surf.txt",
        "the-fall-of-the-romanov-dynasty.txt",
        "the-fate-of-the-artist-s-model.txt",
        "the-father-of-a-soldier.txt",
        "the-feast-of-stephen.txt",
        "the-film-of-her.txt",
        "the-first-christmas-the-story-of-the-first-christmas-snow.txt",
        "the-first-of-the-few.txt",
        "the-flag-of-iron.txt",
        "the-founding-of-a-republic.txt",
        "the-four-dimensions-of-greta.txt",
        "the-four-musicians-of-bremen.txt",
        "the-further-adventures-of-uncle-sam.txt",
        "the-future-of-fear.txt",
        "the-gambler-returns-the-luck-of-the-draw.txt",
        "the-garden-of-allah.txt",
        "the-garden-of-sinners-chapter-1-thanatos-overlooking-view.txt",
        "the-garden-of-the-finzi-continis.txt",
        "the-ghost-of-frankenstein.txt",
        "the-ghost-train-of-manggarai.txt",
        "the-giants-of-thessaly.txt",
        "the-greater-meaning-of-water.txt",
        "the-greening-of-whitney-brown.txt",
        "the-halls-of-montezuma.txt",
        "the-harsh-light-of-day.txt",
        "the-hart-of-london.txt",
        "the-haunting-of-hell-house.txt",
        "the-haunting-of-sorority-row.txt",
        "the-heart-of-jenin.txt",
        "the-heathens-of-kummerow.txt",
        "the-hidden-history-of-egypt.txt",
        "the-hidden-history-of-rome.txt",
        "the-history-of-final-fantasy.txt",
        "the-history-of-the-world-episode-10-the-discovery-of-language.txt",
        "the-history-of-the-world-episode-10-the-discovery-of-language.txt",
        "the-horror-of-it-all.txt",
        "the-house-of-good-returns.txt",
        "the-howards-of-virginia.txt",
        "the-iguana-with-the-tongue-of-fire.txt",
        "the-imaginarium-of-doctor-parnassus.txt",
        "the-immortal-voyage-of-captain-drake.txt",
        "the-incredible-journey-of-the-butterflies.txt",
        "the-incredible-journey-of-the-monarch-butterfly.txt",
        "the-initiation-of-nikki-jayne.txt",
        "the-initiation-of-sarah.txt",
        "the-innocence-of-youth.txt",
        "the-inspectors-2-a-shred-of-evidence.txt",
        "the-interrogation-of-michael-crowe.txt",
        "the-invention-of-lying.txt",
        "the-island-of-dr-moreau.txt",
        "the-journey-of-natty-gann.txt",
        "the-keeper-of-the-bees.txt",
        "the-kelly-family-the-making-of-la-patata.txt",
        "the-kingdom-of-heaven.txt",
        "the-kingdom-of-solomon.txt",
        "the-kiss-of-her-flesh.txt",
        "the-ladies-of-the-house.txt",
        "the-last-day-of-august.txt",
        "the-last-drop-of-water.txt",
        "the-last-of-the-finest.txt",
        "the-legend-of-bigfoot.txt",
        "the-legend-of-coyote-rock.txt",
        "the-legend-of-hercules.txt",
        "the-legend-of-lucy-keyes.txt",
        "the-legend-of-sasquatch.txt",
        "the-legend-of-suram-fortress.txt",
        "the-legend-of-the-swordsman.txt",
        "the-legends-of-nethiah.txt",
        "the-life-adventures-of-santa-claus.txt",
        "the-life-and-adventures-of-nicholas-nickleby.txt",
        "the-life-and-death-of-king-john.txt",
        "the-life-and-death-of-peter-sellers.txt",
        "the-life-and-times-of-judge-roy-bean.txt",
        "the-life-of-henry-the-fifth.txt",
        "the-life-of-matsu-the-untamed.txt",
        "the-life-of-reilly.txt",
        "the-life-of-the-party.txt",
        "the-light-at-the-edge-of-the-world.txt",
        "the-lights-of-new-york.txt",
        "the-lion-of-punjab.txt",
        "the-little-theatre-of-jean-renoir.txt",
        "the-living-dead-three-films-about-the-power-of-the-past.txt",
        "the-long-swift-sword-of-siegfried.txt",
        "the-lord-of-the-g-strings-the-femaleship-of-the-string.txt",
        "the-lord-of-the-g-strings-the-femaleship-of-the-string.txt",
        "the-lord-of-the-rings-the-fellowship-of-the-ring.txt",
        "the-lord-of-the-rings-the-fellowship-of-the-ring.txt",
        "the-lord-of-the-rings-the-two-towers.txt",
        "the-lost-skeleton-of-cadavra.txt",
        "the-love-of-her-life.txt",
        "the-mad-doctor-of-market-street.txt",
        "the-mad-love-life-of-a-hot-vampire.txt",
        "the-madness-and-misadventures-of-munchausen.txt",
        "the-magic-voyage-of-sinbad.txt",
        "the-making-of-flying-colors.txt",
        "the-making-of-psycho.txt",
        "the-making-of-steven-spielberg-s-jaws.txt",
        "the-mammals-of-victoria.txt",
        "the-man-of-destiny.txt",
        "the-mark-of-zorro.txt",
        "the-master-of-disguise.txt",
        "the-mating-habits-of-the-earthbound-human.txt",
        "the-medical-aspects-of-nuclear-radiation.txt",
        "the-million-eyes-of-sumuru.txt",
        "the-miracle-of-the-bells.txt",
        "the-misadventures-of-merlin-jones.txt",
        "the-mists-of-avalon.txt",
        "the-moody-blues-hall-of-fame-live-from-the-royal-albert-hall.txt",
        "the-muppet-musicians-of-bremen.txt",
        "the-murder-of-mary-phagan.txt",
        "the-mystery-of-a-hansom-cab.txt",
        "the-mystery-of-chess-boxing.txt",
        "the-mystery-of-mr-wong.txt",
        "the-necessary-death-of-charlie-countryman.txt",
        "the-news-parade-of-1934.txt",
        "the-night-of-all-fears.txt",
        "the-night-of-the-cat.txt",
        "the-night-of-the-grizzly.txt",
        "the-obsessed-of-catale.txt",
        "the-order-of-myths.txt",
        "the-origin-of-humans.txt",
        "the-other-side-of-gentleman.txt",
        "the-other-side-of-immigration.txt",
        "the-other-side-of-paradise.txt",
        "the-other-side-of-the-tracks.txt",
        "the-parables-of-jesus.txt",
        "the-passion-of-the-christ.txt",
        "the-path-of-evil.txt",
        "the-perfect-age-of-rock-n-roll.txt",
        "the-phable-of-a-busted-romance.txt",
        "the-pied-piper-of-hamelin.txt",
        "the-pirates-of-blood-river.txt",
        "the-pleasure-of-his-company.txt",
        "the-poem-of-the-wind-and-the-trees.txt",
        "the-power-of-community-how-cuba-survived-peak-oil.txt",
        "the-power-of-hypnosis.txt",
        "the-power-of-one.txt",
        "the-price-of-fear.txt",
        "the-prince-of-egypt.txt",
        "the-private-life-of-tarra-white-3.txt",
        "the-profession-of-arms.txt",
        "the-purple-rose-of-cairo.txt",
        "the-pursuit-of-d-b-cooper.txt",
        "the-pursuit-of-function.txt",
        "the-rape-of-richard-beck.txt",
        "the-rats-of-tobruk.txt",
        "the-rebellion-of-red-maria.txt",
        "the-rebirth-of-buddha.txt",
        "the-republic-of-shkid.txt",
        "the-restaurant-of-many-orders.txt",
        "the-return-of-count-yorga.txt",
        "the-return-of-dracula.txt",
        "the-return-of-draw-egan.txt",
        "the-return-of-ironside.txt",
        "the-return-of-sister-street-fighter.txt",
        "the-return-of-the-six-million-dollar-man-and-the-bionic-woman.txt",
        "the-return-of-the-soldier.txt",
        "the-return-of-the-war-room.txt",
        "the-revenge-of-the-teenage-vixens-from-outer-space.txt",
        "the-revolt-of-mamie-stover.txt",
        "the-rise-and-fall-of-five-iron-frenzy.txt",
        "the-rise-and-fall-of-the-great-lakes.txt",
        "the-rise-fall-of-a-white-collar-hooligan.txt",
        "the-rise-of-the-roman-empress.txt",
        "the-rolling-stones-tip-of-the-tongue.txt",
        "the-roots-of-monthy-python.txt",
        "the-sands-of-dee.txt",
        "the-scourge-of-worlds-a-dungeons-dragons-adventure.txt",
        "the-secret-adventures-of-tom-thumb.txt",
        "the-secret-dreams-of-mona-q.txt",
        "the-secret-of-dr-kildare.txt",
        "the-secret-of-madame-blanche.txt",
        "the-secret-of-seagull-island.txt",
        "the-secret-of-the-marquise.txt",
        "the-secret-of-the-old-woods.txt",
        "the-secret-of-the-telegian.txt",
        "the-secret-of-the-urn.txt",
        "the-secret-of-yolanda.txt",
        "the-seven-commandments-of-kung-fu.txt",
        "the-seven-of-daran-battle-of-pareo-rock.txt",
        "the-seven-of-daran-battle-of-pareo-rock.txt",
        "the-seven-spiritual-laws-of-success.txt",
        "the-seventh-master-of-the-house.txt",
        "the-shadow-of-chikara.txt",
        "the-shape-of-rex.txt",
        "the-siege-of-firebase-gloria.txt",
        "the-sin-of-nora-moran.txt",
        "the-song-of-ceylon.txt",
        "the-song-of-fame.txt",
        "the-song-of-roland.txt",
        "the-song-of-songs.txt",
        "the-soul-of-nigger-charley.txt",
        "the-soul-of-the-cypress.txt",
        "the-sound-of-silence-the-making-of-the-lodger.txt",
        "the-sound-of-silence-the-making-of-the-lodger.txt",
        "the-spirit-of-45.txt",
        "the-stink-of-flesh.txt",
        "the-story-of-alexander-graham-bell.txt",
        "the-story-of-bottled-water.txt",
        "the-story-of-daisy.txt",
        "the-story-of-jazz.txt",
        "the-story-of-menstruation.txt",
        "the-story-of-molly-x.txt",
        "the-story-of-robin-hood-and-his-merrie-men.txt",
        "the-story-of-short-stack.txt",
        "the-story-of-temple-drake.txt",
        "the-story-of-us.txt",
        "the-strange-case-of-wilhelm-reich.txt",
        "the-strange-possession-of-mrs-oliver.txt",
        "the-summer-of-massacre.txt",
        "the-suspended-step-of-the-stork.txt",
        "the-suspicions-of-mr-whicher-the-murder-at-road-hill-house.txt",
        "the-sweet-body-of-deborah.txt",
        "the-sword-of-bushido.txt",
        "the-sword-of-the-barbarians.txt",
        "the-tale-of-the-priest-and-of-his-workman-balda.txt",
        "the-tale-of-the-priest-and-of-his-workman-balda.txt",
        "the-temple-of-love.txt",
        "the-third-part-of-henry-the-sixt.txt",
        "the-three-faces-of-terror.txt",
        "the-thrill-of-it-all.txt",
        "the-throne-of-hell.txt",
        "the-ticket-of-leave-man.txt",
        "the-times-of-harvey-milk.txt",
        "the-toll-of-the-sea.txt",
        "the-tragedy-of-coriolanus.txt",
        "the-treasure-of-abbot-thomas.txt",
        "the-true-story-of-jesse-james.txt",
        "the-tunnel-dwellers-of-new-york.txt",
        "the-turn-of-the-screw.txt",
        "the-tuttles-of-tahiti.txt",
        "the-umbrellas-of-cherbourg.txt",
        "the-unintentional-kidnapping-of-mrs-elfriede-ott.txt",
        "the-valley-of-light.txt",
        "the-velvet-underground-and-nico-a-symphony-of-sound.txt",
        "the-vicar-of-wakefield.txt",
        "the-voice-of-the-master.txt",
        "the-walls-of-sana-a.txt",
        "the-war-of-33-letters-from-beirut.txt",
        "the-war-of-the-volcanoes.txt",
        "the-wave-of-rage.txt",
        "the-way-of-the-bboy.txt",
        "the-way-of-the-gun.txt",
        "the-way-of-war.txt",
        "the-weight-of-chains.txt",
        "the-western-world-of-ferdinando-baldi.txt",
        "the-wheel-of-love.txt",
        "the-winning-of-barbara-worth.txt",
        "the-wizard-of-loneliness.txt",
        "the-wizard-of-oz.txt",
        "the-wolves-of-kromer.txt",
        "the-women-of-brukman.txt",
        "the-wonderful-wizard-of-oz-storybook.txt",
        "the-world-of-peter-rabbit-and-friends.txt",
        "the-world-of-strawberry-shortcake.txt",
        "the-worst-christmas-of-my-life.txt",
        "the-worst-man-of-my-life.txt",
        "the-wrath-of-cain.txt",
        "the-year-of-the-first-kiss.txt",
        "the-yeomen-of-the-guard-the-g-s-opera-company.txt",
        "theresa-the-body-of-christ.txt",
        "they-re-out-of-the-business.txt",
        "this-is-law-out-of-justice.txt",
        "thomas-friends-day-of-the-diesels.txt",
        "three-days-of-the-condor.txt",
        "three-kingdoms-resurrection-of-the-dragon.txt",
        "three-of-a-kind.txt",
        "thrill-of-the-kill.txt",
        "thunderhead-son-of-flicka.txt",
        "tiamat-the-church-of-tiamat.txt",
        "tie-xi-qu-west-of-the-tracks.txt",
        "to-fight-for-the-year-of-decision.txt",
        "toll-of-the-desert.txt",
        "tom-and-jerry-the-wizard-of-oz.txt",
        "top-of-the-food-chain.txt",
        "top-of-the-world.txt",
        "torrents-of-spring.txt",
        "towa-no-quon-3-the-complicity-of-dreams.txt",
        "towa-no-quon-5-the-return-of-the-invincible.txt",
        "tower-of-london.txt",
        "tower-of-power-in-concert-ohne-filter.txt",
        "tower-of-terror.txt",
        "traces-of-death-ii.txt",
        "train-of-events.txt",
        "treasure-of-monte-cristo.txt",
        "treasures-of-the-snow.txt",
        "trilogy-of-lust.txt",
        "trilogy-of-swordsmanship.txt",
        "true-confessions-of-a-go-go-girl.txt",
        "turn-me-on-the-history-of-the-vibrator.txt",
        "twilight-of-the-dogs.txt",
        "two-acres-of-land.txt",
        "ufc-5-return-of-the-beast.txt",
        "underworld-rise-of-the-lycans.txt",
        "unico-in-the-island-of-magic.txt",
        "unidentified-flying-objects-the-true-story-of-flying-saucers.txt",
        "usurpers-of-emperor-s-power.txt",
        "valley-of-fire.txt",
        "valley-of-strength.txt",
        "valley-of-wanted-men.txt",
        "vampire-of-quezon-city.txt",
        "velasquez-the-painter-of-painters.txt",
        "visions-of-ecstasy.txt",
        "visions-of-passion.txt",
        "visions-of-the-sea.txt",
        "vogues-of-1938.txt",
        "voice-of-the-moon.txt",
        "voyage-of-the-rock-aliens.txt",
        "waltz-of-the-toreadors.txt",
        "wanderers-of-the-desert.txt",
        "war-dogs-of-the-pacific.txt",
        "war-of-the-planets.txt",
        "war-of-the-shaolin-temple.txt",
        "warriors-of-the-net.txt",
        "way-of-nature.txt",
        "way-of-passion.txt",
        "we-think-the-world-of-you.txt",
        "welcome-to-sherwood-the-story-of-the-adventures-of-robin-hood.txt",
        "welcome-to-sherwood-the-story-of-the-adventures-of-robin-hood.txt",
        "werewolf-of-london.txt",
        "white-fang-2-myth-of-the-white-wolf.txt",
        "white-wolves-iii-cry-of-the-white-wolf.txt",
        "wings-of-the-morning.txt",
        "witches-of-the-caribbean.txt",
        "within-a-minute-the-making-of-episode-iii.txt",
        "wobble-the-weight-of-the-truth.txt",
        "woman-is-the-future-of-man.txt",
        "words-of-witness.txt",
        "world-express-mistery-of-the-maya.txt",
        "wrc-history-of-the-wrc.txt",
        "wrecks-of-truk-lagoon.txt",
        "wrong-side-of-town.txt",
        "wwe-greatest-wrestling-stars-of-the-80-s.txt",
        "wwe-history-of-the-world-heavyweight-championship.txt",
        "wwe-the-greatest-cage-matches-of-all-time.txt",
        "wwe-the-legacy-of-stone-cold-steve-austin.txt",
        "wwe-the-rise-fall-of-ecw.txt",
        "x-men-pryde-of-the-x-men.txt",
        "x-men-the-legend-of-wolverine.txt",
        "year-of-the-gun.txt",
        "yeti-curse-of-the-snow-demon.txt",
        "zazel-the-scent-of-love.txt",
        "zombie-bloodbath-2-rage-of-the-undead.txt",
        "zombies-of-the-stratosphere.txt"
    ]
}