{
    "files": [
        "69-bree-street.txt",
        "amityville-ii-the-possession.txt",
        "jesse-jane-lust.txt",
        "killer-bodies-the-awakening.txt",
        "the-scratch.txt",
        "watercolors.txt",
        "women-seeking-women-volume-35.txt"
    ]
}