{
    "files": [
        "brothers.txt",
        "circle-of-two.txt",
        "corky.txt",
        "faithful.txt",
        "i-love-a-mystery.txt",
        "kazaam.txt",
        "love-story.txt",
        "night-of-the-dark-full-moon.txt",
        "small-sacrifices.txt",
        "the-main-event.txt",
        "the-scoundrel-s-wife.txt",
        "zero-effect.txt"
    ]
}