{
    "files": [
        "breast-men.txt",
        "buffy-the-vampire-slayer-xxx-a-parody.txt",
        "busty-housewives-4.txt",
        "classic-creatures-return-of-the-jedi.txt",
        "i-am-the-law.txt",
        "tower-of-london.txt"
    ]
}