{
    "files": [
        "711-ocean-drive.txt",
        "angel-face.txt",
        "angel-face.txt",
        "astronomeous.txt",
        "behind-green-lights.txt",
        "carmen-jones.txt",
        "clearing-the-range.txt",
        "dracula-s-daughter.txt",
        "dragons-gift-of-the-night-fury.txt",
        "eats-are-west.txt",
        "felix-gets-broadcasted.txt",
        "felix-in-fairyland.txt",
        "felix-the-cat-ducks-his-duty.txt",
        "fighting-caravans.txt",
        "goofy-and-wilbur.txt",
        "it-s-a-small-world.txt",
        "johanna-und-der-buschpilot-die-legende-der-kraniche.txt",
        "postal-inspector.txt",
        "the-man-with-the-golden-arm.txt",
        "the-man-with-the-golden-arm.txt",
        "the-pineapple-story.txt",
        "tough-and-deadly.txt",
        "two-queens-and-one-consort.txt",
        "two-queens-and-one-consort.txt"
    ]
}