{
    "files": [
        "paddle-to-seattle-journey-through-the-inside-passage.txt",
        "passage-d-un-tunnel-en-chemin-de-fer.txt",
        "rites-of-passage.txt",
        "the-passage.txt"
    ]
}