{
    "files": [
        "2008-boston-celtics-official-nba-finals-film.txt",
        "3-misses.txt",
        "50-ways-to-leave-your-lover.txt",
        "7-up.txt",
        "a-chess-dispute.txt",
        "a-fantastic-fear-of-everything.txt",
        "a-journey-with-paul-cox.txt",
        "a-song-to-remember.txt",
        "a-switchback-railway.txt",
        "aaron-albeit-a-sex-hero.txt",
        "adele-live-at-the-royal-albert-hall.txt",
        "africa-speaks.txt",
        "alias-boston-blackie.txt",
        "alienator.txt",
        "allibhai.txt",
        "amazing-milf-rack.txt",
        "american-beer.txt",
        "american-beer.txt",
        "american-beer.txt",
        "american-beer.txt",
        "american-scream-king.txt",
        "american-scream-king.txt",
        "an-exciting-pillow-fight.txt",
        "angels-in-the-outfield.txt",
        "army-life.txt",
        "army-life.txt",
        "australian-wines.txt",
        "babes-in-toyland.txt",
        "babes-in-toyland.txt",
        "bad-burns.txt",
        "bad-company-live-at-wembley.txt",
        "basketball-jones.txt",
        "bassie-en-adriaan-en-de-verzonken-stad.txt",
        "batman-beyond-return-of-the-joker.txt",
        "beasties.txt",
        "beasties.txt",
        "beauty-for-the-asking.txt",
        "bedfellows.txt",
        "ben-10-destroy-all-aliens.txt",
        "berserker.txt",
        "berserker.txt",
        "berserker.txt",
        "betrayed-at-17.txt",
        "beyond-loch-ness.txt",
        "beyond-loch-ness.txt",
        "big-momma-s-house.txt",
        "big-top-pee-wee.txt",
        "big-top-pee-wee.txt",
        "bionicle-2-legends-of-metru-nui.txt",
        "black-rider.txt",
        "blond-cheat.txt",
        "blood-dolls.txt",
        "blood-of-the-dragon-peril.txt",
        "blue-collar.txt",
        "blue-collar.txt",
        "breeders.txt",
        "briana-loves-rocco.txt",
        "brute-corps.txt",
        "bulletproof-monk.txt",
        "cactus.txt",
        "cactus.txt",
        "call-me-claus.txt",
        "camp-rock-2-the-final-jam.txt",
        "cancel-my-reservation.txt",
        "cannibal-corpse-the-making-of-the-wretched-spawn.txt",
        "captive-hearts.txt",
        "car-wash.txt",
        "celtic-thunder-voyage.txt",
        "centrespread.txt",
        "chained-heat.txt",
        "chained-heat.txt",
        "charlie-boots.txt",
        "cheaters.txt",
        "chelsea-girls.txt",
        "chief-charlie-horse.txt",
        "christopher-titus-the-5th-annual-end-of-the-world-tour.txt",
        "cirque-du-freak-the-vampire-s-assistant.txt",
        "cirque-du-freak-the-vampire-s-assistant.txt",
        "citizen-s-band.txt",
        "citizen-s-band.txt",
        "climate-refugees.txt",
        "crazed-cop.txt",
        "crazy-people.txt",
        "cupid-at-the-washtub.txt",
        "cyber-bandits.txt",
        "de-pijnbank.txt",
        "dead-babies.txt",
        "dead-men-can-t-dance.txt",
        "deadhead-miles.txt",
        "death-train.txt",
        "def-con-4.txt",
        "def-con-4.txt",
        "der-kaufmann-von-venedig.txt",
        "der-verdacht.txt",
        "devil-s-knot.txt",
        "dinner-for-schmucks.txt",
        "dinner-time.txt",
        "disclosure.txt",
        "doa-dead-or-alive.txt",
        "doc-savage-the-man-of-bronze.txt",
        "doctor-bull.txt",
        "doctor-strange.txt",
        "dr-mabuse-vs-scotland-yard.txt",
        "eating-raoul.txt",
        "eating-raoul.txt",
        "eating-raoul.txt",
        "echo.txt",
        "ecw-hardcore-heaven.txt",
        "eight-below.txt",
        "event-horizon.txt",
        "every-little-crook-and-nanny.txt",
        "everything-s-gone-green.txt",
        "excision.txt",
        "exile.txt",
        "exile.txt",
        "exposure.txt",
        "face-of-a-fugitive.txt",
        "faithful.txt",
        "fall-out-fall-in.txt",
        "fallen-the-destiny.txt",
        "falling-for-you.txt",
        "family-guy-the-xxx-parody.txt",
        "flipper.txt",
        "for-no-good-reason.txt",
        "for-those-in-peril.txt",
        "for-those-in-peril.txt",
        "forgiven.txt",
        "forgiven.txt",
        "freak-talk-about-sex.txt",
        "freakshow.txt",
        "from-the-dead-of-night.txt",
        "genghis-blues.txt",
        "gestapo-hitler-s-secret-police.txt",
        "gigantic.txt",
        "girls-on-the-loose.txt",
        "goodbye-charlie-bright.txt",
        "goof-troop-christmas.txt",
        "green-flash.txt",
        "grim.txt",
        "grim.txt",
        "grocery-list.txt",
        "half-shot-at-sunrise.txt",
        "hansel-e-gretel.txt",
        "happy-birthday.txt",
        "harley-davidson-and-the-marlboro-man.txt",
        "harry-and-tonto.txt",
        "harry-and-tonto.txt",
        "haunts-of-the-very-rich.txt",
        "heart-of-stone.txt",
        "hockey-night.txt",
        "hockey-night.txt",
        "hollow-triumph.txt",
        "house-cleaning-time.txt",
        "how-to-be-a-sailor.txt",
        "how-to-make-a-monster.txt",
        "hudson-s-bay.txt",
        "if-only.txt",
        "il-vangelo-secondo-simone-e-matteo.txt",
        "ina.txt",
        "it-s-a-small-world.txt",
        "it-s-good-to-be-alive.txt",
        "jack-frost.txt",
        "jim-breuer-hardcore.txt",
        "jiminy-glick-in-lalawood.txt",
        "josh-kirby-time-warrior-planet-of-the-dino-knights.txt",
        "josh-kirby-time-warrior-the-human-pets.txt",
        "katie-tippel.txt",
        "katiebird-certifiable-crazy-person.txt",
        "kazaam.txt",
        "kazaam.txt",
        "keith-lemon-s-fit.txt",
        "kill-her-gently.txt",
        "killer-movie.txt",
        "killers.txt",
        "kiss-1976-tv-collection-1974-1976.txt",
        "kiss-1977-live-at-cobo-hall-detroit.txt",
        "kiss-1977-young-music-show.txt",
        "kiss-1983-ao-vivo.txt",
        "kiss-1983-madrid-1983.txt",
        "kiss-1988-a-crazy-night-with-kiss.txt",
        "kiss-1993-konfidential.txt",
        "kiss-1996-prague-nite-1-alive-world-wide.txt",
        "les-paul-chasing-sound.txt",
        "lily-savage-live-and-outrageous.txt",
        "lisztomania.txt",
        "little-aurore-s-tragedy.txt",
        "little-big-panda.txt",
        "living-in-hope.txt",
        "lock-in.txt",
        "logos.txt",
        "louis-c-k-live-at-the-beacon-theater.txt",
        "love-s-brother.txt",
        "love-s-brother.txt",
        "love-thy-neighbor.txt",
        "love-thy-neighbor.txt",
        "magicians.txt",
        "man-of-flowers.txt",
        "man-of-flowers.txt",
        "mayavi.txt",
        "meek-s-cutoff.txt",
        "mega-piranha.txt",
        "mike-and-the-mechanics-and-paul-carrack-live-at-shepherds-bush.txt",
        "mike-and-the-mechanics-and-paul-carrack-live-at-shepherds-bush.txt",
        "minecraft-the-story-of-mojang.txt",
        "missing-pieces.txt",
        "mistress-frankenstein.txt",
        "monte-carlo.txt",
        "morlang.txt",
        "mr-and-mrs-north.txt",
        "murder-is-my-beat.txt",
        "my-dog-tulip.txt",
        "my-way-home.txt",
        "n-o-t-h-i-n-g.txt",
        "natalie-s-rose.txt",
        "neighbours.txt",
        "nemesis-game.txt",
        "never-too-late.txt",
        "new-world-disorder-9-never-enough.txt",
        "night-watch.txt",
        "not-for-publication.txt",
        "not-for-publication.txt",
        "not-of-this-earth.txt",
        "nyc-3-94.txt",
        "of-human-bondage.txt",
        "on-westminster-bridge.txt",
        "on-wings-of-eagles.txt",
        "one-jump-ahead.txt",
        "orchestral-manoeuvres-in-the-dark-live-architecture-morality-and-more.txt",
        "out-of-it.txt",
        "out-of-it.txt",
        "paddington.txt",
        "passchendaele.txt",
        "passchendaele.txt",
        "patton-oswalt-no-reason-to-complain.txt",
        "paul-blart-mall-cop.txt",
        "paul-chowdhry-what-s-happening-white-people.txt",
        "paul-chowdhry-what-s-happening-white-people.txt",
        "paul-chowdhry-what-s-happening-white-people.txt",
        "paul-chowdhry-what-s-happening-white-people.txt",
        "paul-der-fisch.txt",
        "paul-gilbert-get-out-of-my-yard.txt",
        "paul-mccartney-in-performance-at-the-white-house.txt",
        "paul-mccartney-in-performance-at-the-white-house.txt",
        "paul-mccartney-on-the-run.txt",
        "paul-mccartney-up-and-coming-brasil.txt",
        "paul-simon-you-re-the-one.txt",
        "paul-simon-you-re-the-one.txt",
        "paul-stanley-live-in-melbourne.txt",
        "paul-stanley-live-in-melbourne.txt",
        "paul-temple-returns.txt",
        "paul-wilbur-a-night-of-extravagant-worship.txt",
        "perri.txt",
        "playing-with-fire.txt",
        "polar-storm.txt",
        "polar-storm.txt",
        "polk-county-pot-plane.txt",
        "pope-john-paul-ii-builder-of-bridges.txt",
        "pope-john-paul-ii-builder-of-bridges.txt",
        "pope-john-paul-ii.txt",
        "private-parts.txt",
        "prom-night-in-mississippi.txt",
        "psychic.txt",
        "purgatory.txt",
        "resident-evil-afterlife.txt",
        "resident-evil-afterlife.txt",
        "return-to-sleepaway-camp.txt",
        "robinson-crusoe-on-mars.txt",
        "rock-and-roll-hall-of-fame-live.txt",
        "rock-n-roll-hotel.txt",
        "rocket-s-red-glare.txt",
        "royal-carriage-arriving-at-st-paul-s.txt",
        "royal-princes-in-st-paul-s-churchyard.txt",
        "safe-men.txt",
        "saga-curse-of-the-shadow.txt",
        "saints-and-sinners.txt",
        "screaming-in-high-heels-the-rise-fall-of-the-scream-queen-era.txt",
        "searching-for-bobby-d.txt",
        "searching-for-bobby-d.txt",
        "sebastiane.txt",
        "silent-night-of-the-living-dead.txt",
        "skin-game.txt",
        "slap-shot.txt",
        "slednecks-13.txt",
        "smokey-and-the-bandit-part-3.txt",
        "snuff-a-documentary-about-killing-on-camera.txt",
        "sole-survivor.txt",
        "something-to-scream-about.txt",
        "son-of-flubber.txt",
        "song-of-freedom.txt",
        "spiderbabe.txt",
        "steve-marriott-astoria-memorial-concert.txt",
        "stiff-upper-lips.txt",
        "storm-war.txt",
        "strictly-unconventional.txt",
        "sunset-range.txt",
        "superman-requiem.txt",
        "surviving-gilligan-s-island.txt",
        "symbiosis.txt",
        "taboo-american-style-2-the-story-continues.txt",
        "taboo.txt",
        "texas-terror.txt",
        "the-acid-house.txt",
        "the-battle-of-the-alamo.txt",
        "the-bear-that-wasn-t.txt",
        "the-beatles-watching-rainbows.txt",
        "the-boy-who-saw-the-iceberg.txt",
        "the-boy-who-saw-the-iceberg.txt",
        "the-cabin-in-the-cotton.txt",
        "the-canterville-ghost.txt",
        "the-common-law.txt",
        "the-cuckoos.txt",
        "the-death-of-richie.txt",
        "the-disorderly-orderly.txt",
        "the-doors-live-in-europe-1968.txt",
        "the-effect-of-gamma-rays-on-man-in-the-moon-marigolds.txt",
        "the-effect-of-gamma-rays-on-man-in-the-moon-marigolds.txt",
        "the-end-of-the-world-in-four-seasons.txt",
        "the-erotic-witch-project.txt",
        "the-escape-on-the-fast-freight.txt",
        "the-fairy-king-of-ar.txt",
        "the-fairy-king-of-ar.txt",
        "the-fj-holden.txt",
        "the-ghost-breakers.txt",
        "the-giants.txt",
        "the-heathens-of-kummerow.txt",
        "the-highest-pass.txt",
        "the-holy-modal-rounders-bound-to-lose.txt",
        "the-hooligan-wars.txt",
        "the-hooligan-wars.txt",
        "the-immortal-voyage-of-captain-drake.txt",
        "the-incredible-mrs-ritchie.txt",
        "the-lady-vanishes.txt",
        "the-last-warning.txt",
        "the-legend-trip.txt",
        "the-life-and-times-of-judge-roy-bean.txt",
        "the-lucky-texan.txt",
        "the-lunatic.txt",
        "the-main-event.txt",
        "the-new-devil-in-miss-jones.txt",
        "the-night-we-called-it-a-day.txt",
        "the-november-men.txt",
        "the-people-vs-paul-crump.txt",
        "the-poseidon-adventure.txt",
        "the-prodigy-world-s-on-fire.txt",
        "the-proud-valley.txt",
        "the-return-of-dracula.txt",
        "the-rise-fall-of-a-white-collar-hooligan.txt",
        "the-rise-fall-of-a-white-collar-hooligan.txt",
        "the-seasoning-house.txt",
        "the-seasoning-house.txt",
        "the-sight.txt",
        "the-sight.txt",
        "the-snow-goose.txt",
        "the-snow-goose.txt",
        "the-sorcerer-s-apprentice.txt",
        "the-steagle.txt",
        "the-sting.txt",
        "the-thing-about-my-folks.txt",
        "the-thomas-crown-affair.txt",
        "the-walker.txt",
        "the-walker.txt",
        "the-wiggles-dorothy-the-dinosaur-s-party.txt",
        "the-wiggles-hoop-dee-doo.txt",
        "the-wiggles-you-make-me-feel-like-dancing.txt",
        "these-amazing-shadows.txt",
        "this-is-40.txt",
        "this-is-elvis.txt",
        "this-is-my-father.txt",
        "this-is-my-father.txt",
        "thomas-friends-calling-all-engines.txt",
        "thrill-of-the-kill.txt",
        "tickled-pink.txt",
        "to-play-the-king.txt",
        "twin-dragon-encounter.txt",
        "under-california-stars.txt",
        "ushi-must-marry.txt",
        "vampires-anonymous.txt",
        "vorne-ist-verdammt-weit-weg.txt",
        "watch-on-the-rhine.txt",
        "watching-the-detectives.txt",
        "watching-the-detectives.txt",
        "welcome-to-the-hood.txt",
        "what-in-the-world-are-they-spraying.txt",
        "white-noise.txt",
        "wide-boyz.txt",
        "wilby-wonderful.txt",
        "wild-river.txt",
        "windhorse.txt",
        "windhorse.txt",
        "witch-slayer-gretl.txt",
        "with-the-gypsy-girls.txt",
        "wwe-the-rise-fall-of-ecw.txt",
        "xtinction-predator-x.txt",
        "yellow-submarine.txt",
        "yellow-submarine.txt",
        "yeti-curse-of-the-snow-demon.txt",
        "you-can-t-run-away-from-it.txt",
        "youngblood.txt"
    ]
}