{
    "files": [
        "blue-eyed-butcher.txt",
        "boxing-helena.txt",
        "enter-nowhere.txt",
        "frank-jesse.txt",
        "million-dollar-arm.txt",
        "superior-firepower-making-aliens.txt",
        "the-dark-backward.txt",
        "the-last-house-on-the-left.txt"
    ]
}