{
    "files": [
        "briefgeheim.txt",
        "bury-me-an-angel.txt",
        "bury-me-an-angel.txt",
        "de-indringer.txt",
        "summer-school-teachers.txt",
        "summer-school-teachers.txt"
    ]
}