{
    "files": [
        "alienator.txt",
        "american-force-2-the-untouchable-glory.txt",
        "day-night-day-night.txt",
        "desdemona-a-love-story.txt",
        "falcon-down.txt",
        "guns-roses.txt",
        "i-cover-big-town.txt",
        "l-a-streetfighters.txt",
        "letter-to-america.txt",
        "marilyn-alive-and-behind-bars.txt",
        "metal-gear-solid-philanthropy.txt",
        "murder-by-contract.txt",
        "orapronobis.txt",
        "sneakers.txt",
        "ten-brothers-of-shaolin.txt",
        "the-grey-fox.txt",
        "the-lost-missile.txt",
        "the-three-faces-of-terror.txt",
        "time-goes-by-like-a-roaring-lion.txt"
    ]
}