{
    "files": [
        "2008-boston-celtics-official-nba-finals-film.txt",
        "a-tale-of-two-mice.txt",
        "blessed-and-cursed.txt",
        "blessed-and-cursed.txt",
        "cracked-ice.txt",
        "deadheads.txt",
        "deadheads.txt",
        "deadheads.txt",
        "death-train.txt",
        "double-penetration-tryouts-11.txt",
        "expert-guide-to-rough-sex.txt",
        "expert-guide-to-the-g-spot.txt",
        "french-rarebit.txt",
        "life-in-perpetual-beta.txt",
        "little-pancho-vanilla.txt",
        "night-catches-us.txt",
        "night-watch.txt",
        "remember-me.txt",
        "tabasco-road.txt",
        "tactical.txt",
        "the-atomic-cafe.txt",
        "the-mating-habits-of-the-earthbound-human.txt",
        "thomas-friends-the-great-discovery-the-movie.txt"
    ]
}