{
    "files": [
        "brit-floyd-the-pink-floyd-tribute-show-live-from-liverpool.txt",
        "jonah-and-the-pink-whale.txt",
        "pink-angels.txt",
        "pink-cadillac.txt",
        "pink-flamingos.txt",
        "pink-floyd-atom-heart-mother.txt",
        "pink-floyd-atom-heart-mother.txt",
        "pink-floyd-pulse.txt",
        "pink-floyd-the-story-of-wish-you-were-here.txt",
        "pink-live-at-itunes-festival.txt",
        "pink-live-at-itunes-festival.txt",
        "pink-live-from-wembley-arena.txt",
        "pink-live-from-wembley-arena.txt",
        "pink-narcissus.txt",
        "pink-panther-in-olym-pinks.txt",
        "pink-project-the-wall-2010.txt",
        "pink-velvet-2.txt",
        "sky-blue-pink.txt",
        "the-pink-conspiracy.txt",
        "the-pink-phink.txt",
        "tickled-pink.txt"
    ]
}