{
    "files": [
        "gesche-s-poison.txt",
        "our-daily-poison.txt",
        "poison-ivy-the-secret-society.txt",
        "poison.txt",
        "wwe-jake-the-snake-roberts-pick-your-poison.txt"
    ]
}