{
    "files": [
        "american-gothic.txt",
        "at-the-ringside.txt",
        "his-royal-slyness.txt",
        "little-fauss-and-big-halsy.txt",
        "luke-rides-roughshod.txt",
        "luke-s-movie-muddle.txt",
        "next-aisle-over.txt",
        "pay-your-dues.txt",
        "penitentiary.txt",
        "somewhere-in-turkey.txt",
        "spring-fever.txt",
        "the-big-idea.txt",
        "the-dippy-dentist.txt",
        "what-a-whopper.txt"
    ]
}