{
    "files": [
        "new-employee-in-sod-s-publicity-department-is-so-cute-aya-sakurai-sod-very-popular-planning-for-client-s-high-business-entertainment.txt",
        "the-best-in-the-world-popular-news.txt"
    ]
}