{
    "files": [
        "adventures-of-power.txt",
        "ayumi-hamasaki-power-of-music-2011-limited-edition.txt",
        "diplomatic-courier.txt",
        "earth-the-power-of-the-planet.txt",
        "echelon-the-secret-power.txt",
        "in-old-chicago.txt",
        "king-of-the-khyber-rifles.txt",
        "natiruts-reggae-power-ao-vivo.txt",
        "panorama-of-galveston-power-house.txt",
        "seven-waves-away.txt",
        "shakti-the-power.txt",
        "spice-girls-girl-power-live-in-istanbul.txt",
        "that-wonderful-urge.txt",
        "the-black-swan.txt",
        "the-living-dead-three-films-about-the-power-of-the-past.txt",
        "the-mark-of-zorro.txt",
        "the-power-and-the-glory.txt",
        "the-power-of-community-how-cuba-survived-peak-oil.txt",
        "the-power-of-hypnosis.txt",
        "the-power-of-one.txt",
        "the-script-homecoming-live-at-the-aviva-stadium.txt",
        "the-sea-serpent.txt",
        "the-tommyknockers.txt",
        "tower-of-power-in-concert-ohne-filter.txt",
        "usurpers-of-emperor-s-power.txt",
        "water-power.txt",
        "where-are-my-children.txt"
    ]
}