{
    "files": [
        "americas-deadliest-prison-gang.txt",
        "at-folsom-prison-with-dr-timothy-leary.txt",
        "let-s-go-to-prison.txt",
        "party-scars-and-prison-bars.txt",
        "prison-heat.txt",
        "prison.txt",
        "war-on-drugs-the-prison-industrial-complex.txt",
        "werewolf-in-a-women-s-prison.txt"
    ]
}