{
    "files": [
        "dave-brubeck-take-five-in-a-quartet.txt",
        "enrico-rava-quartet-live-in-montreal.txt",
        "the-dante-quartet.txt",
        "the-jaffo-gate-quartet-abba-vader.txt"
    ]
}