{
    "files": [
        "blood-nasty.txt",
        "creepozoids.txt",
        "diameter-of-the-bomb.txt",
        "drive-in-madness.txt",
        "riot-squad.txt",
        "screaming-in-high-heels-the-rise-fall-of-the-scream-queen-era.txt",
        "sexbomb.txt",
        "stalked.txt",
        "vice-academy.txt"
    ]
}