{
    "files": [
        "across-110th-street.txt",
        "avalon-high.txt",
        "benedict-arnold-a-question-of-honor.txt",
        "breakfast-on-pluto.txt",
        "bullets-for-o-hara.txt",
        "cannes-man.txt",
        "casablanca-express.txt",
        "cavedweller.txt",
        "colin-quinn-long-story-short.txt",
        "colin-quinn-long-story-short.txt",
        "colin-quinn-long-story-short.txt",
        "crusoe.txt",
        "curse-of-the-zodiac.txt",
        "festival-of-lights.txt",
        "la-strada.txt",
        "megaville.txt",
        "rag-doll.txt",
        "reckless.txt",
        "seven-cities-of-gold.txt",
        "shadow-of-fear.txt",
        "the-greening-of-whitney-brown.txt",
        "the-magus.txt",
        "the-message.txt",
        "the-mighty-quinn.txt",
        "the-passage.txt",
        "the-wild-party.txt",
        "this-is-my-father.txt",
        "this-is-my-father.txt",
        "this-is-my-father.txt",
        "what-s.txt",
        "zachariah.txt"
    ]
}