{
    "files": [
        "4d-man.txt",
        "a-trip-thru-a-hollywood-studio.txt",
        "air-mail.txt",
        "alien-uprising.txt",
        "appointment-with-venus.txt",
        "becoming-jesse-tate.txt",
        "beer-league.txt",
        "cancel-my-reservation.txt",
        "centrespread.txt",
        "current-events.txt",
        "current-events.txt",
        "deterrence.txt",
        "dinosaur.txt",
        "do-not-disturb.txt",
        "double-exposure.txt",
        "dr-jekyll-sister-hyde.txt",
        "dream-street.txt",
        "dude-duck.txt",
        "ellery-queen-and-the-perfect-crime.txt",
        "fools-for-scandal.txt",
        "footsteps-in-the-dark.txt",
        "for-heaven-s-sake.txt",
        "for-no-good-reason.txt",
        "gambling-lady.txt",
        "ginger.txt",
        "gretchen-the-greenhorn.txt",
        "guest-in-the-house.txt",
        "king-of-kong-island.txt",
        "le-solitaire-passe-a-l-attaque.txt",
        "lsd-problem-child-and-wonder-drug.txt",
        "lucky-devils.txt",
        "man-of-a-thousand-faces.txt",
        "nanny-mcphee-and-the-big-bang.txt",
        "neil-young-in-berlin.txt",
        "panama-flo.txt",
        "perri.txt",
        "pet-sematary-ii.txt",
        "picture-snatcher.txt",
        "sean.txt",
        "secret-flight.txt",
        "soldier-blue.txt",
        "suicide.txt",
        "sunset-range.txt",
        "sus.txt",
        "swans.txt",
        "the-butter-battle-book.txt",
        "the-citadel.txt",
        "the-ghost-of-frankenstein.txt",
        "the-gorilla.txt",
        "the-lion-has-wings.txt",
        "the-miracle-maker.txt",
        "the-prince-of-egypt.txt",
        "the-right-to-live.txt",
        "the-sound-barrier.txt",
        "the-terry-fox-story.txt",
        "the-wedding-night.txt",
        "wild-girl.txt",
        "wreck-it-ralph.txt"
    ]
}