{
    "files": [
        "along-the-great-divide.txt",
        "band-of-angels.txt",
        "big-brown-eyes.txt",
        "big-brown-eyes.txt",
        "chromophobia.txt",
        "chromophobia.txt",
        "colorado-territory.txt",
        "eating-raoul.txt",
        "fatal-assistance.txt",
        "montana.txt",
        "saskatchewan.txt",
        "st-louis-blues.txt",
        "suicide.txt",
        "the-phable-of-a-busted-romance.txt",
        "the-revolt-of-mamie-stover.txt",
        "the-roaring-twenties.txt",
        "the-strawberry-blonde.txt",
        "wild-girl.txt"
    ]
}