{
    "files": [
        "colour-me-kubrick-a-true-ish-story.txt",
        "downhill-racer.txt",
        "little-fauss-and-big-halsy.txt",
        "pixel-perfect.txt",
        "sacred-planet.txt",
        "the-hot-rock.txt",
        "the-sting.txt",
        "this-revolution.txt",
        "three-days-of-the-condor.txt"
    ]
}