{
    "files": [
        "escape-of-the-birdmen.txt",
        "little-nemo-adventures-in-slumberland.txt",
        "panorama-blue.txt",
        "the-sexpert.txt",
        "the-six-thousand-dollar-nigger.txt",
        "the-six-thousand-dollar-nigger.txt"
    ]
}