{
    "files": [
        "awful-nice.txt",
        "awful-nice.txt",
        "king-of-the-khyber-rifles.txt",
        "seven-cities-of-gold.txt",
        "the-new-guy.txt",
        "third-man-on-the-mountain.txt",
        "tower-of-terror.txt"
    ]
}