{
    "files": [
        "6-day-bike-rider.txt",
        "anal-asspirations.txt",
        "black-rider.txt",
        "easy-rider-the-ride-back.txt",
        "ghost-rider-3-goes-crazy-in-europe.txt",
        "ghost-rider-3-goes-crazy-in-europe.txt",
        "mark-visser-s-night-rider.txt",
        "mojave.txt",
        "moon-rider.txt",
        "private-gold-81-porn-wars.txt",
        "the-black-rider.txt"
    ]
}