{
    "files": [
        "night-at-the-golden-eagle.txt",
        "night-at-the-golden-eagle.txt",
        "the-chase.txt",
        "the-chase.txt",
        "the-dark-backward.txt",
        "the-dark-backward.txt"
    ]
}