{
    "files": [
        "300-rise-of-an-empire.txt",
        "rise-of-the-black-bat.txt",
        "rise-of-the-footsoldier.txt",
        "rise-of-the-zombie.txt",
        "screaming-in-high-heels-the-rise-fall-of-the-scream-queen-era.txt",
        "steve-o-demise-and-rise.txt",
        "the-rise-and-fall-of-five-iron-frenzy.txt",
        "the-rise-and-fall-of-the-great-lakes.txt",
        "the-rise-fall-of-a-white-collar-hooligan.txt",
        "the-rise-of-the-roman-empress.txt",
        "underworld-rise-of-the-lycans.txt",
        "wwe-the-rise-fall-of-ecw.txt"
    ]
}