{
    "files": [
        "boxing-gloves.txt",
        "dinner-for-schmucks.txt",
        "his-royal-slyness.txt",
        "leave-em-laughing.txt",
        "luke-rides-roughshod.txt",
        "luke-rides-roughshod.txt",
        "luke-s-movie-muddle.txt",
        "luke-s-movie-muddle.txt",
        "manny-pacquiao-vs-juan-manuel-marquez-3.txt",
        "meet-the-fockers.txt",
        "never-weaken.txt",
        "pacquiao-vs-de-la-hoya.txt",
        "pacquiao-vs-hatton.txt",
        "pacquiao-vs-marquez-i.txt",
        "pay-your-dues.txt",
        "queen-sized.txt",
        "scorching-sands.txt",
        "spring-fever.txt",
        "the-bohemian-girl.txt",
        "the-dippy-dentist.txt",
        "the-groundstar-conspiracy.txt"
    ]
}