{
    "files": [
        "jane-got-a-gun.txt",
        "pride-critical-countdown-2005.txt",
        "pride-final-conflict-2004.txt",
        "pride-shockwave-2002.txt",
        "pride-shockwave-2006.txt",
        "ufc-153-silva-vs-bonnar.txt"
    ]
}