{
    "files": [
        "from-this-day-forward.txt",
        "juliette-of-the-herbs.txt",
        "just-45-minutes-from-broadway.txt",
        "profoundly-normal.txt",
        "red-garters.txt",
        "strangler-of-the-swamp.txt",
        "the-insatiable-moon.txt",
        "when-a-woman-strikes.txt",
        "where-it-s-at.txt"
    ]
}