{
    "files": [
        "adele-live-at-the-royal-albert-hall.txt",
        "betty-boop-s-bamboo-isle.txt",
        "between-men.txt",
        "cream-royal-albert-hall-london.txt",
        "erasure-live-at-the-royal-albert-hall.txt",
        "his-royal-slyness.txt",
        "huckleberry-finn.txt",
        "king-of-the-rocket-men.txt",
        "lost-planet-airmen.txt",
        "michael-bolton-live-at-the-royal-albert-hall.txt",
        "mindless-behavior-all-around-the-world.txt",
        "muse-live-at-the-royal-albert-hall.txt",
        "one-night-only-rod-stewart-live-at-the-royal-albert-hall.txt",
        "riat-2005-the-royal-international-air-tattoo.txt",
        "romeo-juliet-the-royal-ballet.txt",
        "royal-carriage-arriving-at-st-paul-s.txt",
        "royal-cat-nap.txt",
        "royal-princes-in-st-paul-s-churchyard.txt",
        "royal-tramp-2.txt",
        "royal-wedding.txt",
        "spaced-invaders.txt",
        "the-moody-blues-hall-of-fame-live-from-the-royal-albert-hall.txt",
        "the-royal-tenenbaums.txt",
        "vanessa-mae-the-red-hot-tour-live-at-the-royal-albert-hall.txt",
        "wwe-royal-rumble-1991.txt"
    ]
}