{
    "files": [
        "pride-bushido-11.txt",
        "pride-critical-countdown-2005.txt",
        "pride-final-conflict-2005.txt",
        "ufc-113-machida-vs-shogun-2.txt",
        "ufc-on-fox-shogun-vs-vera.txt"
    ]
}