{
    "files": [
        "bonjour-michel.txt",
        "de-lama-s-afscheidstour.txt",
        "public-hero-number-1.txt",
        "the-graffiti-artist.txt",
        "the-pom-pom-girls.txt",
        "the-pom-pom-girls.txt",
        "the-pom-pom-girls.txt",
        "the-red-sneakers.txt",
        "the-seven-ups.txt",
        "the-sister-in-law.txt",
        "the-sister-in-law.txt"
    ]
}