{
    "files": [
        "faster-pussycat-fuck-fuck.txt",
        "fer-de-lance.txt",
        "moochie-of-pop-warner-football.txt",
        "probe.txt",
        "satan-s-sadists.txt",
        "scream-free.txt",
        "supervixens.txt",
        "supervixens.txt",
        "supervixens.txt",
        "the-legends-of-nethiah.txt",
        "the-spaceman-and-king-arthur.txt",
        "the-yesterday-machine.txt",
        "the-yesterday-machine.txt",
        "tom-thumb.txt"
    ]
}