{
    "files": [
        "10-man-milf-cum-slam.txt",
        "bad-bizness.txt",
        "bad-boys-of-summer.txt",
        "big-trouble-in-little-china.txt",
        "blackbeard.txt",
        "bmx-bandits.txt",
        "charley-and-the-angel.txt",
        "fall-guy-the-john-stewart-story.txt",
        "fast-and-loose.txt",
        "for-all-mankind.txt",
        "forced-to-kill.txt",
        "four-s-a-crowd.txt",
        "frog-g-g.txt",
        "ghost-dad.txt",
        "heart-of-arizona.txt",
        "highlander.txt",
        "his-kind-of-woman.txt",
        "ibid.txt",
        "ibid.txt",
        "ibid.txt",
        "law-and-order.txt",
        "law-of-the-pampas.txt",
        "lisztomania.txt",
        "lisztomania.txt",
        "little-red-monkey.txt",
        "london-2012-olympic-closing-ceremony-a-symphony-of-british-music.txt",
        "margaret-s-museum.txt",
        "modus-operandi.txt",
        "moonrise.txt",
        "mourning-becomes-electra.txt",
        "mr-sardonicus.txt",
        "mr-sardonicus.txt",
        "night-of-the-lepus.txt",
        "on-the-beach.txt",
        "once-upon-a-honeymoon.txt",
        "private-school.txt",
        "project-viper.txt",
        "quarter-life-crisis.txt",
        "range-war.txt",
        "resurrection.txt",
        "righteous-kill.txt",
        "roughly-speaking.txt",
        "russell-coight-s-celebrity-challenge.txt",
        "russell-howard-live.txt",
        "russell-howard-live.txt",
        "russell-howard-live.txt",
        "russell-howard-live.txt",
        "russell-peters-the-green-card-tour.txt",
        "russell-peters-the-green-card-tour.txt",
        "saddle-tramp.txt",
        "sand.txt",
        "saw-vi.txt",
        "sky-high.txt",
        "stuck.txt",
        "surviving-gilligan-s-island.txt",
        "terry-pratchett-choosing-to-die.txt",
        "the-changeling.txt",
        "the-citadel.txt",
        "the-con-artist.txt",
        "the-enemies-of-reason.txt",
        "the-horror-of-it-all.txt",
        "the-house-across-the-street.txt",
        "the-lionshare.txt",
        "the-london-perambulator.txt",
        "the-love-cult.txt",
        "the-majorettes.txt",
        "the-music-lovers.txt",
        "the-outlaw.txt",
        "the-real-robin-hood.txt",
        "the-revolt-of-mamie-stover.txt",
        "the-story-of-molly-x.txt",
        "the-thief.txt",
        "the-thief.txt",
        "the-velvet-touch.txt",
        "this-is-ours.txt",
        "three-kings.txt",
        "three-kings.txt",
        "top-fighter.txt",
        "touchback.txt",
        "underwater.txt",
        "valley-of-wanted-men.txt",
        "vice-academy.txt",
        "visions-of-passion.txt",
        "waco.txt",
        "what-if.txt",
        "x-the-man-with-the-x-ray-eyes.txt"
    ]
}