{
    "files": [
        "a-room-with-a-view.txt",
        "a-ticklish-affair.txt",
        "about-face.txt",
        "adventure-in-iraq.txt",
        "baana-kaathadi.txt",
        "blonde-crazy.txt",
        "breakfast-on-pluto.txt",
        "bulldog-drummond-strikes-back.txt",
        "bye-gones.txt",
        "charming-sinners.txt",
        "dinosaurs-on-ice.txt",
        "donald-s-dream-voice.txt",
        "du-barry-was-a-lady.txt",
        "fever-pitch.txt",
        "flight-command.txt",
        "ghost.txt",
        "headin-home.txt",
        "howards-end.txt",
        "in-time-of-need.txt",
        "it-s-tough-to-be-a-bird.txt",
        "king-kong.txt",
        "life-for-ruth.txt",
        "lovers-and-lollipops.txt",
        "magnetic-movie.txt",
        "melody-in-may.txt",
        "no-night-is-too-long.txt",
        "on-the-avenue.txt",
        "paradox.txt",
        "personal-maid-s-secret.txt",
        "rebel-in-town.txt",
        "roseland.txt",
        "ruth.txt",
        "sail-a-crooked-ship.txt",
        "skylarking.txt",
        "speak-easily.txt",
        "starlift.txt",
        "strawberry-roan.txt",
        "tennessee-johnson.txt",
        "the-incredible-sarah.txt",
        "the-life-of-the-party.txt",
        "the-song-of-fame.txt",
        "the-tonto-kid.txt",
        "topper-returns.txt",
        "voyage-of-the-rock-aliens.txt",
        "young-man-with-ideas.txt"
    ]
}