{
    "files": [
        "all-about-my-wife.txt",
        "children.txt",
        "crazy-waiting.txt",
        "crazy-waiting.txt",
        "die-bad.txt",
        "die-bad.txt",
        "die-bad.txt",
        "die-bad.txt",
        "over-my-dead-body.txt",
        "the-beast-and-the-beauty.txt",
        "the-servant.txt",
        "the-unjust.txt",
        "the-unjust.txt"
    ]
}