{
    "files": [
        "blonde-deluxe-anthology.txt",
        "cancel-my-reservation.txt",
        "daddy.txt",
        "love-at-first-bite.txt",
        "margaret-thatcher-the-long-walk-to-finchley.txt",
        "micro-men.txt",
        "saint-monica.txt"
    ]
}