{
    "files": [
        "assassin.txt",
        "assassin.txt",
        "bonnie-s-kids.txt",
        "my-louisiana-sky.txt",
        "stryker.txt",
        "true-grit-a-further-adventure.txt"
    ]
}