{
    "files": [
        "circle-in-the-sand.txt",
        "every-little-crook-and-nanny.txt",
        "sand.txt",
        "stefan-everts-sand-vol-1.txt",
        "the-main-event.txt",
        "the-sand-bath.txt"
    ]
}