{
    "files": [
        "a-day-at-santa-anita.txt",
        "all-about-santa-claus.txt",
        "la-fiesta-de-santa-barbara.txt",
        "raggedy-ann-andy-the-great-santa-claus-caper.txt",
        "santa-baby-2.txt",
        "santa-baby.txt",
        "santa-claus-the-movie.txt",
        "santa-claus.txt",
        "santa-claws.txt",
        "santa-preys-for-x-mas.txt",
        "santa-vs-the-snowman-3d.txt",
        "south-of-santa-fe.txt",
        "the-life-adventures-of-santa-claus.txt",
        "the-santa-clause-2.txt",
        "the-yummy-gummy-search-for-santa.txt"
    ]
}