{
    "files": [
        "a-tale-of-two-cities.txt",
        "anywhere-but-here.txt",
        "arbitrage.txt",
        "dragonfly.txt",
        "elizabethtown.txt",
        "mussolini-and-i.txt",
        "the-nightmare-before-christmas.txt",
        "this-is-what-democracy-looks-like.txt"
    ]
}