{
    "files": [
        "battle-beyond-the-stars.txt",
        "beyond-evil.txt",
        "fast-company.txt",
        "saxon.txt",
        "scream-and-scream-again.txt",
        "the-cavern.txt",
        "the-glove.txt",
        "the-saxon-charm.txt",
        "the-sister-in-law.txt",
        "violent-naples.txt"
    ]
}