{
    "files": [
        "30-days-until-i-m-famous.txt",
        "airborne.txt",
        "all-the-king-s-men.txt",
        "amazing-love.txt",
        "american-buffalo.txt",
        "avalon-high.txt",
        "before-i-say-goodbye.txt",
        "best-men.txt",
        "beyond-hypothermia.txt",
        "billy-s-hollywood-screen-kiss.txt",
        "bulworth.txt",
        "cave-in.txt",
        "church-girl.txt",
        "cousins.txt",
        "crazy-enough.txt",
        "critical-mass.txt",
        "crossroad.txt",
        "crush.txt",
        "dave-attell-s-insomniac-tour-uncensored.txt",
        "dead-poets-society.txt",
        "deadline.txt",
        "deadline.txt",
        "djinn.txt",
        "entrapment.txt",
        "fortress.txt",
        "freeze-frame.txt",
        "friday-the-13th.txt",
        "friday-the-13th.txt",
        "haunted-echoes.txt",
        "hidden.txt",
        "horndog.txt",
        "horndog.txt",
        "hurlyburly.txt",
        "i-m-still-here.txt",
        "just-cause.txt",
        "killing-me-softly.txt",
        "kiss-the-bride.txt",
        "last-summer.txt",
        "lost-dogs.txt",
        "love-and-debate.txt",
        "made.txt",
        "marnie.txt",
        "married-to-it.txt",
        "martha-marcy-may-marlene.txt",
        "martha-marcy-may-marlene.txt",
        "melangkoli.txt",
        "mighty-baby.txt",
        "oh-schucks-it-s-schuster.txt",
        "ominous.txt",
        "ozzie.txt",
        "parole-violators.txt",
        "pi.txt",
        "prince-of-broadway.txt",
        "race-to-space.txt",
        "reign-of-the-gargoyles.txt",
        "romantic-dream.txt",
        "running-out-of-time-2.txt",
        "sarah-mclachlan-afterglow-live.txt",
        "saxon.txt",
        "scared-shrekless.txt",
        "sea-monsters-a-prehistoric-adventure.txt",
        "sea-monsters-a-prehistoric-adventure.txt",
        "sean.txt",
        "see-no-evil-the-moors-murders.txt",
        "shadowed.txt",
        "sharpe-s-company.txt",
        "sharpe-s-eagle.txt",
        "sharpe-s-justice.txt",
        "sharpe-s-regiment.txt",
        "sharpe-s-sword.txt",
        "simply-irresistible.txt",
        "tape.txt",
        "the-beaver-trilogy.txt",
        "the-boondock-saints.txt",
        "the-brotherhood-2-young-warlocks.txt",
        "the-bullet-vanishes.txt",
        "the-field.txt",
        "the-flying-scotsman.txt",
        "the-halls-of-montezuma.txt",
        "the-last-house-on-the-left.txt",
        "the-seasoning-house.txt",
        "the-small-one.txt",
        "thunderball.txt",
        "virgin-alexander.txt",
        "what-just-happened.txt",
        "white-zombie-let-sleeping-corpses-lie.txt",
        "xcu-extreme-close-up.txt",
        "young-cesar.txt",
        "zardoz.txt"
    ]
}