{
    "files": [
        "apocalypse-the-second-world-war.txt",
        "dragon-ball-z-broly-second-coming.txt",
        "king-richard-the-second.txt",
        "second-best.txt",
        "second-chance.txt",
        "second-class-citizens.txt",
        "second-string.txt",
        "split-second-murders.txt",
        "the-second-renaissance-part-i.txt"
    ]
}