{
    "files": [
        "charlie-chan-in-the-secret-service.txt",
        "cia-america-s-secret-warriors.txt",
        "echelon-the-secret-power.txt",
        "gestapo-hitler-s-secret-police.txt",
        "holt-of-the-secret-service.txt",
        "jodi-arias-dirty-little-secret.txt",
        "my-family-s-secret.txt",
        "no-1-of-the-secret-service.txt",
        "personal-maid-s-secret.txt",
        "poison-ivy-the-secret-society.txt",
        "rainforest-the-secret-of-life.txt",
        "secret-flight.txt",
        "secret-mysteries-of-america-s-beginnings-volume-2-riddles-in-stone-the-secret-architecture-of-washington-d-c.txt",
        "secret-mysteries-of-america-s-beginnings-volume-2-riddles-in-stone-the-secret-architecture-of-washington-d-c.txt",
        "snow-flower-and-the-secret-fan.txt",
        "the-secret-adventures-of-tom-thumb.txt",
        "the-secret-agent-s-return.txt",
        "the-secret-dreams-of-mona-q.txt",
        "the-secret-of-dr-kildare.txt",
        "the-secret-of-madame-blanche.txt",
        "the-secret-of-seagull-island.txt",
        "the-secret-of-the-marquise.txt",
        "the-secret-of-the-old-woods.txt",
        "the-secret-of-the-telegian.txt",
        "the-secret-of-the-urn.txt",
        "the-secret-of-yolanda.txt",
        "the-secret-policeman-s-other-ball.txt",
        "the-secret-rivals-2.txt",
        "the-secret-war.txt",
        "the-secret.txt",
        "top-secret.txt"
    ]
}