{
    "files": [
        "a-separate-peace.txt",
        "all-the-way-home.txt",
        "lost-and-found.txt",
        "love-story.txt",
        "my-fellow-americans.txt",
        "one-on-one.txt",
        "one-small-hitch.txt",
        "shirin-farhad-ki-toh-nikal-padi.txt",
        "six-acts.txt",
        "the-hot-rock.txt",
        "the-quiller-memorandum.txt",
        "the-terminal-man.txt",
        "three-days-to-vegas.txt",
        "tommy-boy.txt",
        "viennese-nights.txt"
    ]
}