{
    "files": [
        "helen-s-babies.txt",
        "roberta.txt",
        "that-night-with-you.txt",
        "the-moon-s-our-home.txt",
        "the-richest-girl-in-the-world.txt",
        "what-happened-to-jones.txt"
    ]
}