{
    "files": [
        "a-burning-passion-the-margaret-mitchell-story.txt",
        "another-day.txt",
        "facing-the-giants.txt",
        "kiss-me-deadly.txt",
        "witch-slayer-gretl.txt"
    ]
}