{
    "files": [
        "american-shaolin.txt",
        "emperor-of-shaolin-kung-fu.txt",
        "executioners-from-shaolin.txt",
        "fury-in-the-shaolin-temple.txt",
        "invincible-shaolin.txt",
        "mantis-fists-and-tiger-claws-of-shaolin.txt",
        "myths-and-logic-of-shaolin-kung-fu.txt",
        "shaolin-avengers.txt",
        "shaolin-death-squad.txt",
        "shaolin-prince.txt",
        "shaolin-the-blood-mission.txt",
        "shaolin-vs-evil-dead.txt",
        "shaolin-vs-manchu.txt",
        "shaolin-wheel-of-life.txt",
        "shaolin-wooden-men.txt",
        "ten-brothers-of-shaolin.txt",
        "war-of-the-shaolin-temple.txt"
    ]
}