{
    "files": [
        "a-carol-christmas.txt",
        "everest.txt",
        "falcon-down.txt",
        "incubus.txt",
        "mind-meld-secrets-behind-the-voyage-of-a-lifetime.txt",
        "secrets-of-a-married-man.txt",
        "sole-survivor.txt"
    ]
}