{
    "files": [
        "ambush-valley.txt",
        "better-mus-come.txt",
        "cleopatra-jones.txt",
        "confessions-of-a-teenage-drama-queen.txt",
        "leave-it-on-the-floor.txt",
        "mega-cyclone.txt",
        "memories-of-midnight.txt",
        "pardners.txt",
        "quiet-killer.txt",
        "terminal-choice.txt",
        "the-lone-avenger.txt",
        "the-lucky-texan.txt",
        "the-song-of-songs.txt",
        "the-sweater.txt",
        "young-cesar.txt"
    ]
}