{
    "files": [
        "eve-of-understanding.txt",
        "eve-of-understanding.txt",
        "hornet-s-nest.txt",
        "sugar-spice.txt",
        "white-men-can-t-jump.txt",
        "white-men-can-t-jump.txt"
    ]
}