{
    "files": [
        "sherlock-holmes-a-game-of-shadows.txt",
        "sherlock-holmes-and-a-study-in-scarlet.txt",
        "sherlock-holmes-and-the-leading-lady.txt",
        "sherlock-holmes-and-the-sign-of-four.txt",
        "sherlock-holmes-faces-death.txt",
        "the-adventure-of-sherlock-holmes-smarter-brother.txt"
    ]
}