{
    "files": [
        "on-the-marriage-broker-joke-as-cited-by-sigmund-freud-in-wit-and-its-relation-to-the-unconscious-or-can-the-avant-garde-artist-be-wholed.txt",
        "the-wild-dakotas.txt"
    ]
}