{
    "files": [
        "amuck.txt",
        "amuck.txt",
        "auguri-professore.txt",
        "bread-and-tulips.txt",
        "bread-and-tulips.txt",
        "il-consiglio-d-egitto.txt",
        "private-detective.txt",
        "shooting-silvio.txt",
        "the-card-player.txt"
    ]
}