{
    "files": [
        "big-girls-don-t-cry-they-get-even.txt",
        "black-white.txt",
        "corn.txt",
        "corn.txt",
        "diameter-of-the-bomb.txt",
        "doin-time.txt",
        "eagle-vs-silver-fox.txt",
        "eat-and-run.txt",
        "exit-wounds.txt",
        "exposure.txt",
        "forgotten-silver.txt",
        "garbo-talks.txt",
        "hans-and-the-silver-skates.txt",
        "kiss-kiss-bang-bang.txt",
        "leeds-united-the-champions-1991-92.txt",
        "shadow-net.txt",
        "silver-dollar.txt",
        "silver-dragon-ninja.txt",
        "the-silver-chalice.txt",
        "the-silver-surfer.txt"
    ]
}