{
    "files": [
        "a-field-in-england.txt",
        "billy-the-kid-returns.txt",
        "call-of-the-rockies.txt",
        "down-mexico-way.txt",
        "for-those-in-peril.txt",
        "ride-ranger-ride.txt",
        "smiley-gets-a-gun.txt",
        "south-of-the-border.txt",
        "under-western-stars.txt"
    ]
}