{
    "files": [
        "down-for-life.txt",
        "falling-up.txt",
        "mac-devin-go-to-high-school.txt",
        "starsky-hutch.txt",
        "uprising-hip-hop-and-the-l-a-riots.txt",
        "xzibit-restless-xposed.txt"
    ]
}