{
    "files": [
        "desire-under-the-elms.txt",
        "golden-queen-s-commando.txt",
        "out-of-bounds.txt",
        "take-shelter.txt",
        "the-erotic-world-of-seka.txt",
        "too-bad-she-s-bad.txt"
    ]
}