{
    "files": [
        "four-for-the-morgue.txt",
        "irresistible-force.txt",
        "let-the-devil-wear-black.txt",
        "let-the-devil-wear-black.txt",
        "mike-hammer-murder-takes-all.txt",
        "no-room-for-rockstars-the-vans-warped-tour.txt",
        "one-for-the-money.txt",
        "riding-giants.txt",
        "riding-giants.txt",
        "storm-war.txt",
        "superman-requiem.txt",
        "sweatshop.txt",
        "the-beneficiary.txt",
        "the-darwin-conspiracy.txt",
        "winter-a-go-go.txt"
    ]
}