{
    "files": [
        "jerry-lee-lewis-last-man-standing-live.txt",
        "last-man-standing-live.txt",
        "last-man-standing.txt",
        "rogue-male.txt",
        "standing-in-the-shadowns-of-mowtown.txt",
        "the-running-jumping-standing-still-film.txt",
        "the-unchastened-woman.txt"
    ]
}