{
    "files": [
        "a-star-is-born.txt",
        "all-star-milfs.txt",
        "all-star-superman.txt",
        "all-star-teens-3.txt",
        "asia-noir-3.txt",
        "black-cock-slut.txt",
        "contract-star.txt",
        "dog-star-man-part-i.txt",
        "final-fantasy-legend-of-the-crystals-iv-star-chapter.txt",
        "fist-of-the-north-star-the-legend-of-kenshiro.txt",
        "five-star-final.txt",
        "five-star.txt",
        "hearts-and-minds-2-modern-warfare.txt",
        "if-looks-could-kill.txt",
        "john-wycliffe-the-morning-star.txt",
        "johnny-castle-rising-star.txt",
        "lego-star-wars-bombad-bounty.txt",
        "lego-star-wars-revenge-of-the-brick.txt",
        "lego-star-wars-the-padawan-menace.txt",
        "lone-star-scene.txt",
        "man-s-ruin.txt",
        "phish-star-lake-98.txt",
        "sinatra-dark-star.txt",
        "star-wars-revelations.txt",
        "star-wars-the-clone-wars-darth-maul-returns.txt",
        "star-wars-the-legacy-revealed.txt",
        "star-watching-dog.txt",
        "the-star-chamber.txt",
        "wwe-john-morrison-rock-star.txt"
    ]
}