{
    "files": [
        "a-taste-of-cold-steel.txt",
        "bending-steel.txt",
        "cold-steel.txt",
        "family-album.txt",
        "goodbye-charlie-bright.txt",
        "judas-priest-british-steel-30th-anniversary.txt",
        "lynyrd-skynyrd-lyve-from-steel-town.txt",
        "mixed-blessings.txt",
        "ring-of-steel.txt",
        "safe-harbour.txt",
        "steel-butterfly.txt",
        "steel-sharks.txt",
        "the-bridge.txt",
        "the-bridge.txt",
        "the-innocence-of-youth.txt",
        "the-steel-helmet.txt"
    ]
}