{
    "files": [
        "41.txt",
        "anne-of-green-gables-the-continuing-story.txt",
        "apples-and-oranges.txt",
        "bara-stefan-krister-bara.txt",
        "bara-stefan-krister-bara.txt",
        "confess.txt",
        "confess.txt",
        "echoes-of-home.txt",
        "ein-sommer-in-paris.txt",
        "gesche-s-poison.txt",
        "herzensschrei.txt",
        "illumination.txt",
        "labyrinth-of-lies.txt",
        "placebo-live-at-rock-am-ring-2006.txt",
        "pure-fucking-mayhem.txt",
        "stefan-everts-sand-vol-1.txt",
        "tempo.txt",
        "the-pick-up.txt",
        "uro.txt"
    ]
}