{
    "files": [
        "camp-rock-2-the-final-jam.txt",
        "casper.txt",
        "my-little-pony-twinkle-wish-adventure.txt",
        "sixgun.txt",
        "the-little-engine-that-could.txt"
    ]
}