{
    "files": [
        "30-beats.txt",
        "all-the-fine-young-cannibals.txt",
        "an-omar-broadway-film.txt",
        "and-now-tomorrow.txt",
        "angel.txt",
        "anywhere-but-here.txt",
        "arbitrage.txt",
        "blood-of-dracula.txt",
        "change-of-mind.txt",
        "deadly-target.txt",
        "death-screams.txt",
        "dragonfly.txt",
        "earrings.txt",
        "eating-raoul.txt",
        "effects.txt",
        "elizabethtown.txt",
        "eve-of-understanding.txt",
        "exposure.txt",
        "framed-for-murder.txt",
        "grosse-pointe-blank.txt",
        "happy-now.txt",
        "hot-thrills-and-warm-chills.txt",
        "i-can-get-it-for-you-wholesale.txt",
        "in-bad-taste.txt",
        "in-the-cool-of-the-day.txt",
        "in-the-land-of-milk-and-money.txt",
        "invitation-to-hell.txt",
        "johnny-2-0.txt",
        "kiss-kiss-bang-bang.txt",
        "lady-magdalene-s.txt",
        "lola.txt",
        "lost-on-location-behind-the-scenes-of-lost-in-translation.txt",
        "love-at-first-bite.txt",
        "moonlight-express.txt",
        "morlang.txt",
        "mussolini-and-i.txt",
        "my-amityville-horror.txt",
        "my-foolish-heart.txt",
        "my-nightmare.txt",
        "night-must-fall.txt",
        "pictures-from-a-revolution.txt",
        "playing-with-fire.txt",
        "private-gold-46-riviera-3.txt",
        "seeds-of-resiliency.txt",
        "seeds-of-resiliency.txt",
        "sis-hopkins.txt",
        "state-of-emergency.txt",
        "susan-slept-here.txt",
        "sweet-smell-of-success.txt",
        "tap-roots.txt",
        "taste-of-fear.txt",
        "the-big-fix.txt",
        "the-bridge.txt",
        "the-candy-snatchers.txt",
        "the-clown-murders.txt",
        "the-cutting-edge-3-chasing-the-dream.txt",
        "the-gene-krupa-story.txt",
        "the-grizzly-and-the-treasure.txt",
        "the-hairy-ape.txt",
        "the-incredible-hulk.txt",
        "the-jigsaw-man.txt",
        "the-lost-skeleton-of-cadavra.txt",
        "the-one-man-jury.txt",
        "the-red-beret.txt",
        "the-saxon-charm.txt",
        "this-is-what-democracy-looks-like.txt",
        "toxic-crusaders-the-movie.txt",
        "undermind.txt",
        "wendy-wu-homecoming-warrior.txt",
        "whispers-and-lies.txt",
        "with-a-song-in-my-heart.txt",
        "woman-obsessed.txt"
    ]
}