{
    "files": [
        "a-man-with-a-maid-a-tale-of-victorian-lust.txt",
        "nina-loves-girls.txt",
        "taylor-swift-just-for-you.txt",
        "taylor-swift-just-for-you.txt",
        "the-long-swift-sword-of-siegfried.txt"
    ]
}