{
    "files": [
        "a-day-at-santa-anita.txt",
        "chained-heat.txt",
        "convict-13.txt",
        "one-week.txt",
        "smiley-gets-a-gun.txt",
        "the-long-swift-sword-of-siegfried.txt",
        "the-singing-kid.txt"
    ]
}