{
    "files": [
        "casino.txt",
        "crocodile-fury.txt",
        "dynamite-brothers.txt",
        "floating-lives.txt",
        "haunted-karaoke.txt",
        "let-s-go.txt",
        "oddly.txt",
        "sexy-and-dangerous.txt",
        "sky-force-3d.txt",
        "snake-in-the-monkey-s-shadow.txt",
        "the-dragon-lives-again.txt",
        "the-enchanting-shadow.txt",
        "the-founding-of-a-republic.txt",
        "the-magnificent.txt"
    ]
}