{
    "files": [
        "blood-games.txt",
        "busty-cops-and-the-jewel-of-denial.txt",
        "champion-road-arena.txt",
        "forced-entry.txt",
        "girls-behaving-badly.txt",
        "island-girls.txt",
        "night-catches-us.txt",
        "night-catches-us.txt",
        "night-eyes.txt",
        "purgatory.txt",
        "relative-evil.txt",
        "tanya-tate-s-brit-school-brats.txt",
        "tanya-tate-s-brit-school-brats.txt",
        "tanya-tate-s-brit-school-brats.txt",
        "the-yum-yum-girls.txt"
    ]
}