{
    "files": [
        "andrei-tarkovsky-a-poet-in-the-cinema.txt",
        "andrei-tarkovsky-a-poet-in-the-cinema.txt",
        "voyage-in-time.txt",
        "voyage-in-time.txt",
        "voyage-in-time.txt"
    ]
}