{
    "files": [
        "a-bitter-taste-of-freedom.txt",
        "a-taste-of-cold-steel.txt",
        "a-taste-of-evil.txt",
        "in-bad-taste.txt",
        "taste-of-cherry.txt",
        "taste-of-fear.txt",
        "taste-the-waste.txt"
    ]
}