{
    "files": [
        "13-frightened-girls.txt",
        "a-state-of-mind.txt",
        "above-and-beyond.txt",
        "all-the-brothers-were-valiant.txt",
        "an-officer-and-a-gentleman.txt",
        "angels-in-the-attic.txt",
        "barred-for-life.txt",
        "black-friday.txt",
        "bob-dylan-the-30th-anniversary-concert-celebration.txt",
        "bound-by-honor.txt",
        "camp-blood.txt",
        "captured-beauty.txt",
        "cherish.txt",
        "cherish.txt",
        "colossus-and-the-amazon-queen.txt",
        "conspirator.txt",
        "conspirator.txt",
        "d-day-the-sixth-of-june.txt",
        "deadheads.txt",
        "debacle.txt",
        "den-brother.txt",
        "do-not-disturb.txt",
        "encrypt.txt",
        "eric-clapton-24-nights.txt",
        "escape.txt",
        "everything-s-ducky.txt",
        "father-of-the-bride.txt",
        "father-s-little-dividend.txt",
        "flight-command.txt",
        "flirting.txt",
        "food-fight.txt",
        "for-heaven-s-sake.txt",
        "forty-thousand-horsemen.txt",
        "foxfire.txt",
        "from-the-shadows.txt",
        "girl-shy.txt",
        "girl-shy.txt",
        "heavy.txt",
        "hollywood-the-unusual.txt",
        "hope-springs.txt",
        "horndog.txt",
        "i-wake-up-screaming.txt",
        "identikit.txt",
        "illtown.txt",
        "in-the-border-states.txt",
        "johnny-eager.txt",
        "katiebird-certifiable-crazy-person.txt",
        "kill-the-scream-queen.txt",
        "lady-of-the-tropics.txt",
        "law-of-the-lash.txt",
        "life-with-father.txt",
        "lock-in.txt",
        "lone-survivor.txt",
        "magnificent-obsession.txt",
        "milfs-like-it-big-10.txt",
        "moto-4-the-movie.txt",
        "moto-4-the-movie.txt",
        "moto-4-the-movie.txt",
        "national-velvet.txt",
        "never-weaken.txt",
        "personal-property.txt",
        "poker-alice.txt",
        "prancer.txt",
        "private-gold-64-cleopatra-2-the-legend-of-eros.txt",
        "prom-night-iii-the-last-kiss.txt",
        "pursuit-of-a-killer.txt",
        "rawhide.txt",
        "ray.txt",
        "rock-and-roll-fantasy.txt",
        "satan-s-schoolgirls.txt",
        "saving-pelican-895.txt",
        "second-chance.txt",
        "secrets-of-a-secretary.txt",
        "sentenced-to-hang.txt",
        "slipknot-disasterpieces.txt",
        "son-of-dracula.txt",
        "space-cowboys.txt",
        "stacy-s-mom.txt",
        "starting-out-in-the-evening.txt",
        "strikeforce-challengers-10-riggs-vs-taylor.txt",
        "strikeforce-challengers-10-riggs-vs-taylor.txt",
        "taylor-swift-just-for-you.txt",
        "taylor-swift-just-for-you.txt",
        "teen-handjobs-2.txt",
        "tex-rides-with-the-boy-scouts.txt",
        "the-conjuring.txt",
        "the-crawling-hand.txt",
        "the-first-round-up.txt",
        "the-glass-bottom-boat.txt",
        "the-last-hunt.txt",
        "the-law-and-jake-wade.txt",
        "the-misfits.txt",
        "the-rats-of-tobruk.txt",
        "the-sorcerer-s-apprentice.txt",
        "the-spider-woman-strikes-back.txt",
        "the-star-chamber.txt",
        "the-texas-chainsaw-massacre-the-beginning.txt",
        "the-ticket-of-leave-man.txt",
        "the-twilight-saga-eclipse.txt",
        "the-violent-kind.txt",
        "the-wife-swappers.txt",
        "things-i-never-told-you.txt",
        "triads-the-inside-story.txt",
        "welcome-to-woop-woop.txt",
        "what-if.txt",
        "what-on-earth.txt"
    ]
}