{
    "files": [
        "everything-is-terrible-holiday-special.txt",
        "i-catch-a-terrible-cat.txt",
        "isn-t-life-terrible.txt",
        "la-terrible-aventure-du-dr-faust.txt",
        "the-terrible-kids.txt"
    ]
}