{
    "files": [
        "a-deeper-shade-of-blue.txt",
        "alabama-love-story.txt",
        "american-folk-blues-festival-the-blues-and-gospel-train.txt",
        "barbie-a-perfect-christmas.txt",
        "barnum.txt",
        "bejewelled.txt",
        "bionicle-2-legends-of-metru-nui.txt",
        "black-spurs.txt",
        "bless-this-house.txt",
        "blue-valley-songbird.txt",
        "bury-me-an-angel.txt",
        "cash-on-delivery.txt",
        "cast-a-long-shadow.txt",
        "change-of-heart.txt",
        "chris-isaak-beyond-the-sun-live.txt",
        "christmas-miracle.txt",
        "cover-girl-killer.txt",
        "cover-girl-killer.txt",
        "crumb.txt",
        "crumb.txt",
        "dead-awake.txt",
        "dinner-time.txt",
        "ecw-november-to-remember.txt",
        "el-dorado-city-of-gold.txt",
        "evanescence-rock-in-rio-2011.txt",
        "evanescence-rock-in-rio-2011.txt",
        "excalibur.txt",
        "fear-and-loathing-in-las-vegas.txt",
        "flirting.txt",
        "gambling-house.txt",
        "gestapo-hitler-s-secret-police.txt",
        "haunted-gold.txt",
        "house-cleaning-time.txt",
        "ice-road-terror.txt",
        "invasion-of-the-bunny-snatchers.txt",
        "jane-doe-eye-of-the-beholder.txt",
        "joe-strummer-the-future-is-unwritten.txt",
        "keating-the-musical.txt",
        "king-of-the-khyber-rifles.txt",
        "lady-stay-dead.txt",
        "lady-stay-dead.txt",
        "luminous-motion.txt",
        "max-havoc-ring-of-fire.txt",
        "mike-and-the-mechanics-and-paul-carrack-live-at-shepherds-bush.txt",
        "miracle-of-flight.txt",
        "miracle-of-flight.txt",
        "miracle-of-flight.txt",
        "monty-python-s-life-of-brian.txt",
        "monty-python-s-life-of-brian.txt",
        "morning-of-the-earth.txt",
        "murder-in-a-small-town.txt",
        "not-only-but-always.txt",
        "play-mate-of-the-apes.txt",
        "pollyanna.txt",
        "prisoners-of-the-sun.txt",
        "rise-of-the-footsoldier.txt",
        "shack-out-on-101.txt",
        "small-soldiers.txt",
        "spiderbabe.txt",
        "stevie-ray-vaughan-live-from-austin-texas.txt",
        "super-inframan.txt",
        "terry-pratchett-choosing-to-die.txt",
        "terry-pratchett-choosing-to-die.txt",
        "terry.txt",
        "the-8th-plague.txt",
        "the-hidden-history-of-egypt.txt",
        "the-hidden-history-of-rome.txt",
        "the-legend-trip.txt",
        "the-lord-of-the-g-strings-the-femaleship-of-the-string.txt",
        "the-nail-gun-massacre.txt",
        "the-nail-gun-massacre.txt",
        "the-offspring.txt",
        "the-picnic.txt",
        "the-terence-davies-trilogy.txt",
        "the-terry-fox-story.txt",
        "the-way-of-war.txt",
        "they-wait.txt",
        "town-tamer.txt",
        "wec-24-full-force.txt",
        "wyrd-sisters.txt"
    ]
}