{
    "files": [
        "billy-boy.txt",
        "daffy-duck-egghead.txt",
        "deputy-droopy.txt",
        "deputy-droopy.txt",
        "droopy-s-double-trouble.txt",
        "egghead-rides-again.txt",
        "egghead-rides-again.txt",
        "gold-diggers-of-49.txt",
        "magical-maestro.txt",
        "one-cab-s-family.txt",
        "out-foxed.txt",
        "take-me-back-to-oklahoma.txt",
        "tex-rides-with-the-boy-scouts.txt",
        "tex-rides-with-the-boy-scouts.txt",
        "the-early-bird-dood-it.txt",
        "the-first-bad-man.txt",
        "the-hick-chick.txt",
        "uncle-tom-s-bungalow.txt"
    ]
}