{
    "files": [
        "doctors-don-t-tell.txt",
        "i-walk-alone.txt",
        "juke-girl.txt",
        "memories-of-midnight.txt",
        "my-first-romance.txt",
        "national-velvet.txt",
        "night-of-the-dark-full-moon.txt",
        "night-of-the-dark-full-moon.txt",
        "soldier-blue.txt",
        "sweet-november.txt",
        "the-defiant-ones.txt",
        "the-greatest-show-on-earth.txt",
        "the-roaring-road.txt",
        "the-southern-belle.txt",
        "the-vicar-of-wakefield.txt"
    ]
}