{
    "files": [
        "a-place-for-paedophiles.txt",
        "louis-theroux-extreme-love-autism.txt",
        "louis-theroux-extreme-love-autism.txt",
        "louis-theroux-extreme-love-autism.txt",
        "the-legend-of-lucy-keyes.txt"
    ]
}