{
    "files": [
        "a-thief-of-time.txt",
        "my-dog-the-thief.txt",
        "once-a-thief.txt",
        "the-neighborhood-thief.txt",
        "the-sheep-thief.txt",
        "the-thief.txt"
    ]
}