{
    "files": [
        "class-dismissed-how-tv-frames-the-working-class.txt",
        "dheem-tharikida-thom.txt",
        "empire-of-ash.txt",
        "evenings.txt",
        "gross-anatomy.txt",
        "night-of-the-comet.txt",
        "night-of-the-comet.txt",
        "radiohead-the-king-of-limbs-from-the-basement.txt",
        "radiohead-tkol-live-from-the-basement.txt",
        "sintel.txt",
        "sky-bandits.txt",
        "the-wild-dogs.txt",
        "the-witch-who-came-from-the-sea.txt",
        "twenty-cigarettes.txt"
    ]
}