{
    "files": [
        "i-was-a-teenage-zabbadoing-and-the-incredible-lusty-dust-whip-from-outer-space-conquers-the-earth-versus-the-3-psychedelic-stooges-of-dr-fun-helsing-and-fighting-against-surf-vampires-and-sex-nazis-and-have-troubles-with-this-endless-titillation-title.txt",
        "let-the-devil-wear-black.txt",
        "let-the-devil-wear-black.txt",
        "title.txt",
        "without-title.txt"
    ]
}