{
    "files": [
        "caruso-pascoski-di-padre-polacco.txt",
        "controsesso.txt",
        "good-king-dagobert.txt",
        "l-ultimo-crodino.txt",
        "the-bishop-s-bedroom.txt",
        "the-father-and-the-foreigner.txt",
        "the-father-and-the-foreigner.txt",
        "the-terrace.txt",
        "tutta-colpa-della-musica.txt",
        "tutta-colpa-della-musica.txt"
    ]
}