{
    "files": [
        "amityville-a-new-generation.txt",
        "amityville-it-s-about-time.txt",
        "excess-baggage.txt",
        "fear-and-loathing-in-las-vegas.txt",
        "mimic.txt",
        "pacific-rim.txt",
        "the-way-of-the-gun.txt"
    ]
}