{
    "files": [
        "broken-toys.txt",
        "demonic-toys-personal-demons.txt",
        "dollman-vs-demonic-toys.txt",
        "rudolph-the-red-nosed-reindeer-the-island-of-misfit-toys.txt"
    ]
}