{
    "files": [
        "cinematic-titanic-doomsday-machine.txt",
        "endless-orgy-for-the-goddess-of-perversion.txt",
        "endless-orgy-for-the-goddess-of-perversion.txt",
        "endless-orgy-for-the-goddess-of-perversion.txt",
        "endless-orgy-for-the-goddess-of-perversion.txt",
        "lady-street-fighter.txt",
        "mystery-science-theater-3000-the-movie.txt"
    ]
}