{
    "files": [
        "a-tragedy-at-midnight.txt",
        "japan-s-tragedy.txt",
        "little-aurore-s-tragedy.txt",
        "seeds-of-tragedy.txt",
        "the-tragedy-of-coriolanus.txt"
    ]
}