{
    "files": [
        "crossfire-trail.txt",
        "forbidden-trail.txt",
        "the-crooked-trail.txt",
        "the-desperate-trail.txt",
        "the-lonely-trail.txt",
        "the-narrow-trail.txt",
        "the-trail-beyond.txt",
        "tractor-tom-treasure-trail.txt",
        "trail-street.txt",
        "wagon-trail.txt"
    ]
}