{
    "files": [
        "five-came-back.txt",
        "heaven-with-a-barbed-wire-fence.txt",
        "lonely-are-the-brave.txt",
        "our-vines-have-tender-grapes.txt",
        "the-last-sunset.txt",
        "the-remarkable-andrew.txt"
    ]
}