{
    "files": [
        "bullet-and-brain.txt",
        "casino-raiders-ii.txt",
        "fly-me-to-polaris.txt",
        "i-love-hong-kong-2012.txt",
        "i-love-hong-kong-2012.txt",
        "invisible-waves.txt",
        "lacuna.txt",
        "the-banquet.txt",
        "triads-the-inside-story.txt",
        "white-vengeance.txt",
        "wildness.txt"
    ]
}