{
    "files": [
        "nightwish-bye-bye-beautiful.txt",
        "nightwish-end-of-an-era.txt",
        "nightwish-highest-hopes.txt",
        "nightwish-live-in-sydney.txt",
        "nightwish-nemo.txt"
    ]
}