{
    "files": [
        "1313-frankenqueen.txt",
        "all-the-world-s-a-stooge.txt",
        "amazing-milf-rack.txt",
        "bop-girl-goes-calypso.txt",
        "buck-wild.txt",
        "compound-fracture.txt",
        "compound-fracture.txt",
        "consuming-passions.txt",
        "daddy-s-little-girls.txt",
        "desperate-acts-of-magic.txt",
        "desperate-acts-of-magic.txt",
        "first-kiss.txt",
        "fitzwilly.txt",
        "funky-monkey.txt",
        "grizzly-rage.txt",
        "halloween-ii.txt",
        "heavy.txt",
        "i-shot-jesse-james.txt",
        "lesbian-legal-7.txt",
        "madea-s-family-reunion.txt",
        "madea-s-family-reunion.txt",
        "meet-the-browns.txt",
        "meet-the-browns.txt",
        "meet-the-browns.txt",
        "nerd-hard.txt",
        "polar-storm.txt",
        "pressed.txt",
        "reconvergence.txt",
        "ricochet-river.txt",
        "skid-row.txt",
        "super.txt",
        "the-parking-lot-movie.txt",
        "the-target-shoots-first.txt",
        "trigger-tom.txt",
        "turning-point.txt",
        "tyler-perry-s-i-can-do-bad-all-by-myself-the-play.txt",
        "tyler-perry-s-i-can-do-bad-all-by-myself-the-play.txt",
        "tyler-perry-s-i-don-t-want-to-do-wrong-the-play.txt",
        "tyler-perry-s-i-don-t-want-to-do-wrong-the-play.txt",
        "tyler-perry-s-i-don-t-want-to-do-wrong-the-play.txt",
        "ukm-the-ultimate-killing-machine.txt",
        "what-if.txt",
        "when-a-man-rides-alone.txt",
        "where-the-buffalo-roam.txt",
        "wobble-the-weight-of-the-truth.txt",
        "wordplay.txt",
        "x-15.txt"
    ]
}