{
    "files": [
        "bushido.txt",
        "bushido.txt",
        "mayu-uchida-woman-of-more-than-180.txt",
        "mayu-uchida-woman-of-more-than-180.txt",
        "souls-in-the-moonlight.txt"
    ]
}