{
    "files": [
        "contest.txt",
        "dutiful-but-dumb.txt",
        "face-of-a-fugitive.txt",
        "fuelin-around.txt",
        "jungle-gents.txt",
        "mutts-to-you.txt",
        "pixel-perfect.txt",
        "so-you-won-t-squawk.txt",
        "sudden-danger.txt",
        "sudden-danger.txt",
        "tassels-in-the-air.txt",
        "the-maze.txt",
        "under-the-gun.txt",
        "violent-is-the-word-for-curly.txt"
    ]
}