{
    "files": [
        "urbanus-ik-ben-een-plastiek-zakske.txt",
        "urbanus-ik-ben-een-plastiek-zakske.txt",
        "urbanus-meer-moet-dat-niet-zijn.txt",
        "urbanus-meer-moet-dat-niet-zijn.txt"
    ]
}