{
    "files": [
        "conrad-butler-take-a-vacation.txt",
        "national-lampoon-s-vacation.txt",
        "pat-benatar-live-the-summer-vacation-tour.txt",
        "snapshots-from-a-vacation-or-a-film-titled-a-fine-balance.txt",
        "the-dog-who-saved-christmas-vacation.txt"
    ]
}