{
    "files": [
        "apocalypse-clarkson.txt",
        "corbari.txt",
        "il-7-e-l-8.txt",
        "monsieur-beaucaire.txt",
        "the-bi-apple.txt",
        "valentino-y-el-clan-del-can.txt"
    ]
}