{
    "files": [
        "2-days-in-the-valley.txt",
        "ambush-valley.txt",
        "bloody-fight-in-iron-rock-valley.txt",
        "blue-valley-songbird.txt",
        "death-valley-manhunt.txt",
        "deep-in-the-valley.txt",
        "deep-valley.txt",
        "girl-of-ghost-valley.txt",
        "massacre-in-dinosaur-valley.txt",
        "memorial-valley-massacre.txt",
        "mommy-got-boobs-gargantuous-titted-mommy.txt",
        "people-of-the-po-valley.txt",
        "phish-alpine-valley.txt",
        "silicon-valley-a-100-year-renaissance.txt",
        "singapore-sling.txt",
        "the-proud-valley.txt",
        "the-valley-of-light.txt",
        "valley-of-fire.txt",
        "valley-of-strength.txt",
        "valley-of-wanted-men.txt"
    ]
}