{
    "files": [
        "avia-vampire-hunter.txt",
        "buffy-the-vampire-slayer-xxx-a-parody.txt",
        "dracula-the-vampire-and-the-voivode.txt",
        "elusive-song-of-the-vampire.txt",
        "mr-vampire-3.txt",
        "n-girls-vs-vampire.txt",
        "nosferatu-the-first-vampire.txt",
        "sundown-the-vampire-in-retreat.txt",
        "the-mad-love-life-of-a-hot-vampire.txt",
        "the-vampire-hunters-club.txt",
        "the-vampire-wedding.txt",
        "vampire-boys.txt",
        "vampire-catholic-school-girls-from-hell.txt",
        "vampire-cop-ricky.txt",
        "vampire-fantasies.txt",
        "vampire-hunter-d-bloodlust.txt",
        "vampire-of-quezon-city.txt",
        "vampire-settle-on-police-camp.txt",
        "vampire.txt"
    ]
}