{
    "files": [
        "a-sixteenth-century-russian-wedding.txt",
        "a-sixteenth-century-russian-wedding.txt",
        "collegues.txt",
        "collegues.txt",
        "collegues.txt",
        "little-vera.txt",
        "living.txt",
        "living.txt",
        "mazepa.txt",
        "rusalka.txt",
        "stenka-razin.txt",
        "the-white-eagle.txt",
        "travel-beyond-the-three-seas.txt"
    ]
}