{
    "files": [
        "chrysalis.txt",
        "crazy-moon.txt",
        "kiss-me-cat.txt",
        "stevie-ray-vaughan-live-from-austin-texas.txt",
        "stevie-ray-vaughan-live-from-austin-texas.txt"
    ]
}