{
    "files": [
        "a-kiss-in-the-dark.txt",
        "adventures-of-kitty-o-day.txt",
        "affair-with-a-stranger.txt",
        "angela.txt",
        "babes-illustrated-7.txt",
        "ben-10-destroy-all-aliens.txt",
        "break-of-hearts.txt",
        "bulldog-drummond-at-bay.txt",
        "call-me-claus.txt",
        "captains-courageous.txt",
        "carolina-blues.txt",
        "charlie-victor-romeo.txt",
        "city-of-shadows.txt",
        "clarke-miller-wooten-s-m-v-live-in-spain.txt",
        "coastlines.txt",
        "coastlines.txt",
        "cocktail-hour.txt",
        "conspirator.txt",
        "detective-kitty-o-day.txt",
        "dr-jekyll-and-mr-hyde.txt",
        "el-estudiante.txt",
        "et-hundeliv-med-mig.txt",
        "every-little-crook-and-nanny.txt",
        "footlight-serenade.txt",
        "friday-the-13th.txt",
        "friends-and-lovers.txt",
        "gambling-house.txt",
        "growing-holes.txt",
        "hangman-s-house.txt",
        "horror-island.txt",
        "hughes-and-harlow-angels-in-hell.txt",
        "i-wake-up-screaming.txt",
        "intimacy.txt",
        "invincible.txt",
        "last-ride.txt",
        "laughing-at-life.txt",
        "liberace-behind-the-music.txt",
        "million-dollar-mermaid.txt",
        "mister-wolf.txt",
        "moonlight-and-romance.txt",
        "my-boy.txt",
        "my-boy.txt",
        "national-lampoon-s-vacation.txt",
        "native-son.txt",
        "nothing-but-the-truth.txt",
        "o-noivo-da-girafa.txt",
        "our-vines-have-tender-grapes.txt",
        "safety-in-numbers.txt",
        "silent-wedding.txt",
        "slap-shot.txt",
        "song-of-the-islands.txt",
        "the-glory-brigade.txt",
        "the-hunchback.txt",
        "the-new-year.txt",
        "the-pinch-hitter.txt",
        "the-silver-chalice.txt",
        "the-task.txt",
        "the-victor.txt",
        "the-white-slave-trade.txt",
        "then-she-found-me.txt",
        "tokyo-mater.txt",
        "trapped-in-the-closet-chapters-13-22.txt",
        "ulee-s-gold.txt",
        "ulee-s-gold.txt",
        "victor.txt",
        "violent-saturday.txt",
        "what-happened-to-rosa.txt",
        "where-the-condors-fly.txt"
    ]
}