{
    "files": [
        "almost-round-three-the-almost-video.txt",
        "anal-prostitutes-on-video-8.txt",
        "bratz-the-video-starrin-stylin.txt",
        "bruce-springsteen-the-complete-video-anthology-1978-2000.txt",
        "digital-video-essentials-hd-basics.txt",
        "digital-video-essentials.txt",
        "don-t-try-this-at-home-the-steve-o-video-vol-2.txt",
        "richard-scarry-s-best-busy-people-video-ever.txt",
        "richard-scarry-s-best-sing-along-mother-goose-video-ever.txt",
        "stay-gold-the-emerica-video.txt",
        "the-big-brother-video-2.txt",
        "the-dc-video.txt",
        "the-wheels-on-the-bus-video-mango-and-papaya-s-animal-adventures.txt",
        "van-halen-video-hits-vol-1.txt",
        "video-violence-2.txt"
    ]
}