{
    "files": [
        "a-song-to-remember.txt",
        "are-parents-people.txt",
        "bud-s-recruit.txt",
        "ruby-gentry.txt",
        "ruby-gentry.txt",
        "strangers-all.txt",
        "the-citadel.txt",
        "the-fountainhead.txt",
        "the-jack-knife-man.txt",
        "the-sky-pilot.txt",
        "the-tuttles-of-tahiti.txt",
        "the-wedding-night.txt",
        "war-and-peace.txt",
        "war-and-peace.txt"
    ]
}