{
    "files": [
        "animated-hero-classics-leonardo-da-vinci.txt",
        "baby-einstein-baby-da-vinci.txt",
        "da-vinci-tracking-the-code.txt",
        "origins-of-the-da-vinci-code.txt"
    ]
}