{
    "files": [
        "dio-finding-the-sacred-heart-live-in-philly-1986.txt",
        "hijacked.txt",
        "locked-down.txt",
        "night-at-the-golden-eagle.txt",
        "vinnie-vincent-metal-tech.txt"
    ]
}