{
    "files": [
        "american-virgin.txt",
        "the-eighteen-carat-virgin.txt",
        "the-virgin-and-the-gypsy.txt",
        "valentina-the-virgin-wife.txt",
        "virgin-alexander.txt",
        "virgin-sky.txt"
    ]
}