{
    "files": [
        "a-voyage-round-my-father.txt",
        "celtic-thunder-voyage.txt",
        "darwin-s-lost-voyage.txt",
        "magnificent-voyage-of-christopher-columbus.txt",
        "mind-meld-secrets-behind-the-voyage-of-a-lifetime.txt",
        "terminal-voyage.txt",
        "the-immortal-voyage-of-captain-drake.txt",
        "the-magic-voyage-of-sinbad.txt",
        "the-magic-voyage.txt",
        "un-voyage-autour-de-la-terre.txt",
        "voyage-in-time.txt",
        "voyage-of-the-rock-aliens.txt"
    ]
}