{
    "files": [
        "ace-in-the-hole.txt",
        "africa-speaks.txt",
        "along-the-great-divide.txt",
        "always-in-my-heart.txt",
        "another-48-hrs.txt",
        "another-shore.txt",
        "are-you-in-the-house-alone.txt",
        "baby-monitor-sound-of-fear.txt",
        "bang-bang.txt",
        "big-brown-eyes.txt",
        "but-not-for-me.txt",
        "casey-s-shadow.txt",
        "command-decision.txt",
        "death-s-marathon.txt",
        "emergency-hospital.txt",
        "flight-command.txt",
        "frank-sinatra-concert-for-the-americas.txt",
        "funeral-for-an-assassin.txt",
        "good-girls-go-to-paris.txt",
        "government-agents-vs-phantom-legion.txt",
        "harry-and-walter-go-to-new-york.txt",
        "kentucky-belles.txt",
        "king-klunk.txt",
        "king-klunk.txt",
        "king-of-kong-island.txt",
        "king-richard-and-the-crusaders.txt",
        "law-and-order.txt",
        "les-aventures-de-tom-sawyer.txt",
        "little-annie-rooney.txt",
        "little-miss-marker.txt",
        "little-miss-marker.txt",
        "little-miss-marker.txt",
        "lonely-are-the-brave.txt",
        "manhunter.txt",
        "million-dollar-mermaid.txt",
        "moon-over-miami.txt",
        "mr-blabbermouth.txt",
        "mr-skeffington.txt",
        "my-amityville-horror.txt",
        "my-amityville-horror.txt",
        "na-boca-da-noite.txt",
        "na-boca-da-noite.txt",
        "on-the-riviera.txt",
        "one-night-with-blue-note.txt",
        "out-to-sea.txt",
        "p-38-flight-characteristics.txt",
        "paddy-the-next-best-thing.txt",
        "plaza-suite.txt",
        "prometheus-the-weyland-files.txt",
        "public-hero-number-1.txt",
        "semi-tough.txt",
        "silent-cries.txt",
        "silicon-valley-a-100-year-renaissance.txt",
        "song-of-the-islands.txt",
        "sons-of-the-sea.txt",
        "start-cheering.txt",
        "state-fair.txt",
        "tap-roots.txt",
        "the-bandmaster.txt",
        "the-baroness-and-the-butler.txt",
        "the-big-gamble.txt",
        "the-busy-barber.txt",
        "the-butcher-boy.txt",
        "the-couch-trip.txt",
        "the-getaway.txt",
        "the-grass-harp.txt",
        "the-house-that-dinky-built.txt",
        "the-hunter.txt",
        "the-inheritors.txt",
        "the-lady-lies.txt",
        "the-leopard-s-spots.txt",
        "the-mighty-barnum.txt",
        "the-over-the-hill-gang.txt",
        "the-pregnancy-project.txt",
        "the-showdown.txt",
        "the-survivors.txt",
        "the-true-story-of-jesse-james.txt",
        "the-velvet-touch.txt",
        "the-victor.txt",
        "the-warriors.txt",
        "the-woman-from-monte-carlo.txt",
        "twenty-four-hours-to-kill.txt",
        "undisputed.txt",
        "voice-in-the-mirror.txt",
        "waking-up-wally-the-walter-gretzky-story.txt",
        "walter-finds-a-father.txt",
        "walter-finds-a-father.txt",
        "wayne-gretzky-above-and-beyond.txt",
        "week-end-in-havana.txt",
        "when-ambrose-dared-walrus.txt",
        "wild-bill.txt",
        "wild-bill.txt",
        "with-a-song-in-my-heart.txt",
        "women-in-chains.txt",
        "woody-dines-out.txt"
    ]
}