{
    "files": [
        "everything-you-want.txt",
        "i-don-t-want-to-go-back-alone.txt",
        "i-want-candy.txt",
        "i-want-your-love.txt",
        "so-you-want-to-wear-the-pants.txt",
        "tyler-perry-s-i-don-t-want-to-do-wrong-the-play.txt",
        "we-want-roses-too.txt"
    ]
}