{
    "files": [
        "drawing-dead-the-highs-and-lows-of-online-poker.txt",
        "forbidden-trail.txt",
        "palmy-days.txt",
        "the-violent-years.txt",
        "truck-turner.txt",
        "two-weeks-in-hell.txt",
        "two-weeks-with-love.txt",
        "van-morrison-astral-weeks-live-at-the-hollywood-bowl-the-concert-film.txt"
    ]
}