{
    "files": [
        "abducted.txt",
        "blue-hawaii.txt",
        "disaster.txt",
        "roustabout.txt",
        "suicide.txt",
        "the-legend-of-hercules.txt",
        "the-pretender-2001.txt",
        "vampires-the-turning.txt"
    ]
}