{
    "files": [
        "cocoon.txt",
        "jim-brown-all-american.txt",
        "johnny-2-0.txt",
        "professor-beware.txt",
        "song-of-freedom.txt",
        "the-bachelor-party.txt",
        "the-bachelor-party.txt"
    ]
}