{
    "files": [
        "3-10-to-yuma.txt",
        "32-hours-7-minutes.txt",
        "a-king-s-story.txt",
        "arena-the-orson-welles-story.txt",
        "career-bed.txt",
        "confessions-of-a-young-american-housewife.txt",
        "francis-in-the-haunted-house.txt",
        "future-shock.txt",
        "i-ll-never-forget-what-s-isname.txt",
        "it-happened-one-christmas.txt",
        "man-in-the-shadow.txt",
        "too-much-johnson.txt",
        "too-much-johnson.txt"
    ]
}