{
    "files": [
        "call-me-claus.txt",
        "cheerleaders-wild-weekend.txt",
        "coming-attractions-the-history-of-the-movie-trailer.txt",
        "der-bomberpilot.txt",
        "der-bomberpilot.txt",
        "eika-katappa.txt",
        "eika-katappa.txt",
        "front-of-the-class.txt",
        "guest-in-the-house.txt",
        "hail-the-conquering-hero.txt",
        "heidi.txt",
        "kampf-um-norwegen-feldzug-1940.txt",
        "mama-flora-s-family.txt",
        "mariandl.txt",
        "mondo-lux-die-bilderwelten-des-werner-schroeter.txt",
        "mondo-lux-die-bilderwelten-des-werner-schroeter.txt",
        "plastic-bag.txt",
        "psychopath.txt",
        "the-dark-glow-of-the-mountain.txt",
        "the-dark-glow-of-the-mountain.txt",
        "the-heathens-of-kummerow.txt",
        "the-pact.txt",
        "unkraut-im-paradies.txt",
        "winter-s-daughter.txt"
    ]
}