{
    "files": [
        "amazing-world-of-ghosts.txt",
        "dancing-trees.txt",
        "half-shot-at-sunrise.txt",
        "hold-em-jail.txt",
        "paul-chowdhry-what-s-happening-white-people.txt",
        "the-cuckoos.txt",
        "the-dark-redemption.txt",
        "the-foursome.txt",
        "the-rainmakers.txt"
    ]
}