{
    "files": [
        "a-conversation-with-god.txt",
        "a-conversation-with-gregory-peck.txt",
        "a-journey-with-paul-cox.txt",
        "a-man-with-a-maid-a-tale-of-victorian-lust.txt",
        "a-man-with-warranty.txt",
        "a-room-with-a-view.txt",
        "a-starry-night-with-simply-red.txt",
        "a-weekend-with-lulu.txt",
        "a-year-with-armin-van-buuren.txt",
        "affair-with-a-stranger.txt",
        "after-midnight-with-boston-blackie.txt",
        "appointment-with-venus.txt",
        "assume-the-position-with-mr-wuhl.txt",
        "at-folsom-prison-with-dr-timothy-leary.txt",
        "barbara-the-fair-with-the-silken-hair.txt",
        "behind-the-scenes-with-the-bootleggers.txt",
        "bottled-life-nestle-s-business-with-water.txt",
        "caicedo-with-pole.txt",
        "come-play-with-me.txt",
        "come-with-me-my-love.txt",
        "coming-to-terms-with-the-dead.txt",
        "conversations-with-mother.txt",
        "dances-with-the-dragon.txt",
        "dancing-with-the-devil.txt",
        "deep-purple-in-concert-with-the-london-symphony-orchestra.txt",
        "dinner-with-my-sisters.txt",
        "don-t-play-with-me-2.txt",
        "down-with-your-hands-you-scum.txt",
        "dream-theater-score-20th-anniversary-world-tour-live-with-the-octavarium-orchestra.txt",
        "dreaming-fist-with-slender-hands.txt",
        "egyptian-fakir-with-dancing-monkey.txt",
        "flirting-with-flamenco.txt",
        "four-nights-with-anna.txt",
        "frazetta-painting-with-fire.txt",
        "gambling-with-souls.txt",
        "getting-away-with-murder.txt",
        "god-went-surfing-with-the-devil.txt",
        "gone-with-the-west.txt",
        "gorillas-revisited-with-sir-david-attenborough.txt",
        "heaven-with-a-barbed-wire-fence.txt",
        "himalaya-with-michael-palin.txt",
        "i-walked-with-a-zombie.txt",
        "i-was-a-teenage-zabbadoing-and-the-incredible-lusty-dust-whip-from-outer-space-conquers-the-earth-versus-the-3-psychedelic-stooges-of-dr-fun-helsing-and-fighting-against-surf-vampires-and-sex-nazis-and-have-troubles-with-this-endless-titillation-title.txt",
        "instrument-ten-years-with-the-band-fugazi.txt",
        "interview-with-a-hitman.txt",
        "interview-with-a-serial-killer.txt",
        "interviews-with-my-next-girlfriend.txt",
        "jibbing-with-jeremy-jones.txt",
        "journeys-with-george.txt",
        "jumping-with-jussi.txt",
        "keeping-up-with-the-steins.txt",
        "kiss-1988-a-crazy-night-with-kiss.txt",
        "kudo-shinichi-returns-showdown-with-the-black-organization.txt",
        "lamb-of-god-walk-with-me-in-hell.txt",
        "life-with-father.txt",
        "man-with-the-transplanted-brain.txt",
        "max-ruby-afternoons-with-max-ruby.txt",
        "max-ruby-playtime-with-max-ruby.txt",
        "max-ruby-visit-with-grandma.txt",
        "meat-loaf-live-with-the-melbourne-symphony-orchestra.txt",
        "my-date-with-drew.txt",
        "my-date-with-the-president-s-daughter.txt",
        "my-dinner-with-jimi.txt",
        "my-night-with-reg.txt",
        "nirvana-with-the-lights-out.txt",
        "one-night-with-blue-note.txt",
        "out-west-with-the-hardys.txt",
        "pact-with-the-devil.txt",
        "party-with-the-penguins.txt",
        "pat-shortt-you-won-t-get-away-with-that-here.txt",
        "playing-with-fire.txt",
        "playing-with-love.txt",
        "pocoyo-fun-dance-with-pocoyo.txt",
        "romance-with-a-double-bass.txt",
        "scorpions-moment-of-glory-live-with-the-berlin-philharmonic-orchestra.txt",
        "shake-hands-with-the-devil.txt",
        "sleep-with-me.txt",
        "slippin-ten-years-with-the-bloods.txt",
        "solartaxi-around-the-world-with-the-sun.txt",
        "swimming-with-sharks.txt",
        "tex-rides-with-the-boy-scouts.txt",
        "that-guy-with-the-glasses-anniversary-brawl.txt",
        "that-night-with-you.txt",
        "the-berrics-new-year-s-dae-with-daewon-song.txt",
        "the-bird-with-the-crystal-plumage.txt",
        "the-devil-with-hitler.txt",
        "the-house-with-closed-shutters.txt",
        "the-iceman-tapes-conversations-with-a-killer.txt",
        "the-iguana-with-the-tongue-of-fire.txt",
        "the-man-with-a-cloak.txt",
        "the-man-with-my-face.txt",
        "the-man-with-one-red-shoe.txt",
        "the-man-with-the-golden-arm.txt",
        "the-sword-with-no-name.txt",
        "the-thing-with-two-heads.txt",
        "the-trouble-with-dee-dee.txt",
        "the-trouble-with-dick.txt",
        "the-trouble-with-romance.txt",
        "the-willie-nelson-special-with-special-guest-ray-charles.txt",
        "theo-fleury-playing-with-fire.txt",
        "to-hell-with-the-devil.txt",
        "trouble-with-the-curve.txt",
        "two-weeks-with-love.txt",
        "walking-with-cavemen.txt",
        "week-end-with-father.txt",
        "what-s-love-got-to-do-with-it.txt",
        "winston-churchill-walking-with-destiny.txt",
        "with-a-kodak.txt",
        "with-a-song-in-my-heart.txt",
        "with-heart-soul.txt",
        "with-one-voice.txt",
        "with-the-gypsy-girls.txt",
        "wizards-on-deck-with-hannah-montana.txt",
        "x-the-man-with-the-x-ray-eyes.txt",
        "young-man-with-ideas.txt"
    ]
}