{
    "files": [
        "a-cry-in-the-night.txt",
        "all-the-fine-young-cannibals.txt",
        "bloodthirsty-butchers.txt",
        "body-of-the-prey.txt",
        "command-decision.txt",
        "dr-jeckyll-s-dungeon-of-death.txt",
        "ed-wood.txt",
        "excuse-my-dust.txt",
        "flipper.txt",
        "g-i-l-f-a-grannies-i-d-like-to-fuck-anally.txt",
        "hard-wood.txt",
        "haunts-of-the-very-rich.txt",
        "hot-ice.txt",
        "hot-ice.txt",
        "justin-morgan-had-a-horse.txt",
        "king-of-california.txt",
        "maneater.txt",
        "navy-blue-and-gold.txt",
        "necromania-a-tale-of-weird-love.txt",
        "never-a-dull-moment.txt",
        "paid.txt",
        "peck-s-bad-boy.txt",
        "plane-crazy.txt",
        "rampage.txt",
        "range-war.txt",
        "revenge-for-jolly.txt",
        "scream-free.txt",
        "shadowlands.txt",
        "sharpe-s-company.txt",
        "sharpe-s-regiment.txt",
        "sportkill.txt",
        "the-barbarian.txt",
        "the-life-before-her-eyes.txt",
        "the-little-death.txt",
        "the-little-death.txt",
        "the-lord-of-the-rings-the-fellowship-of-the-ring.txt",
        "the-lord-of-the-rings-the-two-towers.txt",
        "the-missing-person.txt",
        "the-necessary-death-of-charlie-countryman.txt",
        "the-revengers-comedies.txt",
        "the-sinister-urge.txt",
        "the-sinister-urge.txt",
        "the-unguarded-hour.txt",
        "the-violent-years.txt"
    ]
}