{
    "files": [
        "alligator-2-the-mutation.txt",
        "animal-instincts-ii.txt",
        "ethos.txt",
        "everyone-says-i-love-you.txt",
        "everyone-says-i-love-you.txt",
        "glass-a-portrait-of-philip-in-twelve-parts.txt",
        "grass.txt",
        "keoma.txt",
        "management.txt",
        "past-sins.txt",
        "the-battle-of-amfar.txt",
        "the-last-rebel.txt",
        "the-purple-rose-of-cairo.txt",
        "the-purple-rose-of-cairo.txt",
        "the-sunshine-boys.txt",
        "the-unholy-four.txt",
        "the-walker.txt",
        "white-men-can-t-jump.txt",
        "woody-dines-out.txt",
        "you-will-meet-a-tall-dark-stranger.txt",
        "you-will-meet-a-tall-dark-stranger.txt",
        "zelig.txt",
        "zelig.txt",
        "zelig.txt"
    ]
}