{
    "files": [
        "private-gold-14-sweet-baby-1.txt",
        "private-gold-46-riviera-3.txt",
        "private-gold-6-cape-town-2.txt",
        "private-gold-7-kruger-park.txt",
        "the-woodmans.txt",
        "the-woodmans.txt",
        "the-woodmans.txt"
    ]
}