{
    "files": [
        "a-night-in-the-woods.txt",
        "back-woods.txt",
        "beauty-for-the-asking.txt",
        "boobs-in-the-woods.txt",
        "fast-walking.txt",
        "looking-for-alibrandi.txt",
        "mallory-must-not-die.txt",
        "monsters-in-the-woods.txt",
        "my-name-is-pecos.txt",
        "once-upon-a-time-in-america.txt",
        "out-of-the-woods.txt",
        "queens-of-the-stone-age-over-the-years-and-through-the-woods.txt",
        "race-to-space.txt",
        "savage-guns.txt",
        "straight-talk.txt",
        "swordfish.txt",
        "the-bad-boy.txt",
        "the-secret-of-the-old-woods.txt",
        "the-tiger-woods-story.txt",
        "the-watcher-in-the-woods.txt",
        "the-woods-part-1.txt",
        "welcome-to-the-hood.txt",
        "white-fang-and-the-hunter.txt",
        "youngblood.txt"
    ]
}