{
    "files": [
        "doa-dead-or-alive.txt",
        "eskimo.txt",
        "event-horizon.txt",
        "never-the-twain-shall-meet.txt",
        "new-moon.txt",
        "personal-property.txt",
        "rage-in-heaven.txt",
        "resident-evil-afterlife.txt",
        "resident-evil-afterlife.txt",
        "san-francisco.txt",
        "tarzan-the-ape-man.txt",
        "the-sight.txt",
        "the-sight.txt",
        "the-thin-man.txt"
    ]
}