{
    "files": [
        "a-kiss-in-the-dark.txt",
        "how-to-commit-marriage.txt",
        "larceny-inc.txt",
        "so-big.txt",
        "the-blue-veil.txt",
        "the-glass-menagerie.txt",
        "the-lady-takes-a-sailor.txt"
    ]
}