{
    "files": [
        "bad-bizness.txt",
        "big-bad-mama-ii.txt",
        "big-bad-mama-ii.txt",
        "busty-cops-and-the-jewel-of-denial.txt",
        "camel-spiders.txt",
        "camel-spiders.txt",
        "deep-evil.txt",
        "dinosaur-island.txt",
        "dinosaur-island.txt",
        "munchie-strikes-back.txt",
        "munchie-strikes-back.txt",
        "project-viper.txt",
        "sorceress-ii-the-temptress.txt",
        "sub-zero.txt",
        "the-thing-below.txt",
        "wolfhound.txt"
    ]
}