{
    "files": [
        "asian-cop-high-voltage.txt",
        "asian-cop-high-voltage.txt",
        "black-rose-academy.txt",
        "emperor-of-shaolin-kung-fu.txt",
        "floating-lives.txt",
        "iceman.txt",
        "iron-monkey-2.txt",
        "satan-returns.txt",
        "that-man-in-chang-an.txt",
        "the-black-panther.txt",
        "the-invincible-constable.txt",
        "the-monkey-king.txt"
    ]
}