{
    "files": [
        "bloody-fight-in-iron-rock-valley.txt",
        "dont-cry-for-me-sudan.txt",
        "invisible-light.txt",
        "invisible-waves.txt",
        "iri.txt",
        "lovers-vanished.txt",
        "miracle-on-1st-street.txt",
        "my-dear-desperado.txt",
        "the-juche-idea.txt"
    ]
}