{
    "files": [
        "bitter-end-of-a-sweet-night.txt",
        "bitter-end-of-a-sweet-night.txt",
        "demon-fighter-kocho.txt",
        "henshin.txt",
        "honokaa-boy.txt",
        "love-twisted.txt",
        "love-twisted.txt",
        "otona-joshi-no-anime-time-kawamo-o-suberu-kaze.txt",
        "we-were-here-part-1.txt",
        "we-were-here-part-2.txt",
        "yokai-monsters-spook-warfare.txt"
    ]
}