{
    "files": [
        "a-boy-s-sister.txt",
        "black-white.txt",
        "days-of-eclipse.txt",
        "gospodin-gimnazist.txt",
        "operatsiya-eniki-beniki.txt",
        "ordered-to-wed.txt",
        "prince-vladimir.txt",
        "steel-butterfly.txt",
        "telets.txt",
        "the-hot-snow.txt",
        "the-hot-snow.txt",
        "the-stone.txt",
        "the-volunteers.txt",
        "the-volunteers.txt"
    ]
}