{
    "files": [
        "american-gothic.txt",
        "band-of-angels.txt",
        "batgirl.txt",
        "campane-a-martello.txt",
        "jesus-christ-superstar.txt",
        "little-aurore-s-tragedy.txt",
        "magic-fire.txt",
        "planeat.txt",
        "privilege.txt",
        "puce-moment.txt",
        "salome-where-she-danced.txt",
        "suicide.txt",
        "suicide.txt",
        "the-brides-of-dracula.txt",
        "the-incredible-sarah.txt",
        "the-return-of-count-yorga.txt",
        "the-silent-scream.txt",
        "the-sword-of-the-barbarians.txt",
        "the-white-angel.txt",
        "tormento.txt",
        "yield-to-the-night.txt"
    ]
}