{
    "files": [
        "beverly-hills-chihuahua-2.txt",
        "dr-dolittle-million-dollar-mutts.txt",
        "my-date-with-the-president-s-daughter.txt",
        "my-date-with-the-president-s-daughter.txt"
    ]
}