{
    "files": [
        "baby-genius-a-trip-to-the-san-diego-zoo.txt",
        "miss-patty-cake-and-the-hullabaloo-zoo.txt",
        "postcards-from-the-zoo.txt",
        "the-flaming-lips-u-f-o-s-at-the-zoo.txt",
        "zoo-baby.txt",
        "zoo-in-budapest.txt",
        "zoo.txt"
    ]
}